[
null,
{"id":1,"expParams":[50,25,38,43],"traits":[{"code":23,"dataId":0,"value":1},{"code":22,"dataId":0,"value":0.95},{"code":22,"dataId":1,"value":0.05},{"code":22,"dataId":2,"value":0.04},{"code":41,"dataId":1,"value":0},{"code":41,"dataId":2,"value":0},{"code":51,"dataId":1,"value":0},{"code":52,"dataId":2,"value":0},{"code":52,"dataId":4,"value":0},{"code":11,"dataId":3,"value":2},{"code":11,"dataId":9,"value":2},{"code":11,"dataId":4,"value":0.25},{"code":11,"dataId":6,"value":0.9},{"code":11,"dataId":10,"value":0.25},{"code":22,"dataId":3,"value":0.04},{"code":52,"dataId":1,"value":0},{"code":43,"dataId":1,"value":1},{"code":43,"dataId":2,"value":1}],"learnings":[{"level":1,"note":"","skillId":128},{"level":15,"note":"","skillId":129},{"level":30,"note":"","skillId":130},{"level":5,"note":"","skillId":131},{"level":20,"note":"","skillId":132},{"level":34,"note":"","skillId":133},{"level":1,"note":"","skillId":134},{"level":26,"note":"","skillId":135},{"level":48,"note":"","skillId":136},{"level":12,"note":"","skillId":137},{"level":40,"note":"","skillId":138},{"level":55,"note":"","skillId":139},{"level":38,"note":"","skillId":140},{"level":47,"note":"","skillId":141},{"level":64,"note":"","skillId":142}],"name":"Suenian Blademage","note":"<Custom Class Parameters>\nmaxhp = level * 55.0 + 500;\nmaxmp = level * 40.0 + 80;\natk = level * 6.5 + 50;\ndef = level * 5.5 + 40;\nmat = level * 6.0 + 50;\nmdf = level * 6.0 + 45;\nagi = level * 5.0 + 25;\nluk = level * 4.0 + 20;\nexp =  105* Math.pow(level, 0.1) * Math.pow(level, 2.5) + Math.pow(level - 1, 4);\n</Custom Class Parameters>\n\n","params":[[0,542,612,681,750,819,889,958,1027,1096,1165,1235,1304,1373,1442,1511,1581,1650,1719,1788,1858,1927,1996,2065,2134,2204,2273,2342,2411,2480,2550,2619,2688,2757,2827,2896,2965,3034,3103,3173,3242,3311,3380,3449,3519,3588,3657,3726,3796,3865,3934,4003,4072,4142,4211,4280,4349,4418,4488,4557,4626,4695,4765,4834,4903,4972,5041,5111,5180,5249,5318,5387,5457,5526,5595,5664,5734,5803,5872,5941,6010,6080,6149,6218,6287,6356,6426,6495,6564,6633,6703,6772,6841,6910,6979,7049,7118,7187,7256,7325],[0,90,100,110,120,130,140,150,160,170,180,190,200,210,220,230,240,250,260,270,280,290,300,310,320,330,340,350,360,370,380,390,400,410,420,430,440,450,460,470,480,490,500,510,520,530,540,550,560,570,580,590,600,610,620,630,640,650,660,670,680,690,700,710,720,730,740,750,760,770,780,790,800,810,820,830,840,850,860,870,880,890,900,910,920,930,940,950,960,970,980,990,1000,1010,1020,1030,1040,1050,1060,1070],[0,27,29,31,35,39,41,45,47,49,50,53,57,61,63,64,67,69,71,73,75,76,78,80,81,82,83,84,85,88,90,93,96,99,101,102,104,105,107,111,114,115,117,118,121,122,124,126,127,130,132,134,135,139,141,144,147,148,150,153,157,160,162,165,166,167,168,170,173,175,178,182,183,185,187,187,188,190,190,191,192,195,197,200,202,205,210,213,214,214,217,220,223,228,230,233,236,239,243,245],[0,20,21,21,23,24,26,27,27,30,32,35,37,39,41,44,46,47,48,49,50,53,56,58,59,62,63,64,66,69,72,73,74,74,76,78,80,82,83,85,85,85,85,87,87,89,89,89,91,92,95,97,99,100,101,102,104,106,107,108,109,110,111,114,115,116,118,121,123,124,126,128,128,130,130,131,132,132,132,133,134,136,139,141,142,144,145,149,150,153,156,160,161,164,166,168,170,171,174,175],[0,28,30,32,33,36,38,39,41,41,45,48,50,53,55,57,59,63,65,66,69,69,71,73,75,79,81,84,88,90,91,91,91,95,98,100,102,105,107,108,109,109,110,113,113,114,114,116,118,118,119,122,123,125,127,131,134,135,138,139,141,142,144,145,147,148,149,152,156,161,165,167,169,170,173,175,177,178,183,182,184,186,187,190,192,193,195,197,199,201,205,210,213,216,219,222,225,226,227,229],[0,21,23,25,27,29,31,33,35,37,39,41,43,45,47,49,51,53,55,57,59,61,63,65,67,69,71,73,75,77,79,81,83,85,87,89,91,93,95,97,99,101,103,105,107,109,111,113,115,117,118,120,122,124,126,128,130,132,134,136,138,140,142,144,146,148,150,152,154,156,158,160,162,164,166,168,170,172,174,176,178,180,182,184,186,188,190,192,194,196,198,200,202,204,206,208,210,212,214,215],[0,21,24,27,29,32,34,37,39,42,44,47,49,52,55,57,60,62,65,67,70,72,75,77,80,82,85,88,90,93,95,98,100,103,105,108,110,113,116,118,121,123,126,128,131,133,136,138,141,143,146,149,151,154,156,159,161,164,166,169,171,174,176,179,182,184,187,189,192,194,197,199,202,204,207,210,212,215,217,220,222,225,227,230,232,235,237,240,243,245,248,250,253,255,258,260,263,265,268,270],[0,27,31,34,37,41,44,47,50,54,57,60,63,67,70,73,76,80,83,86,89,93,96,99,102,106,109,112,115,119,122,125,128,132,135,138,141,145,148,151,154,158,161,164,167,171,174,177,180,184,187,190,194,197,200,203,207,210,213,216,220,223,226,229,233,236,239,242,246,249,252,255,259,262,265,268,272,275,278,281,285,288,291,294,298,301,304,307,311,314,317,320,324,327,330,333,337,340,343,346]]},
{"id":2,"expParams":[50,25,38,43],"traits":[{"code":23,"dataId":0,"value":1},{"code":22,"dataId":0,"value":0.95},{"code":22,"dataId":1,"value":0.07},{"code":22,"dataId":2,"value":0.09},{"code":41,"dataId":1,"value":0},{"code":41,"dataId":7,"value":0},{"code":51,"dataId":2,"value":0},{"code":52,"dataId":5,"value":0},{"code":52,"dataId":3,"value":0},{"code":11,"dataId":1,"value":1.5},{"code":11,"dataId":10,"value":2},{"code":11,"dataId":9,"value":0.25},{"code":22,"dataId":3,"value":0.07},{"code":14,"dataId":6,"value":0},{"code":33,"dataId":0,"value":2},{"code":52,"dataId":1,"value":0},{"code":43,"dataId":1,"value":1},{"code":43,"dataId":2,"value":1}],"learnings":[{"level":4,"note":"","skillId":144},{"level":5,"note":"","skillId":145},{"level":10,"note":"","skillId":146},{"level":16,"note":"","skillId":147},{"level":20,"note":"","skillId":148},{"level":24,"note":"","skillId":149},{"level":31,"note":"","skillId":150},{"level":35,"note":"","skillId":151},{"level":8,"note":"","skillId":152},{"level":29,"note":"","skillId":153},{"level":43,"note":"","skillId":154},{"level":49,"note":"","skillId":155},{"level":53,"note":"","skillId":156},{"level":61,"note":"","skillId":157},{"level":67,"note":"","skillId":158}],"name":"Holy Fencer","note":"<Custom Class Parameters>\nmaxhp = level * 50.0 + 400;\nmaxmp = level * 30.0 + 70;\natk = level * 6.0 + 45;\ndef = level * 5.5 + 40;\nmat = level * 5.0 + 35;\nmdf = level * 5.0 + 30;\nagi = level * 6.5 + 40;\nluk = level * 4.0 + 25;\nexp =  105* Math.pow(level, 0.1) * Math.pow(level, 2.5) + Math.pow(level - 1, 4);\n</Custom Class Parameters>","params":[[0,417,484,551,618,685,752,819,886,953,1020,1087,1154,1221,1288,1355,1422,1489,1556,1623,1690,1757,1824,1891,1958,2025,2091,2158,2225,2292,2359,2426,2493,2560,2627,2694,2761,2828,2895,2962,3029,3096,3163,3230,3297,3364,3431,3498,3565,3632,3698,3765,3832,3899,3966,4033,4100,4167,4234,4301,4368,4435,4502,4569,4636,4703,4770,4837,4904,4971,5038,5105,5172,5239,5306,5372,5439,5506,5573,5640,5707,5774,5841,5908,5975,6042,6109,6176,6243,6310,6377,6444,6511,6578,6645,6712,6779,6846,6913,6979],[0,100,115,129,143,157,171,185,199,213,227,241,255,269,283,297,312,326,340,354,368,382,396,410,424,438,452,466,480,494,509,523,537,551,565,579,593,607,621,635,649,663,677,691,706,720,734,748,762,776,790,804,818,832,846,860,874,888,903,917,931,945,959,973,987,1001,1015,1029,1043,1057,1071,1085,1100,1114,1128,1142,1156,1170,1184,1198,1212,1226,1240,1254,1268,1282,1297,1311,1325,1339,1353,1367,1381,1395,1409,1423,1437,1451,1465,1479],[0,19,21,23,24,26,28,29,31,33,34,36,38,39,41,43,44,46,48,49,51,53,54,56,58,59,61,62,64,66,67,69,71,72,74,76,77,79,81,82,84,86,87,89,91,92,94,96,97,99,100,102,104,105,107,109,110,112,114,115,117,119,120,122,124,125,127,129,130,132,134,135,137,139,140,142,143,145,147,148,150,152,153,155,157,158,160,162,163,165,167,168,170,172,173,175,177,178,180,181],[0,14,16,17,19,20,21,23,24,26,27,28,30,31,32,34,35,37,38,39,41,42,43,45,46,48,49,50,52,53,54,56,57,59,60,61,63,64,65,67,68,70,71,72,74,75,76,78,79,81,82,83,85,86,88,89,90,92,93,94,96,97,99,100,101,103,104,105,107,108,110,111,112,114,115,116,118,119,121,122,123,125,126,127,129,130,132,133,134,136,137,138,140,141,143,144,145,147,148,149],[0,19,21,23,24,26,28,29,31,32,34,36,37,39,40,42,44,45,47,49,50,52,53,55,57,58,60,61,63,65,66,68,69,71,73,74,76,78,79,81,82,84,86,87,89,90,92,94,95,97,98,100,102,103,105,107,108,110,111,113,115,116,118,119,121,123,124,126,128,129,131,132,134,136,137,139,140,142,144,145,147,148,150,152,153,155,157,158,160,161,163,165,166,168,169,171,173,174,176,177],[0,12,14,15,16,17,18,19,21,22,23,24,25,26,27,29,30,31,32,33,34,36,37,38,39,40,41,42,44,45,46,47,48,49,51,52,53,54,55,56,57,59,60,61,62,63,64,66,67,68,69,70,71,72,74,75,76,77,78,79,81,82,83,84,85,86,87,89,90,91,92,93,94,96,97,98,99,100,101,102,104,105,106,107,108,109,111,112,113,114,115,116,117,119,120,121,122,123,124,125],[0,39,43,47,51,55,59,63,67,71,75,79,83,87,91,95,99,103,107,111,115,119,123,127,131,135,139,143,147,151,155,159,163,167,171,175,179,183,187,191,195,199,203,207,211,215,219,223,227,231,235,239,243,247,251,255,259,263,267,271,275,279,283,287,291,295,299,303,307,311,315,319,323,327,331,335,339,343,347,351,355,359,363,367,371,375,379,383,387,391,395,399,403,407,411,415,419,423,427,431],[0,30,34,38,41,45,49,52,56,59,63,67,70,74,78,81,85,88,92,96,99,103,107,110,114,117,121,125,128,132,136,139,143,146,150,154,157,161,165,168,172,175,179,183,186,190,194,197,201,204,208,212,215,219,222,226,230,233,237,241,244,248,251,255,259,262,266,270,273,277,280,284,288,291,295,299,302,306,309,313,317,320,324,328,331,335,338,342,346,349,353,357,360,364,367,371,375,378,382,385]]},
{"id":3,"expParams":[50,25,38,43],"traits":[{"code":23,"dataId":0,"value":1},{"code":22,"dataId":0,"value":0.95},{"code":22,"dataId":1,"value":0.05},{"code":22,"dataId":2,"value":0.11},{"code":41,"dataId":1,"value":0},{"code":51,"dataId":3,"value":0},{"code":52,"dataId":1,"value":0},{"code":52,"dataId":3,"value":0},{"code":22,"dataId":3,"value":0.07},{"code":11,"dataId":1,"value":0.95},{"code":11,"dataId":3,"value":1.25},{"code":11,"dataId":4,"value":1.25},{"code":11,"dataId":5,"value":1.25},{"code":11,"dataId":6,"value":1.25},{"code":11,"dataId":7,"value":1.25},{"code":11,"dataId":8,"value":1.25},{"code":43,"dataId":1,"value":1},{"code":43,"dataId":2,"value":1},{"code":34,"dataId":0,"value":1},{"code":55,"dataId":1,"value":1}],"learnings":[{"level":1,"note":"","skillId":160},{"level":10,"note":"","skillId":161},{"level":13,"note":"","skillId":162},{"level":17,"note":"","skillId":163},{"level":26,"note":"","skillId":164},{"level":30,"note":"","skillId":165},{"level":21,"note":"","skillId":166},{"level":37,"note":"","skillId":167},{"level":42,"note":"","skillId":168},{"level":46,"note":"","skillId":169},{"level":52,"note":"","skillId":172},{"level":58,"note":"","skillId":173},{"level":62,"note":"","skillId":174},{"level":49,"note":"","skillId":170},{"level":55,"note":"","skillId":171}],"name":"Paladian Monk","note":"<Custom Class Parameters>\nmaxhp = level * 60.0 + 600;\nmaxmp = level * 10.0 + 40;\natk = level * 7.0 + 55;\ndef = level * 6.5 + 50;\nmat = level * 1.0 + 15;\nmdf = level * 1.0 + 10;\nagi = level * 4.0 + 25;\nluk = level * 3.5 + 20;\nexp =  105* Math.pow(level, 0.1) * Math.pow(level, 2.5) + Math.pow(level - 1, 4);\n</Custom Class Parameters>","params":[[0,672,755,838,920,1003,1085,1168,1251,1333,1416,1498,1581,1663,1746,1829,1911,1994,2076,2159,2242,2324,2407,2489,2572,2654,2737,2820,2902,2985,3067,3150,3233,3315,3398,3480,3563,3645,3728,3811,3893,3976,4058,4141,4224,4306,4389,4471,4554,4636,4719,4802,4884,4967,5049,5132,5214,5297,5380,5462,5545,5627,5710,5793,5875,5958,6040,6123,6205,6288,6371,6453,6536,6618,6701,6784,6866,6949,7031,7114,7196,7279,7362,7444,7527,7609,7692,7775,7857,7940,8022,8105,8187,8270,8353,8435,8518,8600,8683,8765],[0,47,56,64,72,80,88,96,104,112,120,128,136,144,152,160,168,176,184,192,200,208,216,224,232,240,248,256,264,272,280,288,296,304,312,320,328,336,344,352,360,368,376,384,392,400,408,416,424,432,440,448,456,464,472,480,488,496,504,512,520,528,536,544,552,560,568,576,584,592,600,608,616,624,632,640,648,656,664,672,680,688,696,704,712,720,728,736,744,752,760,768,776,784,792,800,808,816,824,832],[0,21,23,25,27,29,31,33,35,37,39,41,43,45,46,48,50,52,54,56,58,60,62,64,66,68,69,71,73,75,77,79,81,83,85,87,89,91,92,94,96,98,100,102,104,106,108,110,112,114,115,117,119,121,123,125,127,129,131,133,135,137,139,140,142,144,146,148,150,152,154,156,158,160,162,163,165,167,169,171,173,175,177,179,181,183,185,186,188,190,192,194,196,198,200,202,204,206,208,209],[0,21,24,26,28,30,32,34,36,38,40,42,44,46,48,50,52,54,56,58,60,62,64,66,68,70,72,74,76,78,80,82,84,86,88,90,92,94,96,98,100,102,104,106,108,110,112,114,116,118,120,123,125,127,129,131,133,135,137,139,141,143,145,147,149,151,153,155,157,159,161,163,165,167,169,171,173,175,177,179,181,183,185,187,189,191,193,195,197,199,201,203,205,207,209,211,213,215,217,219],[0,10,11,12,13,14,15,16,17,18,19,20,21,22,23,24,25,26,27,28,29,30,31,32,33,34,35,36,37,38,39,40,41,42,43,44,45,46,47,48,49,50,51,52,53,54,55,56,57,58,59,60,61,62,63,64,65,66,67,68,69,70,71,72,73,74,75,76,77,78,79,80,81,82,83,84,85,86,87,88,89,90,91,92,93,94,95,96,97,98,99,100,101,102,103,104,105,106,107,108],[0,11,13,14,15,16,17,18,19,20,21,22,23,24,25,26,27,28,29,30,31,32,33,34,35,36,37,38,39,40,41,42,43,44,45,46,47,48,49,50,51,52,53,54,55,56,57,58,59,60,61,62,63,64,65,66,67,68,69,70,71,72,73,74,75,76,77,78,79,80,81,82,83,84,85,86,87,88,89,90,91,92,93,94,95,96,97,98,99,100,101,102,103,104,105,106,107,108,109,110],[0,25,29,32,35,38,41,44,47,50,53,56,60,63,66,69,72,75,78,81,84,87,90,94,97,100,103,106,109,112,115,118,121,124,128,131,134,137,140,143,146,149,152,155,158,162,165,168,171,174,177,180,183,186,189,192,196,199,202,205,208,211,214,217,220,223,226,230,233,236,239,242,245,248,251,254,257,260,264,267,270,273,276,279,282,285,288,291,294,298,301,304,307,310,313,316,319,322,325,328],[0,27,30,33,36,39,42,45,47,50,53,56,59,62,65,67,70,73,76,79,82,84,87,90,93,96,99,102,104,107,110,113,116,119,121,124,127,130,133,136,139,141,144,147,150,153,156,158,161,164,167,170,173,176,178,181,184,187,190,193,195,198,201,204,207,210,213,215,218,221,224,227,230,232,235,238,241,244,247,250,252,255,258,261,264,267,269,272,275,278,281,284,287,289,292,295,298,301,304,306]]},
{"id":4,"expParams":[30,20,30,30],"traits":[{"code":23,"dataId":0,"value":1},{"code":22,"dataId":0,"value":0.95},{"code":22,"dataId":1,"value":0.09},{"code":22,"dataId":2,"value":0.06},{"code":41,"dataId":1,"value":0},{"code":51,"dataId":4,"value":0},{"code":52,"dataId":3,"value":0},{"code":52,"dataId":2,"value":1},{"code":52,"dataId":1,"value":1},{"code":41,"dataId":3,"value":1},{"code":14,"dataId":12,"value":1},{"code":11,"dataId":7,"value":2},{"code":11,"dataId":8,"value":0.9},{"code":11,"dataId":6,"value":0.25},{"code":43,"dataId":1,"value":1},{"code":43,"dataId":2,"value":1},{"code":22,"dataId":3,"value":0.09},{"code":23,"dataId":0,"value":1.25}],"learnings":[{"level":1,"note":"","skillId":176},{"level":3,"note":"","skillId":177},{"level":7,"note":"","skillId":178},{"level":12,"note":"","skillId":179},{"level":17,"note":"","skillId":180},{"level":22,"note":"","skillId":181},{"level":25,"note":"","skillId":182},{"level":29,"note":"","skillId":183},{"level":33,"note":"","skillId":184},{"level":37,"note":"","skillId":185},{"level":43,"note":"","skillId":186},{"level":47,"note":"","skillId":187},{"level":50,"note":"","skillId":188},{"level":55,"note":"","skillId":189},{"level":61,"note":"","skillId":190}],"name":"Pirate Dancer","note":"<Custom Class Parameters>\nmaxhp = level * 40.0 + 450;\nmaxmp = level * 40.0 + 75;\natk = level * 5.0 + 35;\ndef = level * 4.5 + 40;\nmat = level * 6.0 + 55; \nmdf = level * 6.0 + 50; \nagi = level * 6.0 + 45;\nluk = level * 4.5 + 50;\neexp =  105* Math.pow(level, 0.1) * Math.pow(level, 2.5) + Math.pow(level - 1, 4);\n</Custom Class Parameters>","params":[[0,450,500,550,600,650,700,750,800,850,900,950,1000,1050,1100,1150,1200,1250,1300,1350,1400,1450,1500,1550,1600,1650,1700,1750,1800,1850,1900,1950,2000,2050,2100,2150,2200,2250,2300,2350,2400,2450,2500,2550,2600,2650,2700,2750,2800,2850,2900,2950,3000,3050,3100,3150,3200,3250,3300,3350,3400,3450,3500,3550,3600,3650,3700,3750,3800,3850,3900,3950,4000,4050,4100,4150,4200,4250,4300,4350,4400,4450,4500,4550,4600,4650,4700,4750,4800,4850,4900,4950,5000,5050,5100,5150,5200,5250,5300,5350],[0,90,100,110,120,130,140,150,160,170,180,190,200,210,220,230,240,250,260,270,280,290,300,310,320,330,340,350,360,370,380,390,400,410,420,430,440,450,460,470,480,490,500,510,520,530,540,550,560,570,580,590,600,610,620,630,640,650,660,670,680,690,700,710,720,730,740,750,760,770,780,790,800,810,820,830,840,850,860,870,880,890,900,910,920,930,940,950,960,970,980,990,1000,1010,1020,1030,1040,1050,1060,1070],[0,16,17,18,20,21,22,23,25,26,27,28,30,31,32,33,35,36,37,38,40,41,42,43,45,46,47,48,50,51,52,53,55,56,57,58,60,61,62,63,65,66,67,68,70,71,72,73,75,76,77,78,80,81,82,83,85,86,87,88,90,91,92,93,95,96,97,98,100,101,102,103,105,106,107,108,110,111,112,113,115,116,117,118,120,121,122,123,125,126,127,128,130,131,132,133,135,136,137,138],[0,16,17,18,20,21,22,23,25,26,27,28,30,31,32,33,35,36,37,38,40,41,42,43,45,46,47,48,50,51,52,53,55,56,57,58,60,61,62,63,65,66,67,68,70,71,72,73,75,76,77,78,80,81,82,83,85,86,87,88,90,91,92,93,95,96,97,98,100,101,102,103,105,106,107,108,110,111,112,113,115,116,117,118,120,121,122,123,125,126,127,128,130,131,132,133,135,136,137,138],[0,16,17,18,20,21,22,23,25,26,27,28,30,31,32,33,35,36,37,38,40,41,42,43,45,46,47,48,50,51,52,53,55,56,57,58,60,61,62,63,65,66,67,68,70,71,72,73,75,76,77,78,80,81,82,83,85,86,87,88,90,91,92,93,95,96,97,98,100,101,102,103,105,106,107,108,110,111,112,113,115,116,117,118,120,121,122,123,125,126,127,128,130,131,132,133,135,136,137,138],[0,16,17,18,20,21,22,23,25,26,27,28,30,31,32,33,35,36,37,38,40,41,42,43,45,46,47,48,50,51,52,53,55,56,57,58,60,61,62,63,65,66,67,68,70,71,72,73,75,76,77,78,80,81,82,83,85,86,87,88,90,91,92,93,95,96,97,98,100,101,102,103,105,106,107,108,110,111,112,113,115,116,117,118,120,121,122,123,125,126,127,128,130,131,132,133,135,136,137,138],[0,32,35,37,40,42,45,47,50,52,55,57,60,62,65,67,70,72,75,77,80,82,85,87,90,92,95,97,100,102,105,107,110,112,115,117,120,122,125,127,130,132,135,137,140,142,145,147,150,152,155,157,160,162,165,167,170,172,175,177,180,182,185,187,190,192,195,197,200,202,205,207,210,212,215,217,220,222,225,227,230,232,235,237,240,242,245,247,250,252,255,257,260,262,265,267,270,272,275,277],[0,32,35,37,40,42,45,47,50,52,55,57,60,62,65,67,70,72,75,77,80,82,85,87,90,92,95,97,100,102,105,107,110,112,115,117,120,122,125,127,130,132,135,137,140,142,145,147,150,152,155,157,160,162,165,167,170,172,175,177,180,182,185,187,190,192,195,197,200,202,205,207,210,212,215,217,220,222,225,227,230,232,235,237,240,242,245,247,250,252,255,257,260,262,265,267,270,272,275,277]]},
{"id":5,"expParams":[30,20,30,30],"traits":[{"code":23,"dataId":0,"value":1},{"code":22,"dataId":0,"value":0.95},{"code":22,"dataId":1,"value":0.05},{"code":22,"dataId":2,"value":0.04},{"code":51,"dataId":5,"value":0},{"code":52,"dataId":2,"value":0},{"code":52,"dataId":3,"value":0},{"code":43,"dataId":1,"value":1},{"code":43,"dataId":2,"value":1},{"code":52,"dataId":1,"value":0},{"code":41,"dataId":4,"value":1},{"code":41,"dataId":9,"value":0},{"code":11,"dataId":3,"value":2},{"code":11,"dataId":9,"value":2},{"code":11,"dataId":4,"value":0.25},{"code":11,"dataId":10,"value":0}],"learnings":[{"level":1,"note":"","skillId":224},{"level":1,"note":"","skillId":225},{"level":22,"note":"","skillId":226},{"level":26,"note":"","skillId":227},{"level":26,"note":"","skillId":228},{"level":30,"note":"","skillId":229},{"level":30,"note":"","skillId":230},{"level":34,"note":"","skillId":231},{"level":34,"note":"","skillId":232},{"level":38,"note":"","skillId":233},{"level":38,"note":"","skillId":234},{"level":44,"note":"","skillId":235},{"level":52,"note":"","skillId":236},{"level":60,"note":"","skillId":237}],"name":"Alchemic Sage","note":"<Custom Class Parameters>\nmaxhp = level * 55.0 + 500;\nmaxmp = level * 40.0 + 100;\natk = level * 6.5 + 40;\ndef = level * 5.5 + 40;\nmat = level * 6.0 + 55;\nmdf = level * 6.0 + 50;\nagi = level * 5.0 + 27;\nluk = level * 4.0 + 25;\nexp =  105* Math.pow(level, 0.1) * Math.pow(level, 2.5) + Math.pow(level - 1, 4);\n</Custom Class Parameters>\n\n","params":[[0,450,500,550,600,650,700,750,800,850,900,950,1000,1050,1100,1150,1200,1250,1300,1350,1400,1450,1500,1550,1600,1650,1700,1750,1800,1850,1900,1950,2000,2050,2100,2150,2200,2250,2300,2350,2400,2450,2500,2550,2600,2650,2700,2750,2800,2850,2900,2950,3000,3050,3100,3150,3200,3250,3300,3350,3400,3450,3500,3550,3600,3650,3700,3750,3800,3850,3900,3950,4000,4050,4100,4150,4200,4250,4300,4350,4400,4450,4500,4550,4600,4650,4700,4750,4800,4850,4900,4950,5000,5050,5100,5150,5200,5250,5300,5350],[0,90,100,110,120,130,140,150,160,170,180,190,200,210,220,230,240,250,260,270,280,290,300,310,320,330,340,350,360,370,380,390,400,410,420,430,440,450,460,470,480,490,500,510,520,530,540,550,560,570,580,590,600,610,620,630,640,650,660,670,680,690,700,710,720,730,740,750,760,770,780,790,800,810,820,830,840,850,860,870,880,890,900,910,920,930,940,950,960,970,980,990,1000,1010,1020,1030,1040,1050,1060,1070],[0,16,17,18,20,21,22,23,25,26,27,28,30,31,32,33,35,36,37,38,40,41,42,43,45,46,47,48,50,51,52,53,55,56,57,58,60,61,62,63,65,66,67,68,70,71,72,73,75,76,77,78,80,81,82,83,85,86,87,88,90,91,92,93,95,96,97,98,100,101,102,103,105,106,107,108,110,111,112,113,115,116,117,118,120,121,122,123,125,126,127,128,130,131,132,133,135,136,137,138],[0,16,17,18,20,21,22,23,25,26,27,28,30,31,32,33,35,36,37,38,40,41,42,43,45,46,47,48,50,51,52,53,55,56,57,58,60,61,62,63,65,66,67,68,70,71,72,73,75,76,77,78,80,81,82,83,85,86,87,88,90,91,92,93,95,96,97,98,100,101,102,103,105,106,107,108,110,111,112,113,115,116,117,118,120,121,122,123,125,126,127,128,130,131,132,133,135,136,137,138],[0,16,17,18,20,21,22,23,25,26,27,28,30,31,32,33,35,36,37,38,40,41,42,43,45,46,47,48,50,51,52,53,55,56,57,58,60,61,62,63,65,66,67,68,70,71,72,73,75,76,77,78,80,81,82,83,85,86,87,88,90,91,92,93,95,96,97,98,100,101,102,103,105,106,107,108,110,111,112,113,115,116,117,118,120,121,122,123,125,126,127,128,130,131,132,133,135,136,137,138],[0,16,17,18,20,21,22,23,25,26,27,28,30,31,32,33,35,36,37,38,40,41,42,43,45,46,47,48,50,51,52,53,55,56,57,58,60,61,62,63,65,66,67,68,70,71,72,73,75,76,77,78,80,81,82,83,85,86,87,88,90,91,92,93,95,96,97,98,100,101,102,103,105,106,107,108,110,111,112,113,115,116,117,118,120,121,122,123,125,126,127,128,130,131,132,133,135,136,137,138],[0,32,35,37,40,42,45,47,50,52,55,57,60,62,65,67,70,72,75,77,80,82,85,87,90,92,95,97,100,102,105,107,110,112,115,117,120,122,125,127,130,132,135,137,140,142,145,147,150,152,155,157,160,162,165,167,170,172,175,177,180,182,185,187,190,192,195,197,200,202,205,207,210,212,215,217,220,222,225,227,230,232,235,237,240,242,245,247,250,252,255,257,260,262,265,267,270,272,275,277],[0,32,35,37,40,42,45,47,50,52,55,57,60,62,65,67,70,72,75,77,80,82,85,87,90,92,95,97,100,102,105,107,110,112,115,117,120,122,125,127,130,132,135,137,140,142,145,147,150,152,155,157,160,162,165,167,170,172,175,177,180,182,185,187,190,192,195,197,200,202,205,207,210,212,215,217,220,222,225,227,230,232,235,237,240,242,245,247,250,252,255,257,260,262,265,267,270,272,275,277]]},
{"id":6,"expParams":[50,40,50,50],"traits":[{"code":23,"dataId":0,"value":0.5},{"code":22,"dataId":0,"value":0.95},{"code":22,"dataId":1,"value":0.05},{"code":22,"dataId":2,"value":0.04},{"code":41,"dataId":1,"value":0},{"code":41,"dataId":2,"value":0},{"code":51,"dataId":6,"value":0},{"code":52,"dataId":1,"value":0},{"code":52,"dataId":2,"value":0},{"code":43,"dataId":1,"value":1},{"code":43,"dataId":2,"value":1},{"code":11,"dataId":3,"value":2},{"code":11,"dataId":4,"value":0.25},{"code":11,"dataId":6,"value":0.9}],"learnings":[{"level":1,"note":"","skillId":192},{"level":1,"note":"","skillId":193},{"level":1,"note":"","skillId":194},{"level":1,"note":"","skillId":195},{"level":10,"note":"","skillId":196},{"level":17,"note":"","skillId":197},{"level":25,"note":"","skillId":198},{"level":31,"note":"","skillId":199},{"level":34,"note":"","skillId":200},{"level":37,"note":"","skillId":201},{"level":43,"note":"","skillId":202},{"level":48,"note":"","skillId":203},{"level":51,"note":"","skillId":204},{"level":57,"note":"","skillId":205},{"level":64,"note":"","skillId":206}],"name":"Natural Mage","note":"<Custom Class Parameters>\nmaxhp = level * 45.0 + 400;\nmaxmp = level * 50.0 + 95;\natk = level * 6.5 + 35;\ndef = level * 5.5 + 40;\nmat = level * 6.0 + 50;\nmdf = level * 6.0 + 45;\nagi = level * 5.0 + 26;\nluk = level * 4.0 + 24;\nexp =  105* Math.pow(level, 0.1) * Math.pow(level, 2.5) + Math.pow(level - 1, 4);\n</Custom Class Parameters>","params":[[0,389,444,499,554,608,663,718,773,827,882,937,992,1046,1101,1156,1211,1265,1320,1375,1429,1484,1539,1594,1648,1703,1758,1813,1867,1922,1977,2032,2086,2141,2196,2250,2305,2360,2415,2469,2524,2579,2634,2688,2743,2798,2853,2907,2962,3017,3071,3126,3181,3236,3290,3345,3400,3455,3509,3564,3619,3674,3728,3783,3838,3893,3947,4002,4057,4111,4166,4221,4276,4330,4385,4440,4495,4549,4604,4659,4714,4768,4823,4878,4932,4987,5042,5097,5151,5206,5261,5316,5370,5425,5480,5535,5589,5644,5699,5753],[0,116,136,157,178,198,219,238,258,278,298,318,336,356,375,395,414,433,451,470,488,507,526,542,561,579,597,615,633,649,666,684,701,719,734,751,768,785,801,818,833,849,865,881,897,911,927,942,958,973,987,1002,1016,1031,1046,1061,1073,1088,1102,1116,1130,1142,1156,1169,1183,1196,1210,1221,1234,1247,1260,1272,1283,1296,1308,1320,1332,1344,1354,1366,1377,1389,1400,1410,1421,1432,1442,1453,1464,1473,1483,1493,1503,1513,1522,1531,1541,1550,1560,1568],[0,10,11,12,13,14,15,16,17,18,19,20,21,22,23,24,25,26,27,28,29,30,31,32,33,34,35,36,37,38,39,40,41,42,42,43,44,45,46,47,48,49,50,51,52,53,54,55,56,57,58,59,60,61,62,63,64,65,66,67,68,69,70,71,72,73,74,74,75,76,77,78,79,80,81,82,83,84,85,86,87,88,89,90,91,92,93,94,95,96,97,98,99,100,101,102,103,104,105,105],[0,14,16,17,18,19,20,21,22,24,25,26,27,28,29,30,31,33,34,35,36,37,38,39,41,42,43,44,45,46,47,48,50,51,52,53,54,55,56,58,59,60,61,62,63,64,65,67,68,69,70,71,72,73,75,76,77,78,79,80,81,82,84,85,86,87,88,89,90,92,93,94,95,96,97,98,99,101,102,103,104,105,106,107,109,110,111,112,113,114,115,116,118,119,120,121,122,123,124,125],[0,25,27,29,31,33,35,37,39,41,43,45,47,49,51,53,55,57,58,60,62,64,66,68,70,72,74,76,78,80,82,84,86,88,89,91,93,95,97,99,101,103,105,107,109,111,113,115,117,119,120,122,124,126,128,130,132,134,136,138,140,142,144,146,148,150,152,153,155,157,159,161,163,165,167,169,171,173,175,177,179,181,183,184,186,188,190,192,194,196,198,200,202,204,206,208,210,212,214,215],[0,20,23,25,27,29,31,33,35,37,39,41,44,46,48,50,52,54,56,58,60,62,64,67,69,71,73,75,77,79,81,83,85,87,90,92,94,96,98,100,102,104,106,108,110,113,115,117,119,121,123,125,127,129,131,133,136,138,140,142,144,146,148,150,152,154,156,159,161,163,165,167,169,171,173,175,177,179,182,184,186,188,190,192,194,196,198,200,202,205,207,209,211,213,215,217,219,221,223,225],[0,20,23,25,28,30,32,35,37,39,42,44,46,49,51,53,56,58,61,63,65,68,70,72,75,77,79,82,84,86,89,91,94,96,98,101,103,105,108,110,112,115,117,119,122,124,127,129,131,134,136,138,141,143,145,148,150,152,155,157,160,162,164,167,169,171,174,176,178,181,183,185,188,190,193,195,197,200,202,204,207,209,211,214,216,218,221,223,226,228,230,233,235,237,240,242,244,247,249,251],[0,34,38,41,44,48,51,54,57,61,64,67,70,74,77,80,83,87,90,93,97,100,103,106,110,113,116,119,123,126,129,132,136,139,142,146,149,152,155,159,162,165,168,172,175,178,181,185,188,191,194,198,201,204,208,211,214,217,221,224,227,230,234,237,240,243,247,250,253,257,260,263,266,270,273,276,279,283,286,289,292,296,299,302,306,309,312,315,319,322,325,328,332,335,338,341,345,348,351,354]]},
{"id":7,"expParams":[30,20,30,30],"traits":[{"code":23,"dataId":0,"value":1},{"code":22,"dataId":0,"value":0.95},{"code":22,"dataId":1,"value":0.05},{"code":22,"dataId":2,"value":0.04},{"code":41,"dataId":6,"value":0},{"code":41,"dataId":5,"value":0},{"code":51,"dataId":7,"value":0},{"code":52,"dataId":1,"value":0},{"code":43,"dataId":1,"value":1},{"code":43,"dataId":2,"value":1},{"code":52,"dataId":2,"value":1},{"code":52,"dataId":5,"value":1},{"code":53,"dataId":2,"value":1},{"code":53,"dataId":3,"value":1},{"code":53,"dataId":4,"value":1}],"learnings":[{"level":1,"note":"","skillId":208},{"level":1,"note":"","skillId":209},{"level":1,"note":"","skillId":210},{"level":1,"note":"","skillId":215},{"level":1,"note":"","skillId":216},{"level":1,"note":"","skillId":220},{"level":1,"note":"","skillId":213}],"name":"Arcane Knight","note":"<Custom Class Parameters>\nmaxhp = level * 55.0 + 500;\nmaxmp = level * 40.0 + 80;\natk = level * 6.5 + 50;\ndef = level * 5.5 + 40;\nmat = level * 6.0 + 45;\nmdf = level * 6.0 + 40;\nagi = level * 5.0 + 25;\nluk = level * 4.0 + 20;\nexp =  105* Math.pow(level, 0.1) * Math.pow(level, 2.5) + Math.pow(level - 1, 4);\n</Custom Class Parameters>\n\n","params":[[0,450,500,550,600,650,700,750,800,850,900,950,1000,1050,1100,1150,1200,1250,1300,1350,1400,1450,1500,1550,1600,1650,1700,1750,1800,1850,1900,1950,2000,2050,2100,2150,2200,2250,2300,2350,2400,2450,2500,2550,2600,2650,2700,2750,2800,2850,2900,2950,3000,3050,3100,3150,3200,3250,3300,3350,3400,3450,3500,3550,3600,3650,3700,3750,3800,3850,3900,3950,4000,4050,4100,4150,4200,4250,4300,4350,4400,4450,4500,4550,4600,4650,4700,4750,4800,4850,4900,4950,5000,5050,5100,5150,5200,5250,5300,5350],[0,90,100,110,120,130,140,150,160,170,180,190,200,210,220,230,240,250,260,270,280,290,300,310,320,330,340,350,360,370,380,390,400,410,420,430,440,450,460,470,480,490,500,510,520,530,540,550,560,570,580,590,600,610,620,630,640,650,660,670,680,690,700,710,720,730,740,750,760,770,780,790,800,810,820,830,840,850,860,870,880,890,900,910,920,930,940,950,960,970,980,990,1000,1010,1020,1030,1040,1050,1060,1070],[0,16,17,18,20,21,22,23,25,26,27,28,30,31,32,33,35,36,37,38,40,41,42,43,45,46,47,48,50,51,52,53,55,56,57,58,60,61,62,63,65,66,67,68,70,71,72,73,75,76,77,78,80,81,82,83,85,86,87,88,90,91,92,93,95,96,97,98,100,101,102,103,105,106,107,108,110,111,112,113,115,116,117,118,120,121,122,123,125,126,127,128,130,131,132,133,135,136,137,138],[0,16,17,18,20,21,22,23,25,26,27,28,30,31,32,33,35,36,37,38,40,41,42,43,45,46,47,48,50,51,52,53,55,56,57,58,60,61,62,63,65,66,67,68,70,71,72,73,75,76,77,78,80,81,82,83,85,86,87,88,90,91,92,93,95,96,97,98,100,101,102,103,105,106,107,108,110,111,112,113,115,116,117,118,120,121,122,123,125,126,127,128,130,131,132,133,135,136,137,138],[0,16,17,18,20,21,22,23,25,26,27,28,30,31,32,33,35,36,37,38,40,41,42,43,45,46,47,48,50,51,52,53,55,56,57,58,60,61,62,63,65,66,67,68,70,71,72,73,75,76,77,78,80,81,82,83,85,86,87,88,90,91,92,93,95,96,97,98,100,101,102,103,105,106,107,108,110,111,112,113,115,116,117,118,120,121,122,123,125,126,127,128,130,131,132,133,135,136,137,138],[0,16,17,18,20,21,22,23,25,26,27,28,30,31,32,33,35,36,37,38,40,41,42,43,45,46,47,48,50,51,52,53,55,56,57,58,60,61,62,63,65,66,67,68,70,71,72,73,75,76,77,78,80,81,82,83,85,86,87,88,90,91,92,93,95,96,97,98,100,101,102,103,105,106,107,108,110,111,112,113,115,116,117,118,120,121,122,123,125,126,127,128,130,131,132,133,135,136,137,138],[0,32,35,37,40,42,45,47,50,52,55,57,60,62,65,67,70,72,75,77,80,82,85,87,90,92,95,97,100,102,105,107,110,112,115,117,120,122,125,127,130,132,135,137,140,142,145,147,150,152,155,157,160,162,165,167,170,172,175,177,180,182,185,187,190,192,195,197,200,202,205,207,210,212,215,217,220,222,225,227,230,232,235,237,240,242,245,247,250,252,255,257,260,262,265,267,270,272,275,277],[0,32,35,37,40,42,45,47,50,52,55,57,60,62,65,67,70,72,75,77,80,82,85,87,90,92,95,97,100,102,105,107,110,112,115,117,120,122,125,127,130,132,135,137,140,142,145,147,150,152,155,157,160,162,165,167,170,172,175,177,180,182,185,187,190,192,195,197,200,202,205,207,210,212,215,217,220,222,225,227,230,232,235,237,240,242,245,247,250,252,255,257,260,262,265,267,270,272,275,277]]},
{"id":8,"expParams":[30,20,30,30],"traits":[{"code":23,"dataId":0,"value":1},{"code":22,"dataId":0,"value":0.95},{"code":22,"dataId":1,"value":0.05},{"code":22,"dataId":2,"value":0.04},{"code":41,"dataId":6,"value":0},{"code":41,"dataId":5,"value":0},{"code":51,"dataId":7,"value":0},{"code":52,"dataId":1,"value":0},{"code":43,"dataId":1,"value":1},{"code":43,"dataId":2,"value":1},{"code":52,"dataId":2,"value":1},{"code":52,"dataId":5,"value":1},{"code":53,"dataId":2,"value":1},{"code":53,"dataId":3,"value":1},{"code":53,"dataId":4,"value":1}],"learnings":[{"level":1,"note":"","skillId":208},{"level":1,"note":"","skillId":209},{"level":1,"note":"","skillId":210},{"level":1,"note":"","skillId":215},{"level":1,"note":"","skillId":216},{"level":1,"note":"","skillId":220},{"level":1,"note":"","skillId":213},{"level":40,"note":"","skillId":211},{"level":47,"note":"","skillId":217},{"level":53,"note":"","skillId":212},{"level":59,"note":"","skillId":218},{"level":65,"note":"","skillId":219},{"level":70,"note":"","skillId":214}],"name":"Anomaly","note":"<Custom Class Parameters>\nmaxhp = level * 55.0 + 500;\nmaxmp = level * 40.0 + 80;\natk = level * 6.5 + 50;\ndef = level * 5.5 + 40;\nmat = level * 6.0 + 45;\nmdf = level * 6.0 + 40;\nagi = level * 5.0 + 25;\nluk = level * 4.0 + 20;\nexp =  105* Math.pow(level, 0.1) * Math.pow(level, 2.5) + Math.pow(level - 1, 4);\n</Custom Class Parameters>\n\n","params":[[0,450,500,550,600,650,700,750,800,850,900,950,1000,1050,1100,1150,1200,1250,1300,1350,1400,1450,1500,1550,1600,1650,1700,1750,1800,1850,1900,1950,2000,2050,2100,2150,2200,2250,2300,2350,2400,2450,2500,2550,2600,2650,2700,2750,2800,2850,2900,2950,3000,3050,3100,3150,3200,3250,3300,3350,3400,3450,3500,3550,3600,3650,3700,3750,3800,3850,3900,3950,4000,4050,4100,4150,4200,4250,4300,4350,4400,4450,4500,4550,4600,4650,4700,4750,4800,4850,4900,4950,5000,5050,5100,5150,5200,5250,5300,5350],[0,90,100,110,120,130,140,150,160,170,180,190,200,210,220,230,240,250,260,270,280,290,300,310,320,330,340,350,360,370,380,390,400,410,420,430,440,450,460,470,480,490,500,510,520,530,540,550,560,570,580,590,600,610,620,630,640,650,660,670,680,690,700,710,720,730,740,750,760,770,780,790,800,810,820,830,840,850,860,870,880,890,900,910,920,930,940,950,960,970,980,990,1000,1010,1020,1030,1040,1050,1060,1070],[0,16,17,18,20,21,22,23,25,26,27,28,30,31,32,33,35,36,37,38,40,41,42,43,45,46,47,48,50,51,52,53,55,56,57,58,60,61,62,63,65,66,67,68,70,71,72,73,75,76,77,78,80,81,82,83,85,86,87,88,90,91,92,93,95,96,97,98,100,101,102,103,105,106,107,108,110,111,112,113,115,116,117,118,120,121,122,123,125,126,127,128,130,131,132,133,135,136,137,138],[0,16,17,18,20,21,22,23,25,26,27,28,30,31,32,33,35,36,37,38,40,41,42,43,45,46,47,48,50,51,52,53,55,56,57,58,60,61,62,63,65,66,67,68,70,71,72,73,75,76,77,78,80,81,82,83,85,86,87,88,90,91,92,93,95,96,97,98,100,101,102,103,105,106,107,108,110,111,112,113,115,116,117,118,120,121,122,123,125,126,127,128,130,131,132,133,135,136,137,138],[0,16,17,18,20,21,22,23,25,26,27,28,30,31,32,33,35,36,37,38,40,41,42,43,45,46,47,48,50,51,52,53,55,56,57,58,60,61,62,63,65,66,67,68,70,71,72,73,75,76,77,78,80,81,82,83,85,86,87,88,90,91,92,93,95,96,97,98,100,101,102,103,105,106,107,108,110,111,112,113,115,116,117,118,120,121,122,123,125,126,127,128,130,131,132,133,135,136,137,138],[0,16,17,18,20,21,22,23,25,26,27,28,30,31,32,33,35,36,37,38,40,41,42,43,45,46,47,48,50,51,52,53,55,56,57,58,60,61,62,63,65,66,67,68,70,71,72,73,75,76,77,78,80,81,82,83,85,86,87,88,90,91,92,93,95,96,97,98,100,101,102,103,105,106,107,108,110,111,112,113,115,116,117,118,120,121,122,123,125,126,127,128,130,131,132,133,135,136,137,138],[0,32,35,37,40,42,45,47,50,52,55,57,60,62,65,67,70,72,75,77,80,82,85,87,90,92,95,97,100,102,105,107,110,112,115,117,120,122,125,127,130,132,135,137,140,142,145,147,150,152,155,157,160,162,165,167,170,172,175,177,180,182,185,187,190,192,195,197,200,202,205,207,210,212,215,217,220,222,225,227,230,232,235,237,240,242,245,247,250,252,255,257,260,262,265,267,270,272,275,277],[0,32,35,37,40,42,45,47,50,52,55,57,60,62,65,67,70,72,75,77,80,82,85,87,90,92,95,97,100,102,105,107,110,112,115,117,120,122,125,127,130,132,135,137,140,142,145,147,150,152,155,157,160,162,165,167,170,172,175,177,180,182,185,187,190,192,195,197,200,202,205,207,210,212,215,217,220,222,225,227,230,232,235,237,240,242,245,247,250,252,255,257,260,262,265,267,270,272,275,277]]}
]