{
"autoplayBgm":false,"autoplayBgs":false,"battleback1Name":"","battleback2Name":"","bgm":{"name":"","pan":0,"pitch":100,"volume":90},"bgs":{"name":"","pan":0,"pitch":100,"volume":90},"disableDashing":false,"displayName":"","encounterList":[],"encounterStep":30,"height":13,"note":"<All Restrict Region: 1>","parallaxLoopX":false,"parallaxLoopY":false,"parallaxName":"","parallaxShow":true,"parallaxSx":0,"parallaxSy":0,"scrollType":0,"specifyBattleback":false,"tilesetId":10,"width":13,
"data":[6080,6080,6080,6080,6080,6080,6080,6080,6080,6080,6080,6080,6080,6080,6084,6108,6108,6108,6108,6108,6108,6108,6108,6108,6088,6080,6080,6104,8002,8002,8002,8002,8002,8002,8002,8002,8002,6096,6080,6080,6104,8008,8008,8008,8008,8008,8008,8008,8008,8008,6096,6080,6080,6104,1549,1549,1549,1549,1549,1549,1549,1549,1549,6096,6080,6080,6104,1549,2994,2980,2980,2980,2980,2980,2996,1549,6096,6080,6080,6104,1549,2976,2960,2960,2960,2960,2960,2984,1549,6096,6080,6080,6104,1549,2976,2960,2960,2960,2960,2960,2984,1549,6096,6080,6080,6104,1549,2976,2960,2960,2960,2960,2960,2984,1549,6096,6080,6080,6104,1549,3000,2988,2988,2988,2988,2988,2998,1549,6096,6080,6080,6104,1549,1549,1549,1549,1549,1549,1549,1549,1549,6096,6080,6080,6082,6100,6100,6100,6116,1549,6114,6100,6100,6100,6081,6080,6080,6080,6080,6080,6080,6082,6100,6081,6080,6080,6080,6080,6080,0,0,0,0,0,0,0,0,0,0,0,0,0,0,0,0,0,0,0,0,0,0,0,0,0,0,0,0,0,0,0,0,0,0,0,0,0,0,0,0,0,0,0,0,0,0,0,0,0,0,0,0,0,0,0,0,0,0,0,0,0,0,0,0,0,0,0,0,0,0,0,0,0,0,0,0,0,0,0,0,0,0,0,0,0,0,0,0,0,0,0,0,0,0,0,0,0,0,0,0,0,0,0,0,0,0,0,0,0,0,0,0,0,0,0,0,0,0,0,0,0,0,0,0,0,0,0,0,0,0,0,0,0,0,0,0,0,0,0,0,0,0,0,0,0,0,0,0,0,0,0,0,0,0,0,0,0,0,0,0,0,0,0,0,0,0,0,0,0,0,0,0,0,0,0,0,0,0,0,0,0,0,0,0,0,0,0,0,0,0,0,0,0,0,0,0,0,0,0,0,0,0,0,0,0,0,0,0,0,0,0,0,0,0,0,0,0,0,0,0,0,0,0,0,0,0,0,0,0,0,0,0,0,0,0,0,0,0,0,0,0,0,0,0,0,0,0,0,0,0,0,0,0,0,0,0,0,0,0,0,0,0,0,0,0,0,0,0,0,0,0,0,0,0,0,0,0,0,0,0,0,0,0,0,0,0,0,0,0,0,0,0,0,0,0,0,0,0,0,0,0,0,0,0,0,0,0,0,0,0,0,0,0,0,0,0,0,0,0,0,0,0,0,0,0,0,0,0,0,0,0,0,0,0,0,0,0,0,0,0,0,0,0,0,0,0,0,0,0,0,0,0,0,0,0,0,0,0,0,0,0,0,0,0,0,0,35,0,0,35,0,35,0,0,35,0,0,0,0,43,0,0,43,0,43,0,0,43,0,0,0,0,0,0,0,0,0,0,0,0,0,0,0,0,0,0,0,0,0,0,0,0,0,0,0,0,0,0,0,0,0,0,0,0,0,0,0,0,0,0,0,0,0,0,0,0,0,0,0,0,0,0,0,0,0,0,0,0,0,0,0,0,0,0,0,0,0,0,0,0,0,0,0,0,0,0,0,0,0,0,0,0,0,0,0,0,0,0,0,0,0,0,0,0,0,0,0,0,0,0,0,0,0,0,0,0,0,0,0,0,0,0,0,0,0,0,0,0,0,0,0,0,0,0,0,0,0,0,0,0,0,0,0,0,0,0,0,0,0,0,0,0,0,0,0,0,0,0,0,0,0,0,0,0,0,0,0,0,0,0,0,0,0,0,0,0,0,0,0,0,0,5,0,0,0,0,0,0,0,0,0,0,0,0,5,0,0,0,0,0,0,0,0,0,0,0,0,5,0,0,0,0,0,0,0,0,0,0,0,0,5,0,0,0,0,0,0,0,0,0,0,0,0,5,0,0,0,0,0,0,0,0,0,0,0,0,5,0,0,0,0,0,0,0,0,0,0,0,0,5,0,0,0,0,0,0,0,0,0,0,0,0,0,0,0,0,0,0,0,0,0,0,0,0,0,0,0,0,0,0,0,0,0,0,0,0,0,0,0,0,0,0,0,0,0,0,0,0,0,0,0,0,0,0,0,0,0,0,0,0,0,0,0,0,0,0,0,0,0,0,0,0,0,0,0,0,0,0,0,0,0,0,0,0,0,0,0,0,0,0,0,1,1,0,1,1,1,1,1,0,0,0,0,0,0,0,0,0,0,0,1,1,0,0,0,0,0,0,0,0,0,0,0,0,0,0,0,0,0,0,0,0,0,0,0,1,1,0,0,0,0,0,0,0,0,0,0,0,1,0,1,0,0,0,0,0,0,0,0,0,0,0,0,1,0,0,0,0,0,0,0,0,0,0,0,1,0,0,0,0,0,0,0,0,0,0,0,0,0,0,0,0,0,0,0,0,0,0,0,0,0,0,0,0,0],
"events":[
null,
{"id":1,"name":"Leon","note":"","pages":[{"conditions":{"actorId":1,"actorValid":false,"itemId":1,"itemValid":false,"selfSwitchCh":"A","selfSwitchValid":false,"switch1Id":404,"switch1Valid":false,"switch2Id":1,"switch2Valid":false,"variableId":1,"variableValid":false,"variableValue":0},"directionFix":false,"image":{"tileId":0,"characterName":"Arctic Hawk","direction":8,"pattern":1,"characterIndex":3},"list":[{"code":0,"indent":0,"parameters":[]}],"moveFrequency":5,"moveRoute":{"list":[{"code":37,"indent":null},{"code":39,"indent":null},{"code":0,"parameters":[]}],"repeat":false,"skippable":false,"wait":false},"moveSpeed":3,"moveType":3,"priorityType":1,"stepAnime":false,"through":false,"trigger":0,"walkAnime":true}],"x":6,"y":11},
{"id":2,"name":"Senisa","note":"","pages":[{"conditions":{"actorId":1,"actorValid":false,"itemId":1,"itemValid":false,"selfSwitchCh":"A","selfSwitchValid":false,"switch1Id":1,"switch1Valid":false,"switch2Id":1,"switch2Valid":false,"variableId":1,"variableValid":false,"variableValue":0},"directionFix":false,"image":{"tileId":0,"characterName":"Arctic Hawk","direction":8,"pattern":1,"characterIndex":0},"list":[{"code":0,"indent":0,"parameters":[]}],"moveFrequency":3,"moveRoute":{"list":[{"code":0,"parameters":[]}],"repeat":true,"skippable":false,"wait":false},"moveSpeed":3,"moveType":0,"priorityType":1,"stepAnime":false,"through":false,"trigger":0,"walkAnime":true}],"x":5,"y":4},
{"id":3,"name":"3 Years Ago - Senisa and Leon","note":"","pages":[{"conditions":{"actorId":1,"actorValid":false,"itemId":1,"itemValid":false,"selfSwitchCh":"A","selfSwitchValid":false,"switch1Id":46,"switch1Valid":true,"switch2Id":1,"switch2Valid":false,"variableId":1,"variableValid":false,"variableValue":0},"directionFix":false,"image":{"characterIndex":0,"characterName":"","direction":2,"pattern":0,"tileId":0},"list":[{"code":223,"indent":0,"parameters":[[34,-34,-68,170],60,false]},{"code":241,"indent":0,"parameters":[{"name":"Rest Beneath the Tree (Scene)","volume":90,"pitch":100,"pan":0}]},{"code":213,"indent":0,"parameters":[2,8,true]},{"code":101,"indent":0,"parameters":["Senisa1",3,0,2]},{"code":401,"indent":0,"parameters":["\\m[Senisa]..."]},{"code":250,"indent":0,"parameters":[{"name":"48_Open7_B","volume":90,"pitch":100,"pan":0}]},{"code":205,"indent":0,"parameters":[1,{"list":[{"code":38,"indent":null},{"code":40,"indent":null},{"code":0}],"repeat":false,"skippable":false,"wait":true}]},{"code":505,"indent":0,"parameters":[{"code":38,"indent":null}]},{"code":505,"indent":0,"parameters":[{"code":40,"indent":null}]},{"code":213,"indent":0,"parameters":[1,1,true]},{"code":205,"indent":0,"parameters":[1,{"list":[{"code":4,"indent":null},{"code":4,"indent":null},{"code":4,"indent":null},{"code":4,"indent":null},{"code":4,"indent":null},{"code":2,"indent":null},{"code":4,"indent":null},{"code":0}],"repeat":false,"skippable":false,"wait":true}]},{"code":505,"indent":0,"parameters":[{"code":4,"indent":null}]},{"code":505,"indent":0,"parameters":[{"code":4,"indent":null}]},{"code":505,"indent":0,"parameters":[{"code":4,"indent":null}]},{"code":505,"indent":0,"parameters":[{"code":4,"indent":null}]},{"code":505,"indent":0,"parameters":[{"code":4,"indent":null}]},{"code":505,"indent":0,"parameters":[{"code":2,"indent":null}]},{"code":505,"indent":0,"parameters":[{"code":4,"indent":null}]},{"code":101,"indent":0,"parameters":["Leon",0,0,2]},{"code":401,"indent":0,"parameters":["\\m[Leon]Senna Flower, I see you're up today."]},{"code":213,"indent":0,"parameters":[2,2,true]},{"code":205,"indent":0,"parameters":[2,{"list":[{"code":17,"indent":null},{"code":15,"parameters":[45],"indent":null},{"code":16,"indent":null},{"code":0}],"repeat":false,"skippable":false,"wait":true}]},{"code":505,"indent":0,"parameters":[{"code":17,"indent":null}]},{"code":505,"indent":0,"parameters":[{"code":15,"parameters":[45],"indent":null}]},{"code":505,"indent":0,"parameters":[{"code":16,"indent":null}]},{"code":101,"indent":0,"parameters":["Senisa1",5,0,2]},{"code":401,"indent":0,"parameters":["\\m[Senisa]...Leo? Of course I'm up. Just like"]},{"code":401,"indent":0,"parameters":["every morning."]},{"code":213,"indent":0,"parameters":[1,8,true]},{"code":101,"indent":0,"parameters":["Leon",5,0,2]},{"code":401,"indent":0,"parameters":["\\m[Leon]You've...been in bed for the past week."]},{"code":213,"indent":0,"parameters":[2,1,true]},{"code":101,"indent":0,"parameters":["Senisa",7,0,2]},{"code":401,"indent":0,"parameters":["\\m[Senisa]No I haven't silly. Mihkael would never"]},{"code":401,"indent":0,"parameters":["let me stay in bed that long. Especially with all "]},{"code":401,"indent":0,"parameters":["the things we have to do."]},{"code":213,"indent":0,"parameters":[1,2,true]},{"code":101,"indent":0,"parameters":["Leon",0,0,2]},{"code":401,"indent":0,"parameters":["\\m[Leon]Mihkael? "]},{"code":205,"indent":0,"parameters":[2,{"list":[{"code":19,"indent":null},{"code":0}],"repeat":false,"skippable":false,"wait":true}]},{"code":505,"indent":0,"parameters":[{"code":19,"indent":null}]},{"code":101,"indent":0,"parameters":["Senisa1",3,0,2]},{"code":401,"indent":0,"parameters":["\\m[Senisa]He woke me up today like normal. He"]},{"code":401,"indent":0,"parameters":["was more gentle than usual though. Like he thought"]},{"code":401,"indent":0,"parameters":["me to be as fragile as glass."]},{"code":101,"indent":0,"parameters":["Leon",0,0,2]},{"code":401,"indent":0,"parameters":["\\m[Leon]He...woke you up?"]},{"code":205,"indent":0,"parameters":[2,{"list":[{"code":14,"parameters":[0,0],"indent":null},{"code":16,"indent":null},{"code":0}],"repeat":false,"skippable":false,"wait":true}]},{"code":505,"indent":0,"parameters":[{"code":14,"parameters":[0,0],"indent":null}]},{"code":505,"indent":0,"parameters":[{"code":16,"indent":null}]},{"code":213,"indent":0,"parameters":[2,1,true]},{"code":101,"indent":0,"parameters":["Senisa1",3,0,2]},{"code":401,"indent":0,"parameters":["\\m[Senisa]Leo! Don't make me describe it! Just because"]},{"code":401,"indent":0,"parameters":["you walked into a lot of things doesn't mean that"]},{"code":401,"indent":0,"parameters":["you have to know EVERYTHING."]},{"code":213,"indent":0,"parameters":[2,4,true]},{"code":205,"indent":0,"parameters":[1,{"list":[{"code":13,"indent":null},{"code":0}],"repeat":false,"skippable":false,"wait":true}]},{"code":505,"indent":0,"parameters":[{"code":13,"indent":null}]},{"code":213,"indent":0,"parameters":[1,8,true]},{"code":205,"indent":0,"parameters":[1,{"list":[{"code":18,"indent":null},{"code":0}],"repeat":false,"skippable":false,"wait":true}]},{"code":505,"indent":0,"parameters":[{"code":18,"indent":null}]},{"code":101,"indent":0,"parameters":["Leon",0,0,2]},{"code":401,"indent":0,"parameters":["\\m[Leon]Senisa. Mihkael hasn't been here for two years."]},{"code":213,"indent":0,"parameters":[2,2,true]},{"code":101,"indent":0,"parameters":["Senisa1",2,0,2]},{"code":401,"indent":0,"parameters":["\\m[Senisa]...What...? That can't be right. He woke"]},{"code":401,"indent":0,"parameters":["me up today."]},{"code":205,"indent":0,"parameters":[1,{"list":[{"code":19,"indent":null},{"code":12,"indent":null},{"code":0}],"repeat":false,"skippable":false,"wait":true}]},{"code":505,"indent":0,"parameters":[{"code":19,"indent":null}]},{"code":505,"indent":0,"parameters":[{"code":12,"indent":null}]},{"code":101,"indent":0,"parameters":["Leon",0,0,2]},{"code":401,"indent":0,"parameters":["\\m[Leon]No one has seen him since he left. His"]},{"code":401,"indent":0,"parameters":["letters stopped coming when they were supposed "]},{"code":401,"indent":0,"parameters":["to for several months now."]},{"code":213,"indent":0,"parameters":[2,7,true]},{"code":101,"indent":0,"parameters":["Senisa1",0,0,2]},{"code":401,"indent":0,"parameters":["\\m[Senisa]N-no...no that's...b-but he was right"]},{"code":401,"indent":0,"parameters":["here...!"]},{"code":205,"indent":0,"parameters":[2,{"list":[{"code":12,"indent":null},{"code":0}],"repeat":false,"skippable":false,"wait":false}]},{"code":505,"indent":0,"parameters":[{"code":12,"indent":null}]},{"code":205,"indent":0,"parameters":[1,{"list":[{"code":13,"indent":null},{"code":0}],"repeat":false,"skippable":false,"wait":true}]},{"code":505,"indent":0,"parameters":[{"code":13,"indent":null}]},{"code":213,"indent":0,"parameters":[1,1,false]},{"code":101,"indent":0,"parameters":["Senisa1",0,0,2]},{"code":401,"indent":0,"parameters":["\\m[Senisa]Leo! Don't lie to me! He kissed me awake!"]},{"code":401,"indent":0,"parameters":["He held me close and kissed me! I felt him!"]},{"code":401,"indent":0,"parameters":["I know I did! "]},{"code":213,"indent":0,"parameters":[1,8,true]},{"code":101,"indent":0,"parameters":["Leon",5,0,2]},{"code":401,"indent":0,"parameters":["\\m[Leon]Shh...shh...I'm sorry Senna Flower. I'm"]},{"code":401,"indent":0,"parameters":["so sorry. "]},{"code":213,"indent":0,"parameters":[2,7,true]},{"code":101,"indent":0,"parameters":["Senisa2",6,0,2]},{"code":401,"indent":0,"parameters":["\\m[Senisa]L-Leo...! Leo, I s-swear it was him! "]},{"code":401,"indent":0,"parameters":["I-I---!"]},{"code":101,"indent":0,"parameters":["Leon",5,0,2]},{"code":401,"indent":0,"parameters":["\\m[Leon]Senna..."]},{"code":101,"indent":0,"parameters":["Senisa2",6,0,2]},{"code":401,"indent":0,"parameters":["\\m[Senisa]I-I want him...L-Leo...H-He...!"]},{"code":213,"indent":0,"parameters":[1,7,true]},{"code":101,"indent":0,"parameters":["Leon",5,0,2]},{"code":401,"indent":0,"parameters":["\\m[Leon]I would bring him to you if I could"]},{"code":401,"indent":0,"parameters":["sweetheart. I would chain him to you so he"]},{"code":401,"indent":0,"parameters":["can't ever leave you again. But, his father"]},{"code":401,"indent":0,"parameters":["sent him on this mission and as a prince, "]},{"code":101,"indent":0,"parameters":["Leon",5,0,2]},{"code":401,"indent":0,"parameters":["\\m[Leon]he's obligated to follow. You know he"]},{"code":401,"indent":0,"parameters":["would have never left if that wasn't the case."]},{"code":101,"indent":0,"parameters":["Senisa1",1,0,2]},{"code":401,"indent":0,"parameters":["\\m[Senisa]B-but!"]},{"code":101,"indent":0,"parameters":["Leon",1,0,2]},{"code":401,"indent":0,"parameters":["\\m[Leon]Senna Flower. Look down. Come on, look."]},{"code":101,"indent":0,"parameters":["Leon2",0,0,2]},{"code":401,"indent":0,"parameters":["\\m[Leon]Just look at your finger. Look at the ring. "]},{"code":401,"indent":0,"parameters":["Isn't that such a beautiful symbol of his love for you?"]},{"code":401,"indent":0,"parameters":["That's his promise to return to you. So hold on "]},{"code":401,"indent":0,"parameters":["for just a little more. "]},{"code":101,"indent":0,"parameters":["Senisa1",1,0,2]},{"code":401,"indent":0,"parameters":["\\m[Senisa]Leo...it hurts so much..."]},{"code":101,"indent":0,"parameters":["Leon",5,0,2]},{"code":401,"indent":0,"parameters":["\\m[Leon]Sweetheart...I can't ease this pain, but I can"]},{"code":401,"indent":0,"parameters":["bear it with you. Don't suffer through this alone. "]},{"code":401,"indent":0,"parameters":["Not when you have both Lu and I here."]},{"code":101,"indent":0,"parameters":["Senisa2",6,0,2]},{"code":401,"indent":0,"parameters":["\\m[Senisa]M-Mihkael...!"]},{"code":221,"indent":0,"parameters":[]},{"code":223,"indent":0,"parameters":[[0,0,0,0],60,true]},{"code":101,"indent":0,"parameters":["",0,2,1]},{"code":401,"indent":0,"parameters":["That marked the day that I first saw the apparition"]},{"code":401,"indent":0,"parameters":["of my love. From that day on, he was constantly by"]},{"code":401,"indent":0,"parameters":["my side. Seen by no one but me. After a few attempts"]},{"code":401,"indent":0,"parameters":["to tell Leo and Lu, I kept the sightings to myself."]},{"code":101,"indent":0,"parameters":["",0,2,1]},{"code":401,"indent":0,"parameters":["...However, he was always there watching me. With a sad"]},{"code":401,"indent":0,"parameters":["little smile and a gaze that made me think he wanted to"]},{"code":401,"indent":0,"parameters":["cry."]},{"code":101,"indent":0,"parameters":["",0,2,1]},{"code":401,"indent":0,"parameters":["Soon, it changed. His watchful gaze became more piercing."]},{"code":401,"indent":0,"parameters":["Soon, he began to beckon me to follow. "]},{"code":101,"indent":0,"parameters":["",0,2,1]},{"code":401,"indent":0,"parameters":["So, on I marched to the sound of his alluring call. Like"]},{"code":401,"indent":0,"parameters":["a siren that leads unwary sailors to their deaths. And"]},{"code":401,"indent":0,"parameters":["like those very sailors, I couldn't deny him. Couldn't "]},{"code":401,"indent":0,"parameters":["ignore it. I didn't want to."]},{"code":101,"indent":0,"parameters":["",0,2,1]},{"code":401,"indent":0,"parameters":["Never did I question where I was being led to."]},{"code":401,"indent":0,"parameters":["I just kept on marching. Hoping that when I stop, I'll"]},{"code":401,"indent":0,"parameters":["be in front of you."]},{"code":201,"indent":0,"parameters":[0,17,6,14,6,0]},{"code":211,"indent":0,"parameters":[1]},{"code":222,"indent":0,"parameters":[]},{"code":123,"indent":0,"parameters":["A",0]},{"code":0,"indent":0,"parameters":[]}],"moveFrequency":3,"moveRoute":{"list":[{"code":0,"parameters":[]}],"repeat":true,"skippable":false,"wait":false},"moveSpeed":1,"moveType":0,"priorityType":0,"stepAnime":false,"through":false,"trigger":3,"walkAnime":true},{"conditions":{"actorId":1,"actorValid":false,"itemId":1,"itemValid":false,"selfSwitchCh":"A","selfSwitchValid":true,"switch1Id":1,"switch1Valid":false,"switch2Id":1,"switch2Valid":false,"variableId":1,"variableValid":false,"variableValue":0},"directionFix":false,"image":{"characterIndex":0,"characterName":"","direction":2,"pattern":0,"tileId":0},"list":[{"code":0,"indent":0,"parameters":[]}],"moveFrequency":3,"moveRoute":{"list":[{"code":0,"parameters":[]}],"repeat":true,"skippable":false,"wait":false},"moveSpeed":3,"moveType":0,"priorityType":0,"stepAnime":false,"through":false,"trigger":0,"walkAnime":true}],"x":1,"y":11}
]
}