{
"autoplayBgm":false,"autoplayBgs":false,"battleback1Name":"Cobblestones2","battleback2Name":"Stone1","bgm":{"name":"","pan":0,"pitch":100,"volume":90},"bgs":{"name":"","pan":0,"pitch":100,"volume":90},"disableDashing":false,"displayName":"Inner Sanctum","encounterList":[],"encounterStep":30,"height":37,"note":"<General Location: Shrine of Cerberus>","parallaxLoopX":false,"parallaxLoopY":false,"parallaxName":"","parallaxShow":true,"parallaxSx":0,"parallaxSy":0,"scrollType":0,"specifyBattleback":true,"tilesetId":2,"width":17,
"data":[1536,1536,1536,1536,1536,1536,1536,1536,1536,1536,1536,1536,1536,1536,1536,1536,1536,1536,1536,6986,2675,6987,6977,6977,6977,6977,6977,6977,6977,6989,2675,6986,1536,1536,1536,1536,6976,2675,7331,7330,7330,7330,7330,7330,7330,7330,7334,2675,6976,1536,1536,1536,1536,6976,2675,7337,7336,7336,7336,7336,7336,7336,7336,7340,2675,6976,1536,1536,1536,1536,6976,2368,2850,2852,1573,1573,1573,1573,1573,2850,2852,2368,6976,1536,1536,1536,1536,6976,2368,2856,2854,1573,1573,1573,1573,1573,2856,2854,2368,6976,1536,1536,1536,1536,6976,2377,2369,2369,2373,1573,1573,1573,2371,2369,2369,2375,6976,1536,1536,1536,1536,6985,6977,6977,6981,2368,1573,2858,1573,2368,6979,6977,6977,6983,1536,1536,1536,1536,1536,1536,1536,6976,2368,1573,2848,1573,2368,6976,1536,1536,1536,1536,1536,1536,1536,1536,1536,1536,6976,2368,1573,2848,1573,2368,6976,1536,1536,1536,1536,1536,1536,1536,1536,1536,1536,6976,2368,1573,2860,1573,2368,6976,1536,1536,1536,1536,1536,1536,1536,1536,1536,1536,6976,2368,1573,1573,1573,2368,6976,1536,1536,1536,1536,1536,1536,1536,1536,1536,1536,6976,2368,1573,1573,1573,2368,6976,1536,1536,1536,1536,1536,1536,1536,1536,1536,1536,6976,2368,1573,2858,1573,2368,6976,1536,1536,1536,1536,1536,1536,1536,1536,1536,1536,6976,2368,1573,2848,1573,2368,6976,1536,1536,1536,1536,1536,1536,6979,6977,6977,6977,6983,2368,1573,2848,1573,2368,6985,6977,6977,6977,6981,1536,1536,6976,7330,7330,7330,7334,2368,1573,2860,1573,2368,7331,7330,7330,7330,6976,1536,1536,6976,7336,7336,7336,7340,2368,1573,1573,1573,2368,7337,7336,7336,7336,6976,1536,1536,6976,2379,2369,2369,2369,2375,1573,1573,1573,2377,2369,2369,2369,2381,6976,1536,1536,6976,1573,1573,1573,1573,1573,1573,2858,1573,1573,1573,1573,1573,1573,6976,1536,1536,6976,1573,2862,1573,2862,1573,2859,2847,2861,1573,2862,1573,2862,1573,6976,1536,1536,6976,1573,1573,1573,1573,1573,1573,1573,1573,1573,1573,1573,1573,1573,6976,1536,1536,6976,2379,2369,2369,2369,2373,1573,1573,1573,2371,2369,2369,2369,2381,6976,1536,1536,6985,6977,6977,6977,6981,2368,1573,1573,1573,2368,6979,6977,6977,6977,6983,1536,1536,1536,1536,1536,1536,6976,2368,1573,2858,1573,2368,6976,1536,1536,1536,1536,1536,1536,1536,1536,1536,1536,6976,2368,1573,2848,1573,2368,6976,1536,1536,1536,1536,1536,1536,1536,1536,1536,1536,6976,2368,1573,2848,1573,2368,6976,1536,1536,1536,1536,1536,1536,1536,1536,1536,1536,6976,2368,1573,2860,1573,2368,6976,1536,1536,1536,1536,1536,1536,1536,1536,1536,1536,6976,2368,1573,1573,1573,2368,6976,1536,1536,1536,1536,1536,1536,6979,6977,6977,6977,6983,2368,1573,2858,1573,2368,6985,6977,6977,6977,6981,1536,1536,6976,7330,7330,7330,7334,2368,1573,2848,1573,2368,7331,7330,7330,7330,6976,1536,1536,6976,7336,7336,7336,7340,2368,1573,2848,1573,2368,7337,7336,7336,7336,6976,1536,1536,6976,2371,2369,2369,2369,2375,1573,2860,1573,2377,2369,2369,2369,2373,6976,1536,1536,6976,2368,2850,2852,1573,1573,1573,1573,1573,1573,1573,2850,2852,2368,6976,1536,1536,6976,2380,2856,2854,1573,1573,1573,1573,1573,1573,1573,2856,2854,2380,6976,1536,1536,6985,6977,6977,6977,6977,6977,6989,1573,6987,6977,6977,6977,6977,6977,6983,1536,1536,1536,1536,1536,1536,1536,1536,1536,1536,1536,1536,1536,1536,1536,1536,1536,1536,0,0,0,0,0,0,0,0,0,0,0,0,0,0,0,0,0,0,0,0,0,0,0,0,0,0,0,0,0,0,0,0,0,0,0,0,0,0,0,0,0,0,0,0,0,0,0,0,0,0,0,0,0,0,0,0,0,0,0,0,0,0,0,0,0,0,0,0,0,0,0,0,0,0,0,0,0,0,0,0,0,0,0,0,0,0,0,0,0,0,0,0,0,0,0,0,0,0,0,0,0,0,0,0,0,0,0,0,0,0,0,0,0,0,0,0,0,0,0,0,0,0,0,0,0,0,0,0,0,0,0,0,0,0,0,0,0,0,0,0,0,0,0,0,0,0,0,0,0,0,0,0,0,0,0,0,0,0,0,0,0,0,0,0,0,0,0,0,0,0,0,0,0,0,0,0,0,0,0,0,0,0,0,0,0,0,0,0,0,0,0,0,0,0,0,0,0,0,0,0,0,0,0,0,0,0,0,0,0,0,0,0,0,0,0,0,0,0,0,0,0,0,0,0,0,0,0,0,0,0,0,0,0,0,0,0,0,0,0,0,0,0,0,0,0,0,0,0,0,0,0,0,0,0,0,0,0,0,0,0,0,0,0,0,0,0,0,0,0,0,0,0,0,0,0,0,0,0,0,0,0,0,0,0,0,0,0,0,0,0,0,0,0,0,0,0,0,0,0,0,0,0,0,0,0,0,0,0,0,0,0,0,0,0,0,0,0,0,0,0,0,0,0,0,0,0,0,0,0,0,0,0,0,0,0,0,0,0,0,0,0,0,0,0,0,0,0,0,0,0,0,0,0,0,0,0,0,0,0,0,0,0,0,0,0,0,0,0,0,0,0,0,0,0,0,0,0,0,0,0,0,0,0,0,0,0,0,0,0,0,0,0,0,0,0,0,0,0,0,0,0,0,0,0,0,0,0,0,0,0,0,0,0,0,0,0,0,0,0,0,0,0,0,0,0,0,0,0,0,0,0,0,0,0,0,0,0,0,0,0,0,0,0,0,0,0,0,0,0,0,0,0,0,0,0,0,0,0,0,0,0,0,0,0,0,0,0,0,0,0,0,0,0,0,0,0,0,0,0,0,0,0,0,0,0,0,0,0,0,0,0,0,0,0,0,0,0,0,0,0,0,0,0,0,0,0,0,0,0,0,0,0,0,0,0,0,0,0,0,0,0,0,0,0,0,0,0,0,0,0,0,0,0,0,0,0,0,0,0,0,0,0,0,0,0,0,0,0,0,0,0,0,0,0,0,0,0,0,0,0,0,0,0,0,0,0,0,0,0,0,0,0,0,0,0,0,0,0,0,0,0,0,0,0,0,0,0,0,0,0,0,0,0,0,0,0,0,0,0,0,0,0,0,0,0,0,0,0,0,0,0,0,0,0,0,0,0,0,0,0,0,0,0,0,0,0,0,0,0,0,0,0,0,0,0,0,0,0,0,0,0,0,0,0,0,0,0,0,0,0,0,0,0,0,0,0,0,0,0,0,0,0,0,0,0,0,0,0,0,0,0,0,0,0,0,0,0,0,0,0,0,0,0,0,666,667,666,0,0,0,667,666,667,0,0,0,0,0,0,0,0,120,121,0,0,0,0,0,120,121,0,0,0,0,0,0,0,0,0,0,0,0,0,0,0,0,0,0,0,0,0,0,0,0,0,0,0,0,0,0,0,0,0,0,0,0,0,0,0,0,0,0,0,0,0,0,351,0,0,0,0,0,0,0,0,0,0,0,0,0,0,0,0,0,0,0,0,0,0,0,0,0,0,0,0,0,0,0,0,0,0,0,0,0,0,0,0,0,0,0,0,0,0,0,0,0,0,0,0,0,0,0,0,0,0,0,0,0,0,0,0,0,0,0,0,0,0,0,0,0,0,0,0,0,0,0,0,0,0,0,0,0,0,0,0,0,0,0,0,0,0,0,0,0,0,0,0,0,351,0,0,0,0,0,0,0,0,0,0,0,0,0,0,0,0,0,0,0,0,0,0,0,0,0,0,0,0,0,0,0,0,0,0,0,0,0,0,0,0,0,0,0,0,0,0,0,0,0,0,0,0,0,0,0,0,0,0,0,0,0,0,0,0,0,0,0,0,0,0,0,0,0,0,0,0,0,0,0,0,0,0,0,0,0,0,0,0,0,0,0,0,0,0,0,0,0,0,0,0,0,101,0,0,0,0,0,0,0,0,0,0,0,0,0,0,0,0,0,0,0,0,0,0,0,0,0,0,0,0,0,0,0,0,0,0,0,0,0,0,0,0,0,0,0,0,0,0,0,0,0,0,0,0,0,0,0,0,0,0,0,0,0,0,0,0,0,0,0,0,0,0,0,0,0,0,0,0,0,0,0,0,0,0,0,0,351,0,0,0,0,0,0,0,0,0,0,0,0,0,0,0,0,0,0,0,0,0,0,0,0,0,0,0,0,0,0,0,0,0,0,0,0,0,0,0,0,0,0,0,0,0,0,0,0,0,0,0,0,0,0,0,0,0,0,0,0,0,0,0,0,0,0,0,0,0,0,0,0,0,0,0,0,0,0,0,0,0,0,0,0,351,0,0,0,0,0,0,0,0,0,0,0,0,0,0,0,0,0,0,0,0,0,0,0,0,0,0,0,0,0,0,0,0,0,0,0,0,0,0,0,0,0,0,0,0,0,0,0,0,0,0,0,0,0,0,0,0,0,0,0,0,0,0,101,0,0,0,0,0,0,0,0,0,101,0,0,0,0,0,0,0,0,0,0,0,0,0,0,0,0,0,0,0,0,0,0,0,0,0,0,0,0,0,0,0,0,0,0,0,0,0,0,0,0,0,0,0,0,0,0,0,0,0,0,0,0,0,0,0,0,0,0,0,0,0,0,0,0,0,0,0,0,0,0,0,0,0,0,0,0,0,0,0,0,0,0,0,0,0,0,0,0,0,0,0,0,658,659,658,40,0,40,659,658,659,0,0,0,0,0,0,0,0,112,113,343,0,0,0,343,112,113,0,0,0,0,0,0,0,0,112,113,351,0,340,0,351,112,113,0,0,0,0,0,0,0,0,120,121,0,0,0,0,0,120,121,0,0,0,0,0,0,0,0,0,0,0,0,343,0,0,0,0,0,0,0,0,0,0,0,0,0,0,0,0,93,0,0,0,0,0,0,0,0,0,0,0,0,0,0,0,0,94,0,0,0,0,0,0,0,0,0,0,0,0,0,0,0,0,94,0,0,0,0,0,0,0,0,0,0,0,0,0,0,0,0,101,0,0,0,0,0,0,0,0,0,0,0,0,0,0,0,0,0,0,0,0,0,0,0,0,0,0,0,0,0,0,0,0,0,343,0,0,0,0,0,0,0,0,0,0,0,0,0,0,0,0,93,0,0,0,0,0,0,0,0,0,0,0,0,0,0,0,0,94,0,0,0,0,0,0,0,0,0,0,0,0,0,0,0,0,94,0,0,0,0,0,0,0,0,0,0,0,292,195,0,0,0,101,0,0,0,195,292,0,0,0,0,0,0,300,0,0,0,0,0,0,0,0,0,300,0,0,0,0,0,0,0,0,0,0,0,93,0,0,0,0,0,0,0,0,0,0,0,93,0,93,0,93,304,93,0,93,0,93,0,0,0,0,0,0,101,0,101,0,101,312,101,0,101,0,101,0,0,0,0,0,0,0,0,0,0,0,0,0,0,0,0,0,0,0,0,0,0,0,0,0,0,0,0,0,0,0,0,0,0,0,0,0,0,0,0,0,0,0,0,0,343,0,0,0,0,0,0,0,0,0,0,0,0,0,0,0,0,93,0,0,0,0,0,0,0,0,0,0,0,0,0,0,0,0,94,0,0,0,0,0,0,0,0,0,0,0,0,0,0,0,0,94,0,0,0,0,0,0,0,0,0,0,0,0,0,0,0,0,101,0,0,0,0,0,0,0,0,0,0,0,0,0,0,0,0,343,0,0,0,0,0,0,0,0,0,0,0,0,0,0,0,0,93,0,0,0,0,0,0,0,0,0,0,0,292,195,0,0,0,94,0,0,0,195,292,0,0,0,0,0,0,300,0,0,0,0,94,0,0,0,0,300,0,0,0,0,0,0,93,93,0,0,0,101,0,0,0,93,93,0,0,0,0,0,0,94,101,0,0,0,0,0,0,0,101,94,0,0,0,0,0,0,94,181,0,0,0,0,0,0,0,181,94,0,0,0,0,0,0,0,0,0,0,0,0,0,0,0,0,0,0,0,0,0,0,0,0,0,0,0,0,0,0,0,0,0,0,0,0,0,0,0,0,0,0,0,0,0,0,0,0,0,0,0,0,0,0,0,0,0,0,0,0,0,0,0,0,0,0,0,0,0,0,0,0,0,0,5,0,0,0,0,0,0,0,0,0,5,0,5,0,0,0,0,5,0,0,0,0,0,0,0,0,0,5,0,5,0,0,0,0,5,0,0,0,0,0,0,0,0,0,0,0,5,0,0,0,0,5,0,0,0,0,0,0,0,0,0,0,0,5,0,0,0,0,5,0,0,0,0,0,0,0,0,0,0,0,5,0,0,0,0,0,0,0,0,0,0,0,0,0,0,0,0,5,0,0,0,0,0,0,0,5,0,0,0,0,0,5,0,0,0,0,0,0,0,0,0,0,5,0,0,0,0,0,5,0,0,0,0,0,0,0,0,0,0,5,0,0,0,0,0,5,0,0,0,0,0,0,0,0,0,0,5,0,0,0,0,0,5,0,0,0,0,0,0,0,0,0,0,5,0,0,0,0,0,5,0,0,0,0,0,0,0,0,0,0,5,0,0,0,0,0,5,0,0,0,0,0,0,0,0,0,0,5,0,0,0,0,0,5,0,0,0,0,0,0,0,0,0,0,5,0,0,0,0,0,0,0,0,0,0,0,0,0,0,0,0,5,0,0,0,0,0,0,0,0,0,5,0,0,0,0,0,0,5,0,0,0,0,0,0,0,0,0,5,0,0,5,0,0,0,0,0,0,0,0,0,0,0,0,0,5,0,0,5,0,0,0,0,0,0,0,0,0,0,0,0,0,5,0,0,5,0,0,0,0,0,0,0,0,0,0,0,0,0,5,0,0,5,0,0,0,0,0,0,0,0,0,0,0,0,0,5,0,0,5,0,0,0,0,0,0,0,0,0,0,0,0,0,5,0,0,0,0,0,0,0,0,0,0,0,0,0,0,0,0,5,0,0,0,0,0,0,5,0,0,0,0,0,5,0,0,0,0,0,0,0,0,0,0,5,0,0,0,0,0,5,0,0,0,0,0,0,0,0,0,0,5,0,0,0,0,0,5,0,0,0,0,0,0,0,0,0,0,5,0,0,0,0,0,5,0,0,0,0,0,0,0,0,0,0,5,0,0,0,0,0,5,0,0,0,0,0,0,0,0,0,0,5,0,0,0,0,0,0,0,0,0,0,0,0,0,0,0,0,5,0,0,0,0,0,0,0,0,0,5,0,0,0,0,0,0,5,0,0,0,0,0,0,0,0,0,5,0,0,5,0,0,0,0,0,0,0,0,0,0,0,0,0,5,0,0,5,0,0,0,0,0,0,0,0,0,0,0,0,0,5,0,0,5,0,0,0,0,0,0,0,0,0,0,0,0,0,5,0,0,0,0,0,0,0,0,0,0,0,0,0,0,0,0,5,0,0,0,0,0,0,0,0,0,0,0,0,0,0,0,0,0,0,0,0,0,0,0,0,0,0,0,0,0,0,0,0,0,0,0,0,0,0,0,0,0,0,0,0,0,0,0,0,0,0,0,0,0,0,0,0,0,0,0,0,0,0,0,0,0,0,0,0,0,0,0,0,0,0,0,0,0,0,0,0,0,0,0,0,0,0,0,0,0,0,0,0,0,0,0,0,0,0,0,0,0,0,0,0,0,0,0,0,0,0,0,0,0,0,0,0,0,0,0,0,0,0,0,0,0,0,0,0,0,0,0,0,0,0,0,0,0,0,0,0,0,0,0,0,0,0,0,0,0,0,0,0,0,0,0,0,0,0,0,0,0,0,0,0,0,0,0,0,0,0,0,0,0,0,0,0,0,0,0,0,0,0,0,0,0,0,0,0,0,0,0,0,0,0,0,0,0,0,0,0,0,0,0,0,0,0,0,0,0,0,0,0,0,0,0,0,0,0,0,0,0,0,0,0,0,0,0,0,0,0,0,0,0,0,0,0,0,0,0,0,0,0,0,0,0,0,0,0,0,0,0,0,0,0,0,0,0,0,0,0,0,0,0,0,0,0,0,0,0,0,0,0,0,0,0,0,0,0,0,0,0,0,0,0,0,0,0,0,0,0,0,0,0,0,0,0,0,0,0,0,0,0,0,0,0,0,0,0,0,0,0,0,0,0,0,0,0,0,0,0,0,0,0,0,0,0,0,0,0,0,0,0,0,0,0,0,0,0,0,0,0,0,0,0,0,0,0,0,0,0,0,0,0,0,0,0,0,0,0,0,0,0,0,0,0,0,0,0,0,0,0,0,0,0,0,0,0,0,0,0,0,0,0,0,0,0,0,0,0,0,0,0,0,0,0,0,0,0,0,0,0,0,0,0,0,0,0,0,0,0,0,0,0,0,0,0,0,0,0,0,0,0,0,0,0,0,0,0,0,0,0,0,0,0,0,0,0,0,0,0,0,0,0,0,0,0,0,0,0,0,0,0,0,0,0,0,0,0,0,0,0,0,0,0,0,0,0,0,0,0,0,0,0,0,0,0,0,0,0,0,0,0,0,0,0,0,0,0,0,0,0,0,0,0,0,0,0,0,0,0,0,0,0,0,0,0,0,0,0,0,0,0,0,0,0,0,0,0,0,0,0,0,0,0,0,0,0,0,0,0,0,0,0,0,0,0,0,0,0,0,0,0,0,0,0,0,0,0,0,0,0,0,0,0,0,0,0,0,0,0,0,0,0,0,0,0,0,0,0,0,0,0,0,0,0,0,0,0,0,0,0,0,0,0,0,0,0,0,0,0,0,0,0,0,0,0,0,0,0,0,0,0,0,0,0,0,0,0,0,0,0,0,0,0,0,0,0,0,0,0,0,0,0,0,0,0,0,0,0,0,0,0,0,0,0,0,0,0,0,0,0,0,0,0,0,0],
"events":[
null,
{"id":1,"name":"Waterfall Bottom","note":"","pages":[{"conditions":{"actorId":1,"actorValid":false,"itemId":1,"itemValid":false,"selfSwitchCh":"A","selfSwitchValid":false,"switch1Id":1,"switch1Valid":false,"switch2Id":1,"switch2Valid":false,"variableId":1,"variableValid":false,"variableValue":0},"directionFix":true,"image":{"tileId":0,"characterName":"!Other2","direction":2,"pattern":0,"characterIndex":0},"list":[{"code":0,"indent":0,"parameters":[]}],"moveFrequency":3,"moveRoute":{"list":[{"code":0,"parameters":[]}],"repeat":true,"skippable":false,"wait":false},"moveSpeed":3,"moveType":0,"priorityType":1,"stepAnime":true,"through":false,"trigger":0,"walkAnime":true}],"x":3,"y":4},
{"id":2,"name":"Waterfall Bottom","note":"","pages":[{"conditions":{"actorId":1,"actorValid":false,"itemId":1,"itemValid":false,"selfSwitchCh":"A","selfSwitchValid":false,"switch1Id":1,"switch1Valid":false,"switch2Id":1,"switch2Valid":false,"variableId":1,"variableValid":false,"variableValue":0},"directionFix":true,"image":{"tileId":0,"characterName":"!Other2","direction":2,"pattern":0,"characterIndex":0},"list":[{"code":0,"indent":0,"parameters":[]}],"moveFrequency":3,"moveRoute":{"list":[{"code":0,"parameters":[]}],"repeat":true,"skippable":false,"wait":false},"moveSpeed":3,"moveType":0,"priorityType":1,"stepAnime":true,"through":false,"trigger":0,"walkAnime":true}],"x":13,"y":4},
{"id":3,"name":"Waterfall Top","note":"","pages":[{"conditions":{"actorId":1,"actorValid":false,"itemId":1,"itemValid":false,"selfSwitchCh":"A","selfSwitchValid":false,"switch1Id":1,"switch1Valid":false,"switch2Id":1,"switch2Valid":false,"variableId":1,"variableValid":false,"variableValue":0},"directionFix":true,"image":{"tileId":0,"characterName":"!Other2","direction":8,"pattern":0,"characterIndex":0},"list":[{"code":0,"indent":0,"parameters":[]}],"moveFrequency":3,"moveRoute":{"list":[{"code":0,"parameters":[]}],"repeat":true,"skippable":false,"wait":false},"moveSpeed":3,"moveType":0,"priorityType":1,"stepAnime":true,"through":false,"trigger":0,"walkAnime":true}],"x":3,"y":1},
{"id":4,"name":"Waterfall Top","note":"","pages":[{"conditions":{"actorId":1,"actorValid":false,"itemId":1,"itemValid":false,"selfSwitchCh":"A","selfSwitchValid":false,"switch1Id":1,"switch1Valid":false,"switch2Id":1,"switch2Valid":false,"variableId":1,"variableValid":false,"variableValue":0},"directionFix":true,"image":{"tileId":0,"characterName":"!Other2","direction":8,"pattern":0,"characterIndex":0},"list":[{"code":0,"indent":0,"parameters":[]}],"moveFrequency":3,"moveRoute":{"list":[{"code":0,"parameters":[]}],"repeat":true,"skippable":false,"wait":false},"moveSpeed":3,"moveType":0,"priorityType":1,"stepAnime":true,"through":false,"trigger":0,"walkAnime":true}],"x":13,"y":1},
{"id":5,"name":"EV005","note":"","pages":[{"conditions":{"actorId":1,"actorValid":false,"itemId":1,"itemValid":false,"selfSwitchCh":"A","selfSwitchValid":false,"switch1Id":1,"switch1Valid":false,"switch2Id":1,"switch2Valid":false,"variableId":1,"variableValid":false,"variableValue":0},"directionFix":false,"image":{"characterIndex":0,"characterName":"","direction":2,"pattern":0,"tileId":0},"list":[{"code":356,"indent":0,"parameters":["MapZoom set 1.5 duration 30"]},{"code":201,"indent":0,"parameters":[0,45,7,8,0,0]},{"code":0,"indent":0,"parameters":[]}],"moveFrequency":3,"moveRoute":{"list":[{"code":0,"parameters":[]}],"repeat":true,"skippable":false,"wait":false},"moveSpeed":3,"moveType":0,"priorityType":0,"stepAnime":false,"through":false,"trigger":1,"walkAnime":true}],"x":8,"y":35},
{"id":6,"name":"Torch","note":"Fire 100 #FF9900 B50","pages":[{"conditions":{"actorId":1,"actorValid":false,"itemId":1,"itemValid":false,"selfSwitchCh":"A","selfSwitchValid":false,"switch1Id":1,"switch1Valid":false,"switch2Id":1,"switch2Valid":false,"variableId":1,"variableValid":false,"variableValue":0},"directionFix":true,"image":{"tileId":0,"characterName":"!fsm_Flame04","direction":2,"pattern":1,"characterIndex":2},"list":[{"code":0,"indent":0,"parameters":[]}],"moveFrequency":3,"moveRoute":{"list":[{"code":0,"parameters":[]}],"repeat":true,"skippable":false,"wait":false},"moveSpeed":3,"moveType":0,"priorityType":1,"stepAnime":true,"through":false,"trigger":0,"walkAnime":false}],"x":6,"y":33},
{"id":7,"name":"Torch","note":"Fire 100 #FF9900 B50","pages":[{"conditions":{"actorId":1,"actorValid":false,"itemId":1,"itemValid":false,"selfSwitchCh":"A","selfSwitchValid":false,"switch1Id":1,"switch1Valid":false,"switch2Id":1,"switch2Valid":false,"variableId":1,"variableValid":false,"variableValue":0},"directionFix":true,"image":{"tileId":0,"characterName":"!fsm_Flame04","direction":2,"pattern":1,"characterIndex":2},"list":[{"code":0,"indent":0,"parameters":[]}],"moveFrequency":3,"moveRoute":{"list":[{"code":0,"parameters":[]}],"repeat":true,"skippable":false,"wait":false},"moveSpeed":3,"moveType":0,"priorityType":1,"stepAnime":true,"through":false,"trigger":0,"walkAnime":false}],"x":10,"y":33},
{"id":8,"name":"Torch","note":"Fire 100 #FF9900 B50","pages":[{"conditions":{"actorId":1,"actorValid":false,"itemId":1,"itemValid":false,"selfSwitchCh":"A","selfSwitchValid":false,"switch1Id":1,"switch1Valid":false,"switch2Id":1,"switch2Valid":false,"variableId":1,"variableValid":false,"variableValue":0},"directionFix":true,"image":{"tileId":0,"characterName":"!fsm_Flame04","direction":2,"pattern":1,"characterIndex":2},"list":[{"code":0,"indent":0,"parameters":[]}],"moveFrequency":3,"moveRoute":{"list":[{"code":0,"parameters":[]}],"repeat":true,"skippable":false,"wait":false},"moveSpeed":3,"moveType":0,"priorityType":1,"stepAnime":true,"through":false,"trigger":0,"walkAnime":false}],"x":4,"y":19},
{"id":9,"name":"Torch","note":"Fire 100 #FF9900 B50","pages":[{"conditions":{"actorId":1,"actorValid":false,"itemId":1,"itemValid":false,"selfSwitchCh":"A","selfSwitchValid":false,"switch1Id":1,"switch1Valid":false,"switch2Id":1,"switch2Valid":false,"variableId":1,"variableValid":false,"variableValue":0},"directionFix":true,"image":{"tileId":0,"characterName":"!fsm_Flame04","direction":2,"pattern":1,"characterIndex":2},"list":[{"code":0,"indent":0,"parameters":[]}],"moveFrequency":3,"moveRoute":{"list":[{"code":0,"parameters":[]}],"repeat":true,"skippable":false,"wait":false},"moveSpeed":3,"moveType":0,"priorityType":1,"stepAnime":true,"through":false,"trigger":0,"walkAnime":false}],"x":12,"y":19},
{"id":10,"name":"Torch","note":"Fire 100 #FF9900 B50","pages":[{"conditions":{"actorId":1,"actorValid":false,"itemId":1,"itemValid":false,"selfSwitchCh":"A","selfSwitchValid":false,"switch1Id":1,"switch1Valid":false,"switch2Id":1,"switch2Valid":false,"variableId":1,"variableValid":false,"variableValue":0},"directionFix":true,"image":{"tileId":0,"characterName":"!fsm_Flame04","direction":2,"pattern":1,"characterIndex":2},"list":[{"code":0,"indent":0,"parameters":[]}],"moveFrequency":3,"moveRoute":{"list":[{"code":0,"parameters":[]}],"repeat":true,"skippable":false,"wait":false},"moveSpeed":3,"moveType":0,"priorityType":1,"stepAnime":true,"through":false,"trigger":0,"walkAnime":false}],"x":9,"y":4},
{"id":11,"name":"Torch","note":"Fire 100 #FF9900 B50","pages":[{"conditions":{"actorId":1,"actorValid":false,"itemId":1,"itemValid":false,"selfSwitchCh":"A","selfSwitchValid":false,"switch1Id":1,"switch1Valid":false,"switch2Id":1,"switch2Valid":false,"variableId":1,"variableValid":false,"variableValue":0},"directionFix":true,"image":{"tileId":0,"characterName":"!fsm_Flame04","direction":2,"pattern":1,"characterIndex":2},"list":[{"code":0,"indent":0,"parameters":[]}],"moveFrequency":3,"moveRoute":{"list":[{"code":0,"parameters":[]}],"repeat":true,"skippable":false,"wait":false},"moveSpeed":3,"moveType":0,"priorityType":1,"stepAnime":true,"through":false,"trigger":0,"walkAnime":false}],"x":7,"y":4},
{"id":12,"name":"Asag","note":"","pages":[{"conditions":{"actorId":1,"actorValid":false,"itemId":1,"itemValid":false,"selfSwitchCh":"A","selfSwitchValid":false,"switch1Id":1,"switch1Valid":false,"switch2Id":1,"switch2Valid":false,"variableId":1,"variableValid":false,"variableValue":0},"directionFix":false,"image":{"tileId":0,"characterName":"$BigMonster1","direction":2,"pattern":0,"characterIndex":0},"list":[{"code":356,"indent":0,"parameters":["HideActiveQuestWindow"]},{"code":224,"indent":0,"parameters":[[0,0,85,170],60,true]},{"code":224,"indent":0,"parameters":[[0,0,85,170],60,true]},{"code":250,"indent":0,"parameters":[{"name":"Monster9_B","volume":90,"pitch":100,"pan":0}]},{"code":101,"indent":0,"parameters":["Kevar",2,0,2]},{"code":401,"indent":0,"parameters":["\\m[Kevar]Geez! What the hell is that!?"]},{"code":101,"indent":0,"parameters":["Senisa",5,0,2]},{"code":401,"indent":0,"parameters":["\\m[Senisa]The vileness coming from this thing is "]},{"code":401,"indent":0,"parameters":["immense. "]},{"code":101,"indent":0,"parameters":["Nalia1",0,0,2]},{"code":401,"indent":0,"parameters":["\\m[Nalia]Kevvy..."]},{"code":101,"indent":0,"parameters":["Kevar",5,0,2]},{"code":401,"indent":0,"parameters":["\\m[Kevar]Stay back Nalia!"]},{"code":101,"indent":0,"parameters":["Susanoo",2,0,2]},{"code":401,"indent":0,"parameters":["\\m[Susanoo]Augh!!! By the gods! It burns!!"]},{"code":250,"indent":0,"parameters":[{"name":"Monster9_B","volume":90,"pitch":100,"pan":0}]},{"code":132,"indent":0,"parameters":[{"name":"Boss Battle (Loop)","volume":100,"pitch":100,"pan":0}]},{"code":301,"indent":0,"parameters":[0,21,false,false]},{"code":101,"indent":0,"parameters":["Monster",6,1,2]},{"code":401,"indent":0,"parameters":["No matter what you do...The Will of the Arbiter..."]},{"code":401,"indent":0,"parameters":["must come to pass..."]},{"code":132,"indent":0,"parameters":[{"name":"Gyro-Battle001","volume":100,"pitch":100,"pan":0}]},{"code":224,"indent":0,"parameters":[[0,0,85,170],60,true]},{"code":224,"indent":0,"parameters":[[0,0,85,170],60,true]},{"code":314,"indent":0,"parameters":[0,0]},{"code":205,"indent":0,"parameters":[0,{"list":[{"code":42,"indent":null,"parameters":[200]},{"code":15,"indent":null,"parameters":[2]},{"code":42,"indent":null,"parameters":[170]},{"code":15,"indent":null,"parameters":[2]},{"code":42,"indent":null,"parameters":[140]},{"code":15,"indent":null,"parameters":[2]},{"code":42,"indent":null,"parameters":[110]},{"code":15,"indent":null,"parameters":[2]},{"code":42,"indent":null,"parameters":[69]},{"code":15,"indent":null,"parameters":[2]},{"code":42,"indent":null,"parameters":[30]},{"code":15,"indent":null,"parameters":[2]},{"code":42,"indent":null,"parameters":[0]},{"code":15,"indent":null,"parameters":[2]},{"code":0,"indent":null,"parameters":[]}],"repeat":false,"skippable":false,"wait":true}]},{"code":505,"indent":0,"parameters":[{"code":42,"indent":null,"parameters":[200]}]},{"code":505,"indent":0,"parameters":[{"code":15,"indent":null,"parameters":[2]}]},{"code":505,"indent":0,"parameters":[{"code":42,"indent":null,"parameters":[170]}]},{"code":505,"indent":0,"parameters":[{"code":15,"indent":null,"parameters":[2]}]},{"code":505,"indent":0,"parameters":[{"code":42,"indent":null,"parameters":[140]}]},{"code":505,"indent":0,"parameters":[{"code":15,"indent":null,"parameters":[2]}]},{"code":505,"indent":0,"parameters":[{"code":42,"indent":null,"parameters":[110]}]},{"code":505,"indent":0,"parameters":[{"code":15,"indent":null,"parameters":[2]}]},{"code":505,"indent":0,"parameters":[{"code":42,"indent":null,"parameters":[69]}]},{"code":505,"indent":0,"parameters":[{"code":15,"indent":null,"parameters":[2]}]},{"code":505,"indent":0,"parameters":[{"code":42,"indent":null,"parameters":[30]}]},{"code":505,"indent":0,"parameters":[{"code":15,"indent":null,"parameters":[2]}]},{"code":505,"indent":0,"parameters":[{"code":42,"indent":null,"parameters":[0]}]},{"code":505,"indent":0,"parameters":[{"code":15,"indent":null,"parameters":[2]}]},{"code":121,"indent":0,"parameters":[38,38,0]},{"code":0,"indent":0,"parameters":[]}],"moveFrequency":3,"moveRoute":{"list":[{"code":0,"parameters":[]}],"repeat":true,"skippable":false,"wait":false},"moveSpeed":3,"moveType":0,"priorityType":1,"stepAnime":true,"through":false,"trigger":0,"walkAnime":true},{"conditions":{"actorId":1,"actorValid":false,"itemId":1,"itemValid":false,"selfSwitchCh":"A","selfSwitchValid":false,"switch1Id":38,"switch1Valid":true,"switch2Id":1,"switch2Valid":false,"variableId":1,"variableValid":false,"variableValue":0},"directionFix":false,"image":{"tileId":845,"characterName":"","characterIndex":0,"direction":2,"pattern":0},"list":[{"code":221,"indent":0,"parameters":[]},{"code":205,"indent":0,"parameters":[0,{"list":[{"code":42,"parameters":[255],"indent":null},{"code":0}],"repeat":false,"skippable":false,"wait":true}]},{"code":505,"indent":0,"parameters":[{"code":42,"parameters":[255],"indent":null}]},{"code":216,"indent":0,"parameters":[1]},{"code":205,"indent":0,"parameters":[13,{"list":[{"code":38,"indent":null},{"code":40,"indent":null},{"code":19,"indent":null},{"code":0}],"repeat":false,"skippable":false,"wait":true}]},{"code":505,"indent":0,"parameters":[{"code":38,"indent":null}]},{"code":505,"indent":0,"parameters":[{"code":40,"indent":null}]},{"code":505,"indent":0,"parameters":[{"code":19,"indent":null}]},{"code":205,"indent":0,"parameters":[14,{"list":[{"code":38,"indent":null},{"code":40,"indent":null},{"code":19,"indent":null},{"code":0}],"repeat":false,"skippable":false,"wait":true}]},{"code":505,"indent":0,"parameters":[{"code":38,"indent":null}]},{"code":505,"indent":0,"parameters":[{"code":40,"indent":null}]},{"code":505,"indent":0,"parameters":[{"code":19,"indent":null}]},{"code":205,"indent":0,"parameters":[15,{"list":[{"code":38,"indent":null},{"code":40,"indent":null},{"code":19,"indent":null},{"code":0}],"repeat":false,"skippable":false,"wait":true}]},{"code":505,"indent":0,"parameters":[{"code":38,"indent":null}]},{"code":505,"indent":0,"parameters":[{"code":40,"indent":null}]},{"code":505,"indent":0,"parameters":[{"code":19,"indent":null}]},{"code":222,"indent":0,"parameters":[]},{"code":212,"indent":0,"parameters":[0,120,false]},{"code":250,"indent":0,"parameters":[{"name":"Ice5","volume":90,"pitch":100,"pan":0}]},{"code":213,"indent":0,"parameters":[15,8,true]},{"code":101,"indent":0,"parameters":["Susanoo",2,0,2]},{"code":401,"indent":0,"parameters":["\\m[Susanoo]Asag..."]},{"code":213,"indent":0,"parameters":[14,2,true]},{"code":101,"indent":0,"parameters":["Nalia",7,0,2]},{"code":401,"indent":0,"parameters":["\\m[Nalia]It left behind a scroll."]},{"code":213,"indent":0,"parameters":[-1,2,true]},{"code":101,"indent":0,"parameters":["Senisa",2,0,2]},{"code":401,"indent":0,"parameters":["\\m[Senisa]It has something written on it..."]},{"code":401,"indent":0,"parameters":["\\fiTo the ones who find this, look upon my world"]},{"code":401,"indent":0,"parameters":["through my eyes...\\fi"]},{"code":212,"indent":0,"parameters":[0,120,false]},{"code":250,"indent":0,"parameters":[{"name":"Ice5","volume":90,"pitch":100,"pan":0}]},{"code":230,"indent":0,"parameters":[60]},{"code":213,"indent":0,"parameters":[-1,1,false]},{"code":213,"indent":0,"parameters":[13,1,false]},{"code":213,"indent":0,"parameters":[14,1,false]},{"code":213,"indent":0,"parameters":[15,1,false]},{"code":224,"indent":0,"parameters":[[255,255,255,170],60,false]},{"code":221,"indent":0,"parameters":[]},{"code":122,"indent":0,"parameters":[7,7,0,3,7,0,0]},{"code":122,"indent":0,"parameters":[8,8,0,3,5,-1,0]},{"code":122,"indent":0,"parameters":[9,9,0,3,5,-1,1]},{"code":211,"indent":0,"parameters":[0]},{"code":201,"indent":0,"parameters":[0,72,11,18,0,0]},{"code":121,"indent":0,"parameters":[39,39,0]},{"code":123,"indent":0,"parameters":["A",0]},{"code":223,"indent":0,"parameters":[[34,-34,-68,170],60,true]},{"code":235,"indent":0,"parameters":[1]},{"code":222,"indent":0,"parameters":[]},{"code":0,"indent":0,"parameters":[]}],"moveFrequency":3,"moveRoute":{"list":[{"code":4,"indent":null},{"code":0,"parameters":[]}],"repeat":false,"skippable":false,"wait":false},"moveSpeed":3,"moveType":0,"priorityType":2,"stepAnime":false,"through":false,"trigger":3,"walkAnime":true},{"conditions":{"actorId":1,"actorValid":false,"itemId":1,"itemValid":false,"selfSwitchCh":"A","selfSwitchValid":true,"switch1Id":1,"switch1Valid":false,"switch2Id":1,"switch2Valid":false,"variableId":1,"variableValid":false,"variableValue":0},"directionFix":false,"image":{"tileId":845,"characterName":"","characterIndex":0,"direction":2,"pattern":0},"list":[{"code":231,"indent":0,"parameters":[1,"MV Dark Cloud Fog_zpslijwklop",0,0,0,0,300,300,145,0]},{"code":212,"indent":0,"parameters":[0,120,false]},{"code":250,"indent":0,"parameters":[{"name":"Ice5","volume":90,"pitch":100,"pan":0}]},{"code":205,"indent":0,"parameters":[13,{"list":[{"code":38,"indent":null},{"code":40,"indent":null},{"code":19,"indent":null},{"code":0}],"repeat":false,"skippable":false,"wait":true}]},{"code":505,"indent":0,"parameters":[{"code":38,"indent":null}]},{"code":505,"indent":0,"parameters":[{"code":40,"indent":null}]},{"code":505,"indent":0,"parameters":[{"code":19,"indent":null}]},{"code":205,"indent":0,"parameters":[14,{"list":[{"code":38,"indent":null},{"code":40,"indent":null},{"code":19,"indent":null},{"code":0}],"repeat":false,"skippable":false,"wait":true}]},{"code":505,"indent":0,"parameters":[{"code":38,"indent":null}]},{"code":505,"indent":0,"parameters":[{"code":40,"indent":null}]},{"code":505,"indent":0,"parameters":[{"code":19,"indent":null}]},{"code":205,"indent":0,"parameters":[15,{"list":[{"code":38,"indent":null},{"code":40,"indent":null},{"code":19,"indent":null},{"code":0}],"repeat":false,"skippable":false,"wait":true}]},{"code":505,"indent":0,"parameters":[{"code":38,"indent":null}]},{"code":505,"indent":0,"parameters":[{"code":40,"indent":null}]},{"code":505,"indent":0,"parameters":[{"code":19,"indent":null}]},{"code":101,"indent":0,"parameters":["Senisa",5,0,2]},{"code":401,"indent":0,"parameters":["\\m[Senisa]...What...was that?"]},{"code":101,"indent":0,"parameters":["Kevar",2,0,2]},{"code":401,"indent":0,"parameters":["\\m[Kevar]Better question was who. "]},{"code":101,"indent":0,"parameters":["Kevar",5,0,2]},{"code":401,"indent":0,"parameters":["\\m[Kevar]I never met a person so..."]},{"code":205,"indent":0,"parameters":[-1,{"list":[{"code":17,"indent":null},{"code":0}],"repeat":false,"skippable":false,"wait":true}]},{"code":505,"indent":0,"parameters":[{"code":17,"indent":null}]},{"code":101,"indent":0,"parameters":["Senisa",3,0,2]},{"code":401,"indent":0,"parameters":["\\m[Senisa]Doll-like?"]},{"code":205,"indent":0,"parameters":[13,{"list":[{"code":18,"indent":null},{"code":0}],"repeat":false,"skippable":false,"wait":true}]},{"code":505,"indent":0,"parameters":[{"code":18,"indent":null}]},{"code":101,"indent":0,"parameters":["Kevar",5,0,2]},{"code":401,"indent":0,"parameters":["\\m[Kevar]Very doll-like. Who talks like that?"]},{"code":213,"indent":0,"parameters":[15,8,true]},{"code":101,"indent":0,"parameters":["Susanoo",2,0,2]},{"code":401,"indent":0,"parameters":["\\m[Susanoo]This is...not good. Not good at all."]},{"code":401,"indent":0,"parameters":["That can't be who I think it is..."]},{"code":205,"indent":0,"parameters":[-1,{"list":[{"code":18,"indent":null},{"code":0}],"repeat":false,"skippable":false,"wait":true}]},{"code":505,"indent":0,"parameters":[{"code":18,"indent":null}]},{"code":205,"indent":0,"parameters":[14,{"list":[{"code":18,"indent":null},{"code":0}],"repeat":false,"skippable":false,"wait":true}]},{"code":505,"indent":0,"parameters":[{"code":18,"indent":null}]},{"code":101,"indent":0,"parameters":["Kevar",1,0,2]},{"code":401,"indent":0,"parameters":["\\m[Kevar]Susanoo...?"]},{"code":213,"indent":0,"parameters":[15,7,true]},{"code":101,"indent":0,"parameters":["Susanoo",2,0,2]},{"code":401,"indent":0,"parameters":["\\m[Susanoo]Can you please move aside? I need to"]},{"code":401,"indent":0,"parameters":["purify the Shrine."]},{"code":205,"indent":0,"parameters":[-1,{"list":[{"code":1,"indent":null},{"code":19,"indent":null},{"code":0}],"repeat":false,"skippable":false,"wait":true}]},{"code":505,"indent":0,"parameters":[{"code":1,"indent":null}]},{"code":505,"indent":0,"parameters":[{"code":19,"indent":null}]},{"code":205,"indent":0,"parameters":[15,{"list":[{"code":2,"indent":null},{"code":19,"indent":null},{"code":0}],"repeat":false,"skippable":false,"wait":true}]},{"code":505,"indent":0,"parameters":[{"code":2,"indent":null}]},{"code":505,"indent":0,"parameters":[{"code":19,"indent":null}]},{"code":205,"indent":0,"parameters":[13,{"list":[{"code":19,"indent":null},{"code":0}],"repeat":false,"skippable":false,"wait":true}]},{"code":505,"indent":0,"parameters":[{"code":19,"indent":null}]},{"code":205,"indent":0,"parameters":[14,{"list":[{"code":19,"indent":null},{"code":0}],"repeat":false,"skippable":false,"wait":true}]},{"code":505,"indent":0,"parameters":[{"code":19,"indent":null}]},{"code":101,"indent":0,"parameters":["Susanoo",2,0,2]},{"code":401,"indent":0,"parameters":["\\m[Susanoo]..."]},{"code":212,"indent":0,"parameters":[15,119,true]},{"code":101,"indent":0,"parameters":["Susanoo",2,0,2]},{"code":401,"indent":0,"parameters":["\\m[Susanoo]\\fiMy name is Susanoo. The Earthbound Mystic"]},{"code":401,"indent":0,"parameters":["of Terra. My job is to be the first pillar of Assyria."]},{"code":213,"indent":0,"parameters":[15,6,true]},{"code":212,"indent":0,"parameters":[15,119,true]},{"code":101,"indent":0,"parameters":["Susanoo",2,0,2]},{"code":401,"indent":0,"parameters":["\\m[Susanoo]\\fiTo provide stability and care to"]},{"code":401,"indent":0,"parameters":["the ones crafted in the images of the gods. "]},{"code":212,"indent":0,"parameters":[15,119,true]},{"code":101,"indent":0,"parameters":["Susanoo",2,0,2]},{"code":401,"indent":0,"parameters":["\\m[Susanoo]\\fiI pray that the the fog of ill will"]},{"code":401,"indent":0,"parameters":["be lifted and the strength of the shrine can once"]},{"code":401,"indent":0,"parameters":["again be known."]},{"code":205,"indent":0,"parameters":[15,{"list":[{"code":14,"parameters":[0,0],"indent":null},{"code":0}],"repeat":false,"skippable":false,"wait":true}]},{"code":505,"indent":0,"parameters":[{"code":14,"parameters":[0,0],"indent":null}]},{"code":212,"indent":0,"parameters":[15,120,true]},{"code":224,"indent":0,"parameters":[[255,255,255,170],60,true]},{"code":224,"indent":0,"parameters":[[255,255,255,170],60,true]},{"code":250,"indent":0,"parameters":[{"name":"Heal4","volume":90,"pitch":100,"pan":0}]},{"code":224,"indent":0,"parameters":[[255,255,255,170],60,true]},{"code":224,"indent":0,"parameters":[[255,255,255,170],60,true]},{"code":231,"indent":0,"parameters":[1,"MV Dark Cloud Fog_zpslijwklop",0,0,0,0,300,300,110,0]},{"code":231,"indent":0,"parameters":[1,"MV Dark Cloud Fog_zpslijwklop",0,0,0,0,300,300,90,0]},{"code":231,"indent":0,"parameters":[1,"MV Dark Cloud Fog_zpslijwklop",0,0,0,0,300,300,45,0]},{"code":231,"indent":0,"parameters":[1,"MV Dark Cloud Fog_zpslijwklop",0,0,0,0,300,300,10,0]},{"code":235,"indent":0,"parameters":[1]},{"code":241,"indent":0,"parameters":[{"name":"Church","volume":90,"pitch":100,"pan":0}]},{"code":213,"indent":0,"parameters":[-1,1,false]},{"code":213,"indent":0,"parameters":[13,1,false]},{"code":213,"indent":0,"parameters":[14,1,false]},{"code":101,"indent":0,"parameters":["Nalia",2,0,2]},{"code":401,"indent":0,"parameters":["\\m[Nalia]That's so amazing!"]},{"code":213,"indent":0,"parameters":[15,3,true]},{"code":101,"indent":0,"parameters":["Susanoo",1,0,2]},{"code":401,"indent":0,"parameters":["\\m[Susanoo]I feel so much lighter."]},{"code":101,"indent":0,"parameters":["Senisa",3,0,2]},{"code":401,"indent":0,"parameters":["\\m[Senisa]That's great to hear...but you started"]},{"code":401,"indent":0,"parameters":["mentioning something."]},{"code":213,"indent":0,"parameters":[15,8,true]},{"code":205,"indent":0,"parameters":[15,{"list":[{"code":16,"indent":null},{"code":0}],"repeat":false,"skippable":false,"wait":true}]},{"code":505,"indent":0,"parameters":[{"code":16,"indent":null}]},{"code":101,"indent":0,"parameters":["Susanoo",2,0,2]},{"code":401,"indent":0,"parameters":["\\m[Susanoo]We will need to speak with Charmean. Let's"]},{"code":401,"indent":0,"parameters":["head back to \\C[1]Dormino\\C[0]. Bring that scroll with"]},{"code":401,"indent":0,"parameters":["you as well."]},{"code":205,"indent":0,"parameters":[15,{"list":[{"code":17,"indent":null},{"code":13,"indent":null},{"code":0}],"repeat":false,"skippable":false,"wait":true}]},{"code":505,"indent":0,"parameters":[{"code":17,"indent":null}]},{"code":505,"indent":0,"parameters":[{"code":13,"indent":null}]},{"code":205,"indent":0,"parameters":[-1,{"list":[{"code":12,"indent":null},{"code":0}],"repeat":false,"skippable":false,"wait":true}]},{"code":505,"indent":0,"parameters":[{"code":12,"indent":null}]},{"code":249,"indent":0,"parameters":[{"name":"Fanfare2","volume":90,"pitch":100,"pan":0}]},{"code":230,"indent":0,"parameters":[160]},{"code":126,"indent":0,"parameters":[199,0,0,1]},{"code":101,"indent":0,"parameters":["",0,1,2]},{"code":401,"indent":0,"parameters":["You recieved the \\ii[199]! "]},{"code":121,"indent":0,"parameters":[43,43,0]},{"code":0,"indent":0,"parameters":[]}],"moveFrequency":3,"moveRoute":{"list":[{"code":0,"parameters":[]}],"repeat":true,"skippable":false,"wait":false},"moveSpeed":3,"moveType":0,"priorityType":2,"stepAnime":false,"through":false,"trigger":3,"walkAnime":true},{"conditions":{"actorId":1,"actorValid":false,"itemId":1,"itemValid":false,"selfSwitchCh":"A","selfSwitchValid":false,"switch1Id":43,"switch1Valid":true,"switch2Id":1,"switch2Valid":false,"variableId":1,"variableValid":false,"variableValue":0},"directionFix":false,"image":{"characterIndex":0,"characterName":"","direction":2,"pattern":0,"tileId":0},"list":[{"code":101,"indent":0,"parameters":["Susanoo",0,0,2]},{"code":401,"indent":0,"parameters":["\\m[Susanoo]Let's get out of here."]},{"code":221,"indent":0,"parameters":[]},{"code":216,"indent":0,"parameters":[0]},{"code":205,"indent":0,"parameters":[13,{"list":[{"code":37,"indent":null},{"code":39,"indent":null},{"code":0}],"repeat":false,"skippable":false,"wait":true}]},{"code":505,"indent":0,"parameters":[{"code":37,"indent":null}]},{"code":505,"indent":0,"parameters":[{"code":39,"indent":null}]},{"code":205,"indent":0,"parameters":[14,{"list":[{"code":37,"indent":null},{"code":39,"indent":null},{"code":0}],"repeat":false,"skippable":false,"wait":true}]},{"code":505,"indent":0,"parameters":[{"code":37,"indent":null}]},{"code":505,"indent":0,"parameters":[{"code":39,"indent":null}]},{"code":205,"indent":0,"parameters":[15,{"list":[{"code":37,"indent":null},{"code":39,"indent":null},{"code":0}],"repeat":false,"skippable":false,"wait":true}]},{"code":505,"indent":0,"parameters":[{"code":37,"indent":null}]},{"code":505,"indent":0,"parameters":[{"code":39,"indent":null}]},{"code":222,"indent":0,"parameters":[]},{"code":356,"indent":0,"parameters":["Quest 6 Complete Objective 5"]},{"code":356,"indent":0,"parameters":["Quest 6 Change Description Entry To 6"]},{"code":356,"indent":0,"parameters":["Quest Set Completed 6"]},{"code":356,"indent":0,"parameters":["Quest Add 7"]},{"code":356,"indent":0,"parameters":["ShowActiveQuestWindow"]},{"code":101,"indent":0,"parameters":["",0,0,2]},{"code":401,"indent":0,"parameters":["The ledger has been updated."]},{"code":123,"indent":0,"parameters":["B",0]},{"code":0,"indent":0,"parameters":[]}],"moveFrequency":3,"moveRoute":{"list":[{"code":0,"parameters":[]}],"repeat":true,"skippable":false,"wait":false},"moveSpeed":3,"moveType":0,"priorityType":0,"stepAnime":false,"through":false,"trigger":3,"walkAnime":true},{"conditions":{"actorId":1,"actorValid":false,"itemId":1,"itemValid":false,"selfSwitchCh":"B","selfSwitchValid":true,"switch1Id":1,"switch1Valid":false,"switch2Id":1,"switch2Valid":false,"variableId":1,"variableValid":false,"variableValue":0},"directionFix":false,"image":{"characterIndex":0,"characterName":"","direction":2,"pattern":0,"tileId":0},"list":[{"code":0,"indent":0,"parameters":[]}],"moveFrequency":3,"moveRoute":{"list":[{"code":0,"parameters":[]}],"repeat":true,"skippable":false,"wait":false},"moveSpeed":3,"moveType":0,"priorityType":0,"stepAnime":false,"through":false,"trigger":0,"walkAnime":true}],"x":8,"y":4},
{"id":13,"name":"Kevar","note":"","pages":[{"conditions":{"actorId":1,"actorValid":false,"itemId":1,"itemValid":false,"selfSwitchCh":"A","selfSwitchValid":false,"switch1Id":1,"switch1Valid":false,"switch2Id":1,"switch2Valid":false,"variableId":1,"variableValid":false,"variableValue":0},"directionFix":false,"image":{"tileId":0,"characterName":"Kevar","direction":6,"pattern":1,"characterIndex":0},"list":[{"code":0,"indent":0,"parameters":[]}],"moveFrequency":5,"moveRoute":{"list":[{"code":37,"indent":null},{"code":39,"indent":null},{"code":0,"parameters":[]}],"repeat":false,"skippable":false,"wait":false},"moveSpeed":3,"moveType":3,"priorityType":1,"stepAnime":false,"through":false,"trigger":0,"walkAnime":true}],"x":7,"y":5},
{"id":14,"name":"Nalia","note":"","pages":[{"conditions":{"actorId":1,"actorValid":false,"itemId":1,"itemValid":false,"selfSwitchCh":"A","selfSwitchValid":false,"switch1Id":1,"switch1Valid":false,"switch2Id":1,"switch2Valid":false,"variableId":1,"variableValid":false,"variableValue":0},"directionFix":false,"image":{"tileId":0,"characterName":"Nalia","direction":6,"pattern":1,"characterIndex":0},"list":[{"code":0,"indent":0,"parameters":[]}],"moveFrequency":5,"moveRoute":{"list":[{"code":37,"indent":null},{"code":39,"indent":null},{"code":0,"parameters":[]}],"repeat":false,"skippable":false,"wait":false},"moveSpeed":3,"moveType":3,"priorityType":1,"stepAnime":false,"through":false,"trigger":0,"walkAnime":true}],"x":6,"y":5},
{"id":15,"name":"Susanoo","note":"","pages":[{"conditions":{"actorId":1,"actorValid":false,"itemId":1,"itemValid":false,"selfSwitchCh":"A","selfSwitchValid":false,"switch1Id":1,"switch1Valid":false,"switch2Id":1,"switch2Valid":false,"variableId":1,"variableValid":false,"variableValue":0},"directionFix":false,"image":{"tileId":0,"characterName":"Earthbound Mystics","direction":4,"pattern":1,"characterIndex":1},"list":[{"code":0,"indent":0,"parameters":[]}],"moveFrequency":5,"moveRoute":{"list":[{"code":37,"indent":null},{"code":39,"indent":null},{"code":0,"parameters":[]}],"repeat":false,"skippable":false,"wait":false},"moveSpeed":3,"moveType":3,"priorityType":1,"stepAnime":false,"through":false,"trigger":0,"walkAnime":true}],"x":9,"y":5}
]
}