{
"autoplayBgm":true,"autoplayBgs":false,"battleback1Name":"Grassland","battleback2Name":"Cliff","bgm":{"name":"Gyro-Dungeon003","pan":0,"pitch":100,"volume":90},"bgs":{"name":"","pan":0,"pitch":100,"volume":90},"disableDashing":false,"displayName":"Land Bridge","encounterList":[{"regionSet":[],"troopId":26,"weight":4},{"regionSet":[],"troopId":14,"weight":3},{"regionSet":[],"troopId":24,"weight":5},{"regionSet":[],"troopId":15,"weight":3}],"encounterStep":50,"height":55,"note":"<General Location: Ferrusa Pass>","parallaxLoopX":false,"parallaxLoopY":false,"parallaxName":"","parallaxShow":true,"parallaxSx":0,"parallaxSy":0,"scrollType":0,"specifyBattleback":true,"tilesetId":9,"width":27,
"data":[2912,2912,2912,2912,2916,2940,2940,2940,2940,2950,1596,1612,2848,3280,2848,1581,1582,1582,1582,1582,1582,1595,2952,2920,2912,2912,2912,2912,2916,2940,2940,2950,2862,1596,1611,1582,1582,1583,1620,2848,3280,2860,1584,1585,1585,1585,1609,1585,1581,1595,2952,2940,2920,2912,2916,2950,2862,1596,1611,1582,1583,1619,1585,1585,1586,1628,2860,3265,3284,1592,1593,1593,1602,1585,1585,1584,1581,1595,2862,2952,2940,2936,2858,1596,1612,1619,1585,1586,1619,1585,1600,1594,3291,3270,3249,3250,3284,2859,2861,1570,1585,1585,1584,1584,1581,1595,2850,2836,2936,2848,1575,1620,1619,1618,1586,1619,1585,1568,2955,2957,3288,3276,3276,3286,1580,1603,1578,1590,1590,1584,1584,1584,1573,2832,2816,2936,2848,1575,1620,1619,1585,1586,1590,1590,1576,1577,1577,1579,2862,1580,1603,1578,1619,1586,1598,1598,1589,1584,1584,1573,2834,2844,2936,2848,1575,1620,1590,1590,1591,1598,1598,1584,1618,1585,1568,2954,1570,1619,1586,1590,1591,1536,1536,1597,1589,1584,1573,2860,2946,2936,2848,1575,1591,1598,1598,1599,1536,1536,1589,1590,1590,1568,2956,1570,1590,1591,1598,1599,1536,1536,1536,1597,1589,1581,1595,2928,2936,2860,1575,1599,1536,1536,1536,1536,1536,1597,1598,1598,1568,2858,1570,1598,1599,1536,1536,1536,1536,1536,1536,1597,1584,1573,2952,2936,1596,1612,1536,1536,1536,1536,1536,1536,1536,1536,1536,1568,2848,1570,1536,1536,1536,1536,1536,1536,1536,1536,1536,1584,1573,2850,2950,1575,1620,1536,1536,1536,1536,1536,1536,1536,1536,1536,1571,2848,1570,1536,1536,1536,1536,1536,1536,1536,1536,1536,1584,1573,2832,2852,1575,1620,1536,1536,1536,1536,1536,1536,1536,1536,1568,2851,2855,1570,1536,1536,1536,1536,1536,1536,1536,1536,1536,1589,1573,2832,2840,1575,1620,1536,1536,1536,1536,1536,1536,1536,1536,1568,2848,1580,1604,1536,1536,1536,1536,1536,1536,1536,1536,1536,1597,1573,2832,2840,1575,1591,1536,1536,1536,1536,1536,1536,1536,1536,2850,2842,1570,1620,1536,1536,1536,1536,1536,1536,1536,1536,1536,1536,1587,2856,2854,1575,1599,1536,1536,1536,1536,1536,1536,1536,1568,2834,2854,1570,1591,1536,1536,1536,1536,1536,1536,1536,1536,1536,1573,2858,2946,2948,1575,1536,1536,1536,1536,1536,1536,1536,1536,1571,2848,1580,1604,1599,1536,1536,1536,1536,1536,1536,1536,1536,1536,1573,2848,2928,2936,1588,1536,1536,1536,1536,1536,1536,1536,1568,2954,2848,1570,1620,1536,1536,1536,1536,1536,1536,1536,1536,1536,1536,1573,2848,2928,2936,2862,1575,1536,1536,1536,1536,1536,1536,1568,2956,2848,1570,1591,1536,1536,1536,1571,1570,1536,1536,1536,1536,1536,1587,2848,2928,2914,2948,1575,1536,1536,1536,1536,1536,1536,1571,2851,2855,1570,1599,1536,1536,1576,1577,1604,1536,1536,1536,1536,1573,2851,2855,2928,2912,2936,1575,1536,1536,1536,1536,1536,1568,2850,2842,1580,1604,1536,1536,1536,1584,1585,1586,1536,1536,1536,1536,1587,2848,2946,2913,2912,2936,1575,1536,1536,1536,1536,1536,1568,2832,2840,1570,1620,1536,1536,1536,1589,1590,1591,1536,1536,1536,1573,2851,2855,2928,2912,2916,2950,1575,1536,1536,1536,1536,1536,1568,2832,2840,1570,1591,1536,1536,1536,1597,1598,1599,1536,1536,1536,1573,2848,2946,2913,2912,2936,2862,1575,1536,1536,1536,1536,1536,1568,2856,2854,1572,1599,1536,1536,1536,1536,1536,1536,1536,1536,1536,1573,2848,2928,2912,2912,2950,1596,1612,1536,1536,1536,1536,1536,1576,1579,2955,2957,1572,1536,1536,1536,1536,1536,1536,1536,1536,1536,1573,2860,2952,2920,2912,2852,1575,1620,1536,1536,1536,1536,1536,1584,1568,2859,2838,2852,1570,1536,1536,1536,1536,1536,1536,1536,1536,1581,1595,2858,2928,2912,2840,1575,1620,1536,1536,1536,1536,1536,1589,1576,1579,2856,2841,1570,1536,1536,1536,1536,1536,1536,1536,1536,1584,1573,2848,2952,2920,2840,1575,1620,1536,1536,1536,1536,1536,1597,1584,1576,1579,2848,1572,1536,1536,1536,1536,1536,1536,1536,1536,1584,1573,2833,2852,2928,2840,1575,1591,1536,1536,1536,1536,1536,1536,1589,1584,1568,2857,2853,1572,1536,1536,1536,1536,1536,1536,1536,1584,1573,2856,2841,2952,2854,1575,1599,1536,1536,1536,1536,1536,1536,1597,1589,1576,1579,2857,2853,1570,1536,1536,1536,1536,1536,1536,1589,1581,1595,2833,2836,2948,1575,1536,1536,1536,1536,1536,1536,1536,1536,1597,1584,1568,2954,2848,1570,1536,1536,1536,1536,1536,1536,1597,1584,1573,2832,2816,2936,1588,1536,1536,1536,1536,1536,1536,1536,1536,1536,1589,1568,2956,2848,1570,1536,1536,1536,1536,1536,1536,1536,1584,1573,2832,2816,2936,2858,1575,1536,1536,1536,1536,1536,1536,1536,1536,1597,1568,2850,2842,1570,1536,1536,1536,1536,1536,1536,1536,1584,1573,2856,2824,2936,2848,1575,1536,1536,1536,1536,1536,1536,1536,1536,1536,1568,2832,2840,1570,1536,1536,1536,1536,1536,1536,1536,1589,1581,1595,2832,2936,2860,1588,1536,1536,1536,1536,1536,1536,1536,1536,1536,1568,2856,2841,1570,1536,1536,1536,1536,1536,1536,1536,1597,1584,1573,2832,2914,2948,2858,1575,1536,1536,1536,1536,1536,1536,1536,1536,1576,1579,2848,1570,1536,1536,1536,1536,1536,1536,1536,1536,1584,1573,2856,2912,2936,2848,1575,1536,1536,1536,1536,1536,1536,1536,1536,1584,1568,2848,1570,1536,1536,1536,1536,1536,1536,1536,1536,1584,1573,2946,2912,2936,2848,1575,1536,1536,1536,1536,1536,1536,1536,1536,1589,1568,2848,1572,1536,1536,1536,1536,1536,1536,1536,1536,1589,1573,2928,2916,2950,2860,1575,1536,1536,1536,1568,1570,1536,1536,1536,1597,1568,2833,2852,1570,1536,1536,1536,1536,1536,1536,1536,1597,1573,2928,2936,2858,1596,1612,1536,1536,1536,1576,1604,1536,1536,1536,1536,1568,2832,2840,1570,1536,1536,1536,1536,1536,1536,1536,1536,1573,2952,2936,2848,1575,1620,1536,1536,1536,1584,1586,1536,1536,1536,1536,1568,2832,2840,1572,1536,1536,1536,1536,1536,1536,1536,1536,1573,2850,2950,2848,1575,1620,1536,1536,1536,1589,1591,1536,1536,1536,1536,1568,2856,2826,2852,1570,1536,1536,1536,1536,1536,1536,1536,1573,2832,2837,2855,1575,1620,1536,1536,1536,1597,1599,1536,1536,1536,1536,1576,1579,2856,2841,1570,1536,1536,1536,1536,1536,1536,1536,1573,2832,2840,1596,1612,1591,1536,1536,1536,1536,1536,1536,1536,1536,1536,1584,1568,2954,2860,1570,1536,1536,1536,1536,1536,1536,1536,1573,2832,2854,1575,1620,1599,1536,1536,1536,1536,1536,1536,1536,1536,1536,1589,1568,2953,2949,1570,1536,1536,1536,1536,1536,1536,1536,1573,2832,2948,1575,1620,1536,1536,1536,1536,1536,1536,1536,1536,1536,1536,1597,1568,2858,2944,1570,1536,1536,1536,1536,1536,1536,1536,1587,2856,2936,1575,1620,1536,1536,1536,1536,1536,1536,1536,1536,1536,1536,1536,1568,2848,2956,1570,1536,1536,1536,1536,1536,1536,1573,2858,2946,2936,1575,1591,1536,1536,1536,1536,1536,1536,1536,1536,1536,1536,1536,1568,2835,2861,1570,1536,1536,1536,1536,1536,1536,1573,2848,2928,2936,1575,1599,1536,1536,1536,1536,1536,1536,1536,1536,1536,1536,1536,1571,2860,1580,1604,1536,1536,1536,1536,1536,1536,1573,2848,2928,2950,1575,1536,1536,1536,1536,1536,1536,1536,1536,1536,1536,1536,1571,2862,3290,1570,1620,1536,1536,1536,1536,1536,1536,1587,2848,2928,2852,1575,1536,1536,1536,1536,1536,1536,1536,1536,1536,1536,1571,2862,3283,3287,1570,1591,1536,1536,1536,1536,1536,1573,2851,2855,2928,2840,1575,1536,1536,1536,1536,1536,1536,1536,1536,1536,1571,2862,3282,3274,2958,1572,1599,1536,1536,1536,1536,1536,1587,2860,2946,2913,2840,1588,1536,1536,1536,1536,1536,1536,1536,1571,2858,3291,3270,3249,3254,3293,2958,2858,1570,1536,1536,1536,1587,2862,2946,2913,2912,2846,2849,2853,1588,1536,1536,1536,1536,1568,2850,2819,2852,3288,3260,3286,2850,2837,2847,2853,1536,1536,1587,2862,2946,2913,2912,2912,2932,2948,2857,2861,1588,1536,1536,1536,2850,2817,2820,2846,2853,3280,2851,2845,2841,1587,2857,2861,2946,2932,2932,2913,2912,2912,2912,2912,2914,2932,2932,2932,2932,2948,2850,2817,2816,2840,1575,2848,3280,2848,1573,2833,2852,2946,2932,2913,2912,2912,2912,2912,2912,2912,3008,3008,3032,0,0,0,0,0,0,0,0,0,0,0,0,0,0,0,0,0,0,0,0,0,3048,3016,3008,3008,3012,3046,0,0,0,0,0,0,0,0,0,0,0,0,0,0,0,0,0,0,0,0,0,0,3048,3036,3008,3032,0,0,0,0,0,0,0,0,0,0,0,0,0,0,0,0,0,0,0,0,0,0,0,0,0,3012,3046,0,0,0,0,0,0,0,0,0,0,0,0,0,0,0,0,0,0,0,0,0,0,0,0,0,3046,0,0,0,0,0,0,0,0,0,0,0,0,0,0,0,0,0,0,0,0,0,0,0,0,0,0,0,0,0,0,0,0,0,0,0,0,0,0,0,0,0,0,0,0,0,0,0,0,0,0,0,0,0,0,0,0,0,0,0,0,0,0,0,0,0,0,0,0,0,0,0,0,0,0,0,0,0,0,0,0,0,0,0,0,0,0,0,0,0,0,0,0,0,0,0,0,0,0,0,0,0,0,0,0,0,0,0,0,0,0,0,0,0,0,0,0,0,0,0,0,3482,0,0,0,0,0,0,0,0,0,0,0,0,0,0,0,0,0,0,0,0,0,0,0,0,0,0,3472,0,0,0,0,0,0,0,0,0,0,0,0,0,0,0,0,0,0,0,0,0,0,0,0,0,3474,3466,0,0,0,0,0,0,0,0,0,0,0,0,0,0,0,0,0,0,0,0,0,0,0,0,0,3458,3478,0,0,0,0,0,0,0,0,0,0,0,0,0,0,0,0,0,0,0,0,0,0,0,0,0,3484,0,0,0,0,0,0,0,0,0,0,0,0,0,0,0,0,0,0,0,0,0,0,0,0,0,0,0,0,0,0,0,0,0,0,0,0,0,0,0,0,0,0,0,0,0,0,0,0,0,0,0,0,0,0,0,0,0,0,0,0,0,0,0,0,0,0,0,0,0,0,0,0,0,0,0,0,0,0,0,0,0,0,0,0,0,0,0,0,0,0,0,0,0,0,0,0,0,0,0,0,0,0,0,0,0,0,3482,0,0,0,0,0,0,0,0,0,0,0,0,0,0,0,0,0,0,0,0,0,0,0,0,0,0,3472,0,0,0,0,0,0,0,0,0,0,0,0,0,0,0,3044,0,0,0,0,0,0,0,0,0,3475,3479,0,0,0,0,0,0,0,0,0,0,0,0,0,0,3042,3032,0,0,0,0,0,0,0,0,0,3472,0,0,0,0,0,0,0,0,0,0,0,0,0,0,0,3024,3032,0,0,0,0,0,0,0,0,0,3484,0,0,0,0,0,0,0,0,0,0,0,0,0,0,0,3024,3046,0,0,0,0,0,0,0,0,0,0,0,0,0,0,0,0,0,0,0,0,0,0,0,0,3042,3009,0,0,0,0,0,0,0,0,0,0,0,0,0,0,0,0,0,0,0,0,0,0,0,0,0,3024,3008,0,0,0,0,0,0,0,0,0,0,0,0,0,0,0,0,0,0,0,0,0,0,0,0,0,3048,3016,0,0,0,0,0,0,0,0,0,0,0,3482,0,0,0,0,0,0,0,0,0,0,0,0,0,0,3024,0,0,0,0,0,0,0,0,0,0,0,3481,3477,0,0,0,0,0,0,0,0,0,0,0,0,0,3048,0,0,0,0,0,0,0,0,0,0,0,0,3472,0,0,0,0,0,0,0,0,0,0,0,0,0,0,0,0,0,0,0,0,0,0,0,0,0,0,3484,0,0,0,0,0,0,0,0,0,0,0,0,0,0,0,0,0,0,0,0,0,0,0,0,0,0,0,0,0,0,0,0,0,0,0,0,0,0,0,0,0,0,0,0,0,0,0,0,0,0,0,0,0,0,0,0,0,0,0,0,0,0,0,0,0,0,0,0,0,0,0,0,0,0,0,0,0,0,0,0,0,0,0,0,0,0,0,0,0,0,0,0,0,0,0,0,0,0,0,0,0,0,0,0,0,0,0,0,0,3482,0,0,0,0,0,0,0,0,0,0,0,0,3044,0,0,0,0,0,0,0,0,0,0,0,0,0,3472,0,0,0,0,0,0,0,0,0,0,0,0,3010,3044,0,0,0,0,0,0,0,0,0,0,0,0,3484,0,0,0,0,0,0,0,0,0,0,0,0,3008,3032,0,0,0,0,0,0,0,0,0,0,0,0,0,0,0,0,0,0,0,0,0,0,0,0,0,3008,3032,0,0,0,0,0,0,0,0,0,0,0,0,0,0,0,0,0,0,0,0,0,0,0,0,0,3008,3032,0,0,0,0,0,0,0,0,0,0,0,0,0,0,0,0,0,0,0,0,0,0,0,0,0,3012,3046,0,0,0,0,0,0,0,0,0,0,0,0,0,0,0,0,0,0,0,0,0,0,0,0,0,3046,0,0,0,0,0,0,0,0,0,0,0,0,0,0,3482,0,0,0,0,0,0,0,0,0,0,0,0,0,0,0,0,0,0,0,0,0,0,0,0,0,3474,3466,0,0,0,0,0,0,0,0,0,0,0,0,0,0,0,0,0,0,0,0,0,0,0,0,0,3480,3450,3476,0,0,0,0,0,0,0,0,0,0,0,0,0,0,0,0,0,0,0,0,0,0,0,0,0,3480,3465,0,0,0,0,0,0,0,0,0,0,0,0,0,0,0,0,0,0,0,0,0,0,0,0,0,0,3484,0,0,0,0,0,0,0,0,0,0,0,0,0,0,0,0,0,0,0,0,0,0,0,0,0,0,0,0,0,0,0,0,0,0,0,0,0,0,0,0,0,0,0,0,0,0,0,0,0,0,0,0,0,0,0,0,0,0,0,0,0,0,0,0,0,0,0,0,0,0,0,0,0,0,0,0,0,0,0,3482,0,0,0,0,0,0,0,0,0,0,0,0,0,0,0,0,0,0,0,0,0,0,0,0,0,0,3484,0,0,0,0,0,0,0,0,0,0,0,0,0,0,0,0,0,0,0,0,0,0,0,0,0,0,0,0,0,0,0,0,0,0,0,0,0,0,0,0,0,0,0,0,0,0,0,0,0,0,0,0,0,0,0,0,0,0,0,0,0,0,0,0,0,0,0,0,0,0,0,0,0,0,0,0,0,0,0,0,0,0,0,0,0,0,0,0,0,0,0,0,0,0,0,0,0,0,0,0,0,0,0,0,0,0,0,0,0,0,0,0,0,0,0,0,0,0,0,0,0,0,0,0,0,0,0,0,0,0,0,0,0,0,0,0,0,0,0,0,0,0,0,0,0,0,3044,0,0,0,0,0,0,0,0,0,0,0,0,0,0,0,0,0,0,0,0,0,0,0,0,0,0,3010,3044,0,0,0,0,0,0,0,0,0,0,0,0,0,0,0,0,0,0,0,0,0,0,0,3042,3028,3008,3032,0,0,0,0,0,0,0,0,0,0,0,0,0,0,0,0,0,0,0,0,0,3042,3028,3009,3008,0,125,0,0,0,0,0,0,0,0,0,0,0,0,0,0,0,0,0,0,0,0,0,0,0,0,0,0,0,0,0,0,0,0,0,0,0,0,0,0,0,0,0,0,0,0,0,0,0,0,0,0,0,0,0,0,0,0,0,0,0,0,0,0,0,0,0,0,0,0,0,0,0,0,0,0,0,0,0,0,0,0,0,0,0,0,0,0,0,0,0,0,955,0,0,0,0,0,0,0,0,0,0,0,0,0,0,0,0,0,0,0,0,0,0,0,0,0,0,0,0,0,0,0,0,0,0,0,0,0,0,0,0,0,0,0,0,0,0,0,0,0,0,0,0,0,0,0,0,0,0,0,0,0,0,0,0,0,0,0,0,0,0,0,0,0,0,0,0,0,0,0,0,0,0,0,0,0,0,0,0,0,0,0,0,0,0,0,0,0,0,0,0,0,0,0,0,0,0,0,0,0,0,0,0,0,0,0,0,0,0,0,0,0,0,0,0,0,0,0,0,0,0,0,0,0,0,0,0,0,0,0,0,0,0,0,0,0,0,0,0,0,0,0,0,0,0,0,0,0,0,0,0,0,0,0,0,0,0,0,0,0,0,0,0,0,0,0,0,0,0,0,0,0,0,0,0,0,0,0,0,0,0,0,0,0,0,0,0,0,0,0,0,0,0,0,0,0,0,0,0,0,0,0,0,0,0,0,0,0,0,0,0,0,0,0,0,0,0,0,0,0,0,0,0,0,0,0,0,0,0,0,0,0,0,0,0,0,0,0,0,0,0,0,0,0,0,0,0,0,0,0,0,0,0,0,0,0,0,0,0,0,0,0,0,0,0,0,0,0,0,0,0,0,0,0,0,0,0,0,0,0,0,0,0,0,0,0,0,0,0,0,0,0,0,0,0,0,0,0,0,0,0,0,0,0,0,0,0,0,0,0,0,0,0,0,0,0,0,0,0,0,0,0,0,0,0,0,0,0,0,0,0,0,0,0,0,0,0,0,0,0,0,0,0,0,0,0,0,152,154,0,0,0,0,0,0,0,0,0,0,0,0,0,0,0,0,0,0,0,0,0,0,0,0,0,0,0,0,0,0,0,0,0,0,0,0,0,0,0,0,0,0,0,0,0,0,0,0,0,0,0,0,0,0,0,0,0,0,0,0,0,0,0,0,0,0,0,0,0,0,0,0,0,0,0,0,0,0,0,0,0,0,0,0,0,0,0,0,0,0,0,0,0,0,0,0,0,0,0,0,0,0,0,0,0,0,0,0,0,0,0,0,0,0,0,0,125,0,0,0,0,0,0,0,0,0,0,0,0,0,0,0,0,0,0,0,0,0,0,0,0,0,0,0,0,0,0,0,0,0,0,0,0,0,0,154,0,0,0,0,0,0,0,0,0,0,0,0,0,0,0,0,0,0,0,0,0,0,0,0,0,0,0,154,0,0,0,0,0,0,0,0,0,0,0,0,0,0,0,0,0,0,0,0,0,0,0,0,0,0,0,0,0,0,0,0,0,0,0,0,0,0,0,0,0,0,0,0,0,0,0,0,0,0,0,0,0,0,0,0,0,0,0,0,0,0,0,0,0,0,0,0,0,0,0,0,0,0,0,0,0,0,0,0,0,0,0,0,0,0,0,0,0,0,0,0,0,0,0,0,0,0,0,0,0,0,0,0,0,0,0,0,0,154,0,0,0,0,0,0,0,0,0,0,0,0,0,0,0,0,0,0,0,0,0,0,0,0,0,0,0,0,0,0,0,0,0,0,0,0,0,0,0,0,0,0,0,0,0,0,0,0,0,0,0,0,0,0,0,0,0,0,0,0,0,0,0,0,0,124,0,0,0,0,0,0,0,0,0,0,0,0,0,0,0,0,0,0,0,0,0,0,0,0,0,0,0,0,0,0,0,0,0,0,0,0,0,0,0,0,0,0,0,0,0,0,0,0,0,0,0,0,0,0,0,0,0,0,0,0,0,0,0,0,0,0,0,0,0,0,0,0,0,0,0,0,0,0,0,0,0,0,0,0,0,0,0,0,0,0,0,0,0,0,0,0,0,0,0,0,0,0,0,0,0,0,124,0,0,0,0,0,0,0,0,0,0,0,0,0,0,0,0,0,0,0,0,0,0,0,0,0,0,0,0,0,0,0,0,0,0,0,0,0,0,0,0,0,0,0,0,0,0,0,0,0,0,0,0,0,0,0,0,0,0,0,0,0,152,154,0,0,0,0,0,0,0,0,0,0,0,0,0,0,0,0,0,0,0,0,0,0,0,0,0,0,0,0,0,0,0,0,0,0,0,0,0,0,0,0,0,0,0,0,0,0,0,0,0,0,0,0,0,0,0,0,0,0,0,0,0,0,0,0,0,0,0,0,0,0,0,0,0,0,0,0,0,0,0,0,0,0,0,0,0,0,0,0,0,0,0,0,0,0,0,0,0,0,0,0,0,0,0,0,0,0,0,0,0,0,0,0,0,0,0,0,0,0,0,0,0,0,0,0,0,0,0,0,0,0,0,0,0,0,0,0,0,0,0,0,0,0,0,0,0,0,0,0,0,0,0,0,0,0,0,0,0,0,0,0,0,0,0,0,0,0,0,0,0,0,0,0,0,0,0,0,0,0,0,0,0,0,0,0,0,0,0,0,0,0,0,0,0,0,0,0,0,0,0,0,0,0,0,0,0,0,0,0,0,0,0,0,0,0,0,0,0,0,0,0,0,0,0,0,0,0,0,0,0,0,0,0,0,0,0,0,0,0,0,0,0,0,0,0,0,0,0,0,0,0,0,0,0,0,0,0,0,0,0,0,0,0,0,0,0,0,0,0,0,0,0,0,0,0,0,0,0,0,0,0,0,0,0,0,0,0,0,0,0,0,0,0,0,0,0,0,0,0,0,0,0,0,0,0,0,0,0,0,0,0,0,0,0,0,0,0,0,0,0,0,0,0,0,0,0,0,0,0,0,0,957,0,0,0,0,0,0,0,0,0,0,0,0,0,0,0,0,0,0,0,0,0,0,0,0,0,0,961,0,0,0,0,0,0,0,0,0,0,0,0,0,0,0,0,0,0,0,0,152,153,0,0,0,0,0,0,0,0,0,0,0,0,0,0,0,0,0,0,161,0,0,0,0,0,0,0,0,0,0,0,0,0,0,0,0,0,0,160,0,0,125,0,0,0,0,0,0,162,0,0,0,0,0,0,0,0,0,0,0,0,160,161,0,0,0,0,0,0,0,0,0,124,0,0,0,161,0,0,161,161,0,0,0,0,0,0,0,0,0,0,0,0,125,0,0,0,0,0,0,0,0,0,0,0,0,0,0,0,0,0,0,0,0,0,0,0,0,0,0,0,0,0,0,0,124,108,109,116,117,116,117,0,124,125,0,0,0,963,0,0,0,0,0,0,0,0,124,125,0,116,117,0,116,117,124,125,124,125,0,0,0,0,0,0,964,0,0,108,109,0,0,0,0,0,0,0,124,125,0,124,125,0,0,0,0,0,0,0,0,0,0,0,953,0,116,117,0,0,0,0,0,0,108,109,0,108,109,0,0,0,0,0,0,0,0,0,972,0,0,0,0,124,125,0,0,0,0,0,0,116,117,0,116,117,0,0,0,0,0,0,0,0,0,0,960,962,962,961,0,0,0,0,0,0,0,0,124,125,0,124,125,0,0,0,0,0,0,0,0,0,0,32,0,0,0,0,0,0,0,0,0,0,0,0,0,0,0,0,0,0,0,0,0,0,0,0,0,0,0,0,0,0,0,0,0,0,0,0,0,0,0,108,109,109,0,0,0,0,0,0,0,0,0,0,0,0,0,0,0,0,0,0,0,0,0,0,0,0,116,117,117,0,0,0,0,0,0,0,0,0,0,0,0,957,0,0,0,0,0,0,0,0,0,0,0,124,125,125,0,0,0,0,0,0,0,0,0,0,0,0,0,0,0,0,0,0,0,0,0,0,0,0,0,0,108,109,0,0,0,0,0,0,0,0,0,152,952,964,0,0,0,0,0,0,0,0,0,0,0,0,0,116,117,0,0,0,0,0,0,0,0,0,0,963,0,0,0,0,0,0,0,0,0,0,0,0,0,108,124,125,0,0,0,0,0,0,0,0,0,0,965,36,0,0,0,0,0,0,0,0,0,0,0,0,116,0,0,0,0,0,0,0,0,0,0,152,0,0,0,0,0,0,0,0,0,0,0,0,0,160,0,124,0,0,0,0,0,0,0,0,0,0,0,0,0,0,0,0,0,0,0,0,0,0,0,0,0,0,0,108,109,0,0,0,0,0,0,0,152,0,0,0,0,0,0,0,108,109,0,0,0,0,0,108,109,0,116,117,162,0,0,0,0,0,0,0,33,957,0,0,0,0,0,116,117,0,0,0,0,0,116,117,108,124,125,0,0,0,0,0,0,0,0,0,0,0,0,0,0,152,124,125,0,0,0,0,160,124,125,116,0,0,0,0,0,0,0,0,152,0,952,961,0,0,0,0,0,36,0,0,0,0,0,108,109,0,124,109,0,0,0,0,0,0,0,108,109,0,0,0,0,0,0,0,0,0,0,0,0,160,116,117,0,0,117,0,0,0,0,0,0,0,116,117,965,0,0,0,0,0,0,0,0,0,0,0,0,124,125,0,0,108,109,0,0,0,0,0,0,124,125,0,0,0,0,0,0,0,0,0,0,0,0,0,0,0,0,0,116,117,0,0,0,0,0,0,0,0,0,0,108,109,0,0,0,0,0,0,0,0,0,108,109,0,0,124,125,0,0,0,0,0,0,0,0,0,0,116,117,0,0,0,0,0,0,0,0,0,116,117,0,0,0,0,0,0,0,0,0,0,0,0,0,957,124,125,0,0,0,0,0,0,0,0,0,124,125,108,109,0,0,0,0,0,0,0,0,0,0,0,0,953,0,0,0,0,0,0,0,0,0,0,0,0,116,117,0,0,0,0,0,0,0,0,0,0,0,0,964,0,154,0,0,0,0,0,0,0,0,0,0,124,125,0,0,0,0,0,0,0,0,0,0,0,0,965,33,108,109,0,0,0,0,0,0,0,0,108,109,0,108,109,0,0,0,0,0,0,0,0,0,0,0,0,116,117,0,0,0,0,0,0,0,0,116,117,0,116,117,0,0,0,0,0,0,0,0,0,0,0,0,124,125,0,0,0,0,0,0,0,0,124,125,0,109,125,162,0,0,0,0,0,0,0,0,0,0,0,0,0,0,0,0,0,0,0,0,0,0,0,0,117,0,0,0,0,0,0,0,0,0,0,0,0,0,957,0,0,0,0,0,0,0,0,0,0,0,108,125,0,0,0,0,0,0,0,0,0,0,0,0,0,0,0,0,0,0,0,0,0,0,0,0,0,116,0,0,0,162,0,0,0,0,0,0,0,0,0,32,965,0,0,0,0,0,0,0,0,0,0,108,109,0,108,109,0,0,0,0,0,0,0,0,0,0,0,0,0,0,0,0,0,0,0,0,0,0,116,117,0,116,117,0,0,0,0,108,109,0,0,0,0,0,0,0,0,0,0,0,0,0,0,0,0,124,125,0,124,125,0,0,0,0,116,117,0,0,0,0,108,109,0,154,0,0,0,0,0,0,0,0,0,0,0,0,0,0,0,0,0,124,125,0,0,0,0,116,117,0,0,0,0,0,0,0,0,0,0,0,0,108,109,0,0,0,0,0,0,0,0,0,0,0,124,125,957,0,0,0,0,0,0,0,0,0,0,0,116,117,0,0,0,0,0,0,0,0,0,0,0,0,952,964,0,154,0,0,0,0,0,0,0,0,108,124,125,0,0,0,0,0,0,0,0,0,0,0,0,960,0,953,0,0,0,0,0,0,0,0,0,116,0,0,0,0,0,0,0,0,0,0,0,0,0,0,36,960,964,0,0,0,0,0,0,0,0,0,124,0,0,0,0,0,0,0,0,0,0,0,0,0,0,0,0,965,0,0,0,0,0,0,0,0,0,0,108,109,0,0,0,0,0,0,0,0,0,0,0,0,0,0,33,0,0,0,0,0,0,0,0,108,109,116,117,0,0,0,0,0,0,0,0,0,0,0,0,0,0,0,0,0,0,0,0,0,0,160,116,117,124,125,0,0,0,0,0,0,0,0,0,0,0,0,0,957,0,0,0,0,0,0,0,0,0,124,125,0,0,0,0,0,0,0,0,0,0,0,0,0,0,0,965,0,0,0,0,0,0,0,0,108,109,0,0,0,0,0,0,0,0,0,0,0,0,0,0,152,0,0,0,0,0,0,0,0,0,0,116,117,0,109,0,0,0,0,0,0,0,0,0,0,0,152,0,0,108,109,0,0,0,0,0,0,160,124,125,0,117,0,0,0,0,0,0,0,0,108,109,152,0,0,952,116,117,0,0,0,0,0,0,108,109,0,108,125,0,0,0,0,0,0,0,0,116,117,0,32,952,964,124,125,153,154,0,0,0,160,116,117,0,116,0,108,109,162,0,0,0,0,152,124,125,955,954,0,0,956,0,0,0,0,0,108,109,124,108,109,124,0,116,117,0,108,109,0,0,108,109,0,0,960,0,961,0,0,108,109,161,161,116,117,0,116,117,0,108,109,125,0,116,117,161,161,116,117,161,162,0,963,0,160,161,116,117,0,0,124,108,109,124,125,0,116,117,0,0,124,125,108,109,124,125,0,0,0,964,0,0,0,124,125,0,108,109,116,117,0,0,108,0,0,0,0,0,0,0,0,0,0,0,0,5,0,0,0,0,0,0,0,0,0,0,0,0,0,0,0,0,0,0,0,0,0,0,0,0,0,0,5,0,0,0,0,0,0,0,0,0,0,0,0,0,0,0,0,0,0,0,0,0,0,0,0,0,0,5,0,0,0,0,0,0,0,0,0,0,0,0,0,0,0,0,0,0,0,0,0,0,0,0,0,0,0,0,0,0,0,0,0,5,0,0,0,0,0,0,0,0,0,0,0,0,0,0,0,0,0,0,0,0,0,0,0,0,0,0,5,0,0,0,0,0,0,0,0,0,0,0,0,0,0,5,0,0,0,0,0,0,0,0,0,0,0,5,0,0,0,0,0,0,0,0,0,0,0,5,0,0,0,0,0,0,0,0,0,0,0,0,5,0,0,0,0,0,0,0,0,0,0,0,0,5,0,0,0,0,0,0,0,0,0,0,0,5,0,4,0,0,0,0,0,0,0,0,0,0,0,0,0,0,0,0,0,0,0,0,0,0,0,0,5,0,0,0,0,0,0,0,0,0,0,0,0,0,0,0,0,0,0,0,0,0,0,0,0,0,0,0,0,0,0,0,0,0,0,0,0,0,0,0,0,0,0,0,0,0,0,0,0,0,0,0,0,0,0,0,0,0,0,0,0,0,0,0,0,0,0,0,0,0,0,0,0,0,0,0,0,0,0,0,0,0,0,0,0,0,0,0,0,0,0,0,0,0,0,0,0,0,0,0,0,0,0,0,0,0,0,0,0,0,0,0,0,0,0,0,0,0,0,0,0,0,5,0,0,0,0,0,0,0,0,0,0,0,0,0,0,0,0,0,0,0,0,0,0,0,0,0,0,0,0,0,0,0,0,0,0,0,0,0,0,5,0,0,0,0,0,0,0,0,0,0,0,0,0,0,0,0,0,0,0,0,0,0,0,0,0,0,5,0,0,0,0,0,0,0,0,0,0,0,0,0,0,0,0,0,0,0,0,0,0,0,0,0,0,0,0,0,0,0,0,0,0,0,0,0,0,0,0,0,0,0,0,0,0,0,0,0,0,0,0,5,0,0,0,0,0,0,0,0,0,0,0,0,0,0,0,0,0,0,0,0,0,0,0,0,0,0,5,0,0,0,0,0,0,0,0,0,0,0,0,0,0,0,0,0,0,0,0,0,0,0,0,0,0,0,0,0,0,0,0,0,0,0,0,0,0,0,0,0,0,0,0,0,0,0,0,0,0,0,0,0,0,0,0,0,0,0,0,0,0,0,0,0,0,0,0,0,0,0,0,0,0,0,0,0,0,0,5,0,0,0,0,0,0,0,0,0,0,0,0,0,0,0,0,0,0,0,0,0,0,0,0,0,0,0,0,0,0,0,0,0,0,0,0,0,0,0,0,0,0,0,0,0,0,0,0,0,0,0,0,0,0,0,0,0,0,0,0,0,0,0,0,0,0,0,0,0,0,0,0,0,0,0,0,0,0,0,0,0,0,0,0,0,0,0,0,0,0,0,0,0,0,0,0,0,0,0,0,0,0,0,0,0,0,0,0,0,0,0,0,0,0,0,0,0,0,0,0,0,0,0,0,0,0,0,0,0,0,0,0,0,0,0,0,0,0,0,0,0,0,0,0,0,0,0,0,0,0,0,5,0,0,0,0,0,0,0,0,0,0,0,0,0,0,0,0,0,0,0,0,0,0,0,0,0,0,0,0,0,0,0,0,0,0,0,0,0,0,0,0,0,0,0,0,0,0,0,0,0,0,0,0,0,0,0,0,0,0,0,0,0,0,0,0,0,0,0,0,0,0,0,0,0,0,0,0,0,0,0,0,0,0,0,0,0,0,0,0,0,0,0,0,0,0,0,0,0,0,0,0,0,0,0,0,0,0,0,0,0,0,0,0,0,0,0,0,0,0,0,0,0,0,0,0,0,0,0,0,0,0,0,0,0,0,0,0,0,0,0,0,0,0,0,0,0,0,0,0,0,0,0,0,0,0,0,0,0,0,0,0,0,0,0,0,0,0,0,0,0,0,0,0,0,0,0,0,0,0,0,0,0,0,0,0,0,0,0,0,0,0,0,0,0,0,0,0,0,0,0,0,0,0,0,0,0,0,0,0,0,0,0,0,0,0,0,0,0,0,0,0,0,0,0,0,0,0,0,0,0,0,0,0,0,0,0,0,0,0,0,0,0,0,0,0,0,0,0,0,0,0,0,0,0,0,0,0,0,0,0,0,0,0,0,0,0,0,0,0,0,0,0,0,0,0,0,0,0,0,0,0,0,0,0,0,0,0,0,0,0,0,0,0,0,0,0,0,0,0,0,0,0,0,0,0,0,0,0,0,0,0,0,0,0,0,0,0,0,0,0,0,0,0,0,0,0,0,0,0,0,0,0,0,0,0,0,0,0,0,0,0,0,0,0,0,0,0,0,0,0,0,0,0,0,0,0,0,0,0,0,0,0,0,0,0,0,0,0,0,0,0,0,0,0,0,0,0,0,0,0,0,0,0,0,0,0,0,0,0,0,0,0,0,0,0,0,0,0,0,0,0,0,0,0,0,0,5,0,0,0,0,0,0,0,0,0,0,0,0,0,0,0,0,0,0,0,0,0,0,0,0,0,0,0,0,0,0,0,0,0,0,0,0,0,0,0,0,0,0,0,0,0,0,0,0,0,0,0,0,0,0,0,0,0,0,0,0,0,0,0,0,0,0,0,0,0,0,0,0,0,0,0,0,0,0,0,0,0,0,0,0,0,0,0,0,0,0,0,0,0,0,0,0,0,0,0,0,0,0,0,0,0,0,5,0,0,0,0,0,0,0,0,0,0,0,0,0,0,0,0,0,0,0,0,0,0,0,0,0,0,0,0,0,0,0,0,0,0,0,0,0,0,0,0,0,0,0,0,0,0,0,0,0,0,0,0,0,0,0,0,0,0,0,0,0,0,0,0,0,0,0,0,0,0,0,0,0,0,0,0,0,0,0,0,0,0,0,0,0,0,0,0,0,0,0,0,0,0,0,5,0,0,0,0,0,0,0,0,0,0,0,0,0,0,0,0,0,0,0,0,0,0,0,0,0,0,0,0,0,0,0,0,0,0,0,0,0,0,0,0,0,0,0,0,0,0,0,0,0,0,0,0,0,0,0,0,0,0,0,0,0,0,0,0,0,0,0,0,0,0,0,0,0,0,0,0,0,0,0,0,0,0,0,0,0,0,0,0,0,0,0,0,0,0,0,0,0,0,0,0,0,0,0,0,0,0,0,0,0,0,0,0,0,0,0,0,0,0,0,0,0,0,0,0,0,0,0,0,0,0,0,0,0,0,0,0,0,0,0,0,0,0,0,0,0,0,0,0,0,0,0,0,0,0,0,0,0,0,0,0,0,0,0,0,0,0,0,0,0,0,0,0,0,0,0,0,0,0,0,0,0,0,0,0,0,0,0,0,0,0,0,0,0,0,0,0,0,0,0,0,0,0,0,0,0,0,0,0,0,0,0,0,0,0,0,0,0,0,0,0,0,0,0,0,0,0,0,0,0,0,0,0,0,0,0,0,0,0,0,0,0,0,0,0,0,0,0,0,0,0,0,0,0,0,0,0,0,0,0,0,0,0,0,0,0,0,0,0,0,0,0,0,0,0,0,0,0,0,0,0,0,0,0,0,0,0,0,0,0,0,0,0,0,0,0,0,0,0,0,0,0,0,0,0,0,0,0,0,0,0,0,0,0,0,0,0,0,0,0,0,0,0,0,0,0,0,0,0,0,0,0,0,0,0,0,0,0,0,0,0,0,0,0,0,0,0,0,0,0,0,0,0,0,0,0,0,0,0,0,0,0,0,0,0,0,0,0,0,0,0,0,0,0,0,0,0,0,0,0,0,0,0,0,0,0,0,0,0,0,0,0,0,0,0,0,0,0,0,0,0,0,0,0,0,0,0,0,0,0,0,0,0,0,0,0,0,0,0,0,0,0,0,0,0,0,0,0,0,0,0,0,0,0,0,0,0,0,0,0,0,0,0,0,0,0,0,0,0,0,0,0,0,0,0,0,0,0,0,0,0,0,0,0,0,0,0,0,0,0,0,0,0,0,0,0,0,0,0,0,0,0,0,0,0,0,0,0,0,0,0,0,0,0,0,0,0,0,0,0,0,0,0,0,0,0,0,0,0,0,0,0,0,0,0,0,0,0,0,0,0,0,0,0,0,0,0,0,0,0,0,0,0,0,0,0,0,0,0,0,0,0,0,0,0,0,0,0,0,0,0,0,0,0,0,0,0,0,0,0,0,0,0,0,0,0,0,0,0,0,0,0,0,0,0,0,0,0,0,0,0,0,0,0,0,0,0,0,0,0,0,0,0,0,0,0,0,0,0,0,0,0,0,0,0,0,0,0,0,0,0,0,0,0,0,0,0,0,0,0,0,0,0,0,0,0,0,0,0,0,0,0,0,0,0,0,0,0,0,0,0,0,0,0,0,0,0,0,0,0,0,0,0,0,0,0,0,0,0,0,0,0,0,0,0,0,0,0,0,0,0,0,0,0,0,0,0,0,0,0,0,0,0,0,0,0,0,0,0,0,0,0,0,0,0,0,0,0,0,0,0,0,0,0,0,0,0,0,0,0,0,0,0,0,0,0,0,0,0,0,0,0,0,0,0,0,0,0,0,0,0,0,0,0,0,0,0,0,0,0,0,0,0,0,0,0,0,0,0,0,0,0,0,0,0,0,0,0,0,0,0,0,0,0,0,0,0,0,0,0,0,0,0,0,0,0,0,0,0,0,0,0,0,0,0,0,0,0,0,0,0,0,0,0,0,0,0,0,0,0,0,0,0,0,0,0,0,0,0,0,0,0,0,0,0,0,0,0,0,0,0,0,0,0,0,0,0,0,0,0,0,0,0,0,0,0,0,0,0,0,0,0,0,0,0,0,0,0,0,0,0,0,0,0,0,0,0,0,0,0,0,0,0,0,0,0,0,0,0,0,0,0,0,0,0,0,0,0,0,0,0,0,0,0,0,0,0,0,0,0,0,0,0,0,0,0,0,0,0,0,0,0,0,0,0,0,0,0,0,0,0,0,0,0,0,0,0,0,0,0,0,0,0,0,0,0,0,0,0,0,0,0,0,0,0,0,0,0,0,0,0,0,0,0,0,0,0,0,0,0,0,0,0,0,0,0,0,0,0,0,0,0,0,0,0,0,0,0,0,0,0,0,0,0,0,0,0,0,0,0,0,0,0,0,0,0,0,0,0,0,0,0,0,0,0,0,0,0,0,0,0,0,0,0,0,0,0,0,0,0,0,0,0,0,0,0,0,0,0,0,0,0,0,0,0,0,0,0,0,0,0,0,0,0,0,0,0,0,0,0,0,0,0,0,0,0,0,0,0,0,0,0,0,0,0,0,0,0,0,0,0,0,0,0,0,0,0,0,0,0,0,0,0,0,0,0,0,0,0,0,0,0,0,0,0,0,0,0,0,0,0,0,0,0,0,0,0,0,0,0,0,0,0,0,0,0,0,0,0,0,0,0,0,0,0,0,0,0,0,0,0,0,0,0,0,0,0,0,0,0,0,0,0,0,0,0,0,0,0,0,0,0,0,0,0,0,0,0,0,0,0,0,0,0,0,0,0,0,0,0,0,0,0,0,0,0,0,0,0,0,0,0,0,0,0,0,0,0,0,0,0,0,0,0,0,0,0,0,0,0,0,0,0,0,0,0,0,0,0,0,0,0,0,0,0,0,0,0,0,0,0,0,0,0,0,0,0,0,0,0,0,0,0,0,0,0,0,0,0,0,0,0,0,0,0,0,0,0,0,0,0,0,0,0,0,0,0,0,0,0,0,0,0,0,0,0,0,0,0,0,0,0,0,0,0,0,0,0,0,0,0,0,0,0,0,0,0,0,0,0,0,0,0,0,0,0,0,0,0,0,0,0,0,0,0,0,0,0,0,0,0,0,0,0,0,0,0,0,0,0,0,0,0,0,0,0,0,0,0,0,0,0,0,0,0,0,0,0,0,0,0,0,0,0,0,0,0,0,0,0,0,0,0,0,0,0,0,0,0,0,0,0,0,0,0,0,0,0,0,0,0,0,0,0,0,0,0,0,0,0,0,0,0,0,0,0,0,0,0,0,0,0,0,0,0,0,0,0,0,0,0,0,0,0,0,0,0,0,0,0,0,0,0,0,0,0,0,0,0,0,0,0,0,0,0,0,0,0,0,0,0,0,0,0,0,0,0,0,0,0,0,0,0,0,0,0,0,0,0,0,0,0,0,0,0,0,0,0,0,0,0,0,0,0,0,0,0,0,0,0,0,0,0,0,0,0,0,0,0,0,0,0,0,0,0,0,0,0,0,0,0,0,0,0,0,0,0,0,0,0,0,0,0,0,0,0,0,0,0,0,0,0,0,0,0,0,0,0,0,0,0,0,0,0,0,0,0,0,0,0,0,0,0,0,0,0,0,0,0,0,0,0,0,0,0,0,0,0,0,0,0,0,0,0,0,0,0,0,0,0,0,0,0,0,0,0,0,0,0,0,0,0,0,0,0,0,0,0,0,0,0,0,0,0,0,0,0,0,0,0,0,0,0,0,0,0,0,0,0,0,0,0,0,0,0,0,0,0,0,0,0,0,0,0,0,0,0,0,0,0,0,0,0,0,0,0,0,0,0,0,0,0,0,0,0,0,0,0,0,0],
"events":[
null,
{"id":1,"name":"EV001","note":"","pages":[{"conditions":{"actorId":1,"actorValid":false,"itemId":1,"itemValid":false,"selfSwitchCh":"A","selfSwitchValid":false,"switch1Id":1,"switch1Valid":false,"switch2Id":1,"switch2Valid":false,"variableId":1,"variableValid":false,"variableValue":0},"directionFix":false,"image":{"characterIndex":0,"characterName":"","direction":2,"pattern":0,"tileId":0},"list":[{"code":108,"indent":0,"parameters":["<Activation Row: 0>"]},{"code":356,"indent":0,"parameters":["MapZoom set 1.5 duration 30"]},{"code":201,"indent":0,"parameters":[0,76,10,34,8,0]},{"code":0,"indent":0,"parameters":[]}],"moveFrequency":3,"moveRoute":{"list":[{"code":0,"parameters":[]}],"repeat":true,"skippable":false,"wait":false},"moveSpeed":3,"moveType":0,"priorityType":0,"stepAnime":false,"through":false,"trigger":1,"walkAnime":true}],"x":13,"y":0},
null,
null,
{"id":4,"name":"EV004","note":"","pages":[{"conditions":{"actorId":1,"actorValid":false,"itemId":1,"itemValid":false,"selfSwitchCh":"A","selfSwitchValid":false,"switch1Id":1,"switch1Valid":false,"switch2Id":1,"switch2Valid":false,"variableId":1,"variableValid":false,"variableValue":0},"directionFix":false,"image":{"characterIndex":0,"characterName":"","direction":2,"pattern":0,"tileId":0},"list":[{"code":108,"indent":0,"parameters":["<Activation Row: 0>"]},{"code":356,"indent":0,"parameters":["MapZoom set 1.5 duration 30"]},{"code":201,"indent":0,"parameters":[0,97,23,0,2,0]},{"code":0,"indent":0,"parameters":[]}],"moveFrequency":3,"moveRoute":{"list":[{"code":0,"parameters":[]}],"repeat":true,"skippable":false,"wait":false},"moveSpeed":3,"moveType":0,"priorityType":0,"stepAnime":false,"through":false,"trigger":1,"walkAnime":true}],"x":13,"y":54},
null,
null,
{"id":7,"name":"Mid-Potion","note":"","pages":[{"conditions":{"actorId":1,"actorValid":false,"itemId":1,"itemValid":false,"selfSwitchCh":"A","selfSwitchValid":false,"switch1Id":1,"switch1Valid":false,"switch2Id":1,"switch2Valid":false,"variableId":1,"variableValid":false,"variableValue":0},"directionFix":true,"image":{"tileId":0,"characterName":"hiddenones_chests","direction":2,"pattern":0,"characterIndex":6},"moveFrequency":3,"moveRoute":{"list":[{"code":0,"indent":null,"parameters":[]}],"repeat":true,"skippable":false,"wait":false},"moveSpeed":3,"moveType":0,"priorityType":1,"stepAnime":false,"through":false,"trigger":0,"walkAnime":false,"list":[{"code":250,"indent":0,"parameters":[{"name":"Chest1","volume":80,"pitch":100,"pan":0}]},{"code":205,"indent":0,"parameters":[0,{"list":[{"code":36,"indent":null,"parameters":[]},{"code":17,"indent":null,"parameters":[]},{"code":15,"indent":null,"parameters":[3]},{"code":18,"indent":null,"parameters":[]},{"code":15,"indent":null,"parameters":[3]},{"code":0,"indent":null,"parameters":[]}],"repeat":false,"skippable":false,"wait":true}]},{"code":505,"indent":0,"parameters":[{"code":36,"indent":null,"parameters":[]}]},{"code":505,"indent":0,"parameters":[{"code":17,"indent":null,"parameters":[]}]},{"code":505,"indent":0,"parameters":[{"code":15,"indent":null,"parameters":[3]}]},{"code":505,"indent":0,"parameters":[{"code":18,"indent":null,"parameters":[]}]},{"code":505,"indent":0,"parameters":[{"code":15,"indent":null,"parameters":[3]}]},{"code":123,"indent":0,"parameters":["A",0]},{"code":126,"indent":0,"parameters":[3,0,0,1]},{"code":101,"indent":0,"parameters":["",0,0,2]},{"code":401,"indent":0,"parameters":["\\ii[3] was found!"]},{"code":0,"indent":0,"parameters":[]}]},{"conditions":{"actorId":1,"actorValid":false,"itemId":1,"itemValid":false,"selfSwitchCh":"A","selfSwitchValid":true,"switch1Id":1,"switch1Valid":false,"switch2Id":1,"switch2Valid":false,"variableId":1,"variableValid":false,"variableValue":0},"directionFix":true,"image":{"tileId":0,"characterName":"hiddenones_chests","direction":8,"pattern":0,"characterIndex":6},"moveFrequency":3,"moveRoute":{"list":[{"code":0,"indent":null,"parameters":[]}],"repeat":true,"skippable":false,"wait":false},"moveSpeed":3,"moveType":0,"priorityType":1,"stepAnime":false,"through":false,"trigger":0,"walkAnime":false,"list":[{"code":0,"indent":0,"parameters":[]}]}],"x":18,"y":3},
{"id":8,"name":"Frei","note":"","pages":[{"conditions":{"actorId":1,"actorValid":false,"itemId":1,"itemValid":false,"selfSwitchCh":"A","selfSwitchValid":false,"switch1Id":52,"switch1Valid":true,"switch2Id":1,"switch2Valid":false,"variableId":1,"variableValid":false,"variableValue":0},"directionFix":false,"image":{"tileId":0,"characterName":"Frei","direction":4,"pattern":1,"characterIndex":0},"list":[{"code":0,"indent":0,"parameters":[]}],"moveFrequency":3,"moveRoute":{"list":[{"code":0,"parameters":[]}],"repeat":true,"skippable":false,"wait":false},"moveSpeed":3,"moveType":0,"priorityType":1,"stepAnime":false,"through":false,"trigger":0,"walkAnime":true},{"conditions":{"actorId":1,"actorValid":false,"itemId":1,"itemValid":false,"selfSwitchCh":"A","selfSwitchValid":false,"switch1Id":54,"switch1Valid":true,"switch2Id":1,"switch2Valid":false,"variableId":1,"variableValid":false,"variableValue":0},"directionFix":false,"image":{"tileId":0,"characterName":"Frei","direction":4,"pattern":1,"characterIndex":0},"list":[{"code":0,"indent":0,"parameters":[]}],"moveFrequency":3,"moveRoute":{"list":[{"code":16,"indent":null},{"code":15,"parameters":[60],"indent":null},{"code":17,"indent":null},{"code":15,"parameters":[60],"indent":null},{"code":18,"indent":null},{"code":15,"parameters":[60],"indent":null},{"code":19,"indent":null},{"code":15,"parameters":[60],"indent":null},{"code":0,"parameters":[]}],"repeat":true,"skippable":false,"wait":false},"moveSpeed":4,"moveType":3,"priorityType":1,"stepAnime":false,"through":false,"trigger":4,"walkAnime":true},{"conditions":{"actorId":1,"actorValid":false,"itemId":1,"itemValid":false,"selfSwitchCh":"A","selfSwitchValid":false,"switch1Id":55,"switch1Valid":true,"switch2Id":1,"switch2Valid":false,"variableId":1,"variableValid":false,"variableValue":0},"directionFix":false,"image":{"characterIndex":0,"characterName":"","direction":2,"pattern":0,"tileId":0},"list":[{"code":0,"indent":0,"parameters":[]}],"moveFrequency":3,"moveRoute":{"list":[{"code":0,"parameters":[]}],"repeat":true,"skippable":false,"wait":false},"moveSpeed":3,"moveType":0,"priorityType":0,"stepAnime":false,"through":false,"trigger":0,"walkAnime":true}],"x":16,"y":17},
{"id":9,"name":"Frei the Wanderer","note":"","pages":[{"conditions":{"actorId":1,"actorValid":false,"itemId":1,"itemValid":false,"selfSwitchCh":"A","selfSwitchValid":false,"switch1Id":1,"switch1Valid":false,"switch2Id":1,"switch2Valid":false,"variableId":1,"variableValid":false,"variableValue":0},"directionFix":false,"image":{"characterIndex":0,"characterName":"","direction":2,"pattern":0,"tileId":0},"list":[{"code":108,"indent":0,"parameters":["<Activation Row: 0>"]},{"code":356,"indent":0,"parameters":["HideActiveQuestWindow"]},{"code":243,"indent":0,"parameters":[]},{"code":221,"indent":0,"parameters":[]},{"code":242,"indent":0,"parameters":[5]},{"code":217,"indent":0,"parameters":[]},{"code":216,"indent":0,"parameters":[1]},{"code":121,"indent":0,"parameters":[53,53,0]},{"code":201,"indent":0,"parameters":[0,59,12,14,2,0]},{"code":222,"indent":0,"parameters":[]},{"code":205,"indent":0,"parameters":[-1,{"list":[{"code":1,"indent":null},{"code":1,"indent":null},{"code":0}],"repeat":false,"skippable":false,"wait":false}]},{"code":505,"indent":0,"parameters":[{"code":1,"indent":null}]},{"code":505,"indent":0,"parameters":[{"code":1,"indent":null}]},{"code":205,"indent":0,"parameters":[10,{"list":[{"code":3,"indent":null},{"code":1,"indent":null},{"code":1,"indent":null},{"code":1,"indent":null},{"code":0}],"repeat":false,"skippable":false,"wait":false}]},{"code":505,"indent":0,"parameters":[{"code":3,"indent":null}]},{"code":505,"indent":0,"parameters":[{"code":1,"indent":null}]},{"code":505,"indent":0,"parameters":[{"code":1,"indent":null}]},{"code":505,"indent":0,"parameters":[{"code":1,"indent":null}]},{"code":205,"indent":0,"parameters":[11,{"list":[{"code":2,"indent":null},{"code":1,"indent":null},{"code":1,"indent":null},{"code":0}],"repeat":false,"skippable":false,"wait":false}]},{"code":505,"indent":0,"parameters":[{"code":2,"indent":null}]},{"code":505,"indent":0,"parameters":[{"code":1,"indent":null}]},{"code":505,"indent":0,"parameters":[{"code":1,"indent":null}]},{"code":241,"indent":0,"parameters":[{"name":"Ambrosia Beach (Loop)","volume":90,"pitch":100,"pan":0}]},{"code":101,"indent":0,"parameters":["Frei",4,0,2]},{"code":401,"indent":0,"parameters":["\\m[?]Heeeey!!!"]},{"code":213,"indent":0,"parameters":[-1,1,false]},{"code":213,"indent":0,"parameters":[10,1,false]},{"code":213,"indent":0,"parameters":[11,1,false]},{"code":205,"indent":0,"parameters":[-1,{"list":[{"code":18,"indent":null},{"code":0}],"repeat":false,"skippable":false,"wait":true}]},{"code":505,"indent":0,"parameters":[{"code":18,"indent":null}]},{"code":205,"indent":0,"parameters":[10,{"list":[{"code":18,"indent":null},{"code":0}],"repeat":false,"skippable":false,"wait":true}]},{"code":505,"indent":0,"parameters":[{"code":18,"indent":null}]},{"code":205,"indent":0,"parameters":[11,{"list":[{"code":18,"indent":null},{"code":0}],"repeat":false,"skippable":false,"wait":true}]},{"code":505,"indent":0,"parameters":[{"code":18,"indent":null}]},{"code":213,"indent":0,"parameters":[8,3,true]},{"code":101,"indent":0,"parameters":["Frei",2,0,2]},{"code":401,"indent":0,"parameters":["\\m[?]Oh? Travelers coming from \\c[1]Ferrusa\\c[0]? I "]},{"code":401,"indent":0,"parameters":["didn't realize the mayor reopened the pass."]},{"code":101,"indent":0,"parameters":["Senisa1",7,0,2]},{"code":401,"indent":0,"parameters":["\\m[Senisa]The mayor only let us pass. Who are you?"]},{"code":213,"indent":0,"parameters":[8,3,true]},{"code":205,"indent":0,"parameters":[8,{"list":[{"code":14,"parameters":[-4,0],"indent":null},{"code":15,"parameters":[30],"indent":null},{"code":19,"indent":null},{"code":0}],"repeat":false,"skippable":false,"wait":true}]},{"code":505,"indent":0,"parameters":[{"code":14,"parameters":[-4,0],"indent":null}]},{"code":505,"indent":0,"parameters":[{"code":15,"parameters":[30],"indent":null}]},{"code":505,"indent":0,"parameters":[{"code":19,"indent":null}]},{"code":205,"indent":0,"parameters":[-1,{"list":[{"code":16,"indent":null},{"code":0}],"repeat":false,"skippable":false,"wait":true}]},{"code":505,"indent":0,"parameters":[{"code":16,"indent":null}]},{"code":205,"indent":0,"parameters":[10,{"list":[{"code":16,"indent":null},{"code":0}],"repeat":false,"skippable":false,"wait":true}]},{"code":505,"indent":0,"parameters":[{"code":16,"indent":null}]},{"code":205,"indent":0,"parameters":[11,{"list":[{"code":16,"indent":null},{"code":0}],"repeat":false,"skippable":false,"wait":true}]},{"code":505,"indent":0,"parameters":[{"code":16,"indent":null}]},{"code":101,"indent":0,"parameters":["Frei",2,0,2]},{"code":401,"indent":0,"parameters":["\\m[?]Names are meaningless. Just know that I'm "]},{"code":401,"indent":0,"parameters":["going to go after the bandits. Wanna help?"]},{"code":101,"indent":0,"parameters":["Kevar",5,0,2]},{"code":401,"indent":0,"parameters":["\\m[Kevar]The woman asked a question. Who are you?"]},{"code":205,"indent":0,"parameters":[8,{"list":[{"code":18,"indent":null},{"code":15,"parameters":[60],"indent":null},{"code":17,"indent":null},{"code":15,"parameters":[60],"indent":null},{"code":19,"indent":null},{"code":0}],"repeat":false,"skippable":false,"wait":true}]},{"code":505,"indent":0,"parameters":[{"code":18,"indent":null}]},{"code":505,"indent":0,"parameters":[{"code":15,"parameters":[60],"indent":null}]},{"code":505,"indent":0,"parameters":[{"code":17,"indent":null}]},{"code":505,"indent":0,"parameters":[{"code":15,"parameters":[60],"indent":null}]},{"code":505,"indent":0,"parameters":[{"code":19,"indent":null}]},{"code":213,"indent":0,"parameters":[8,6,true]},{"code":101,"indent":0,"parameters":["Frei",3,0,2]},{"code":401,"indent":0,"parameters":["\\m[?]Oh right, right. Where are my manners?"]},{"code":205,"indent":0,"parameters":[8,{"list":[{"code":2,"indent":null},{"code":4,"indent":null},{"code":18,"indent":null},{"code":0}],"repeat":false,"skippable":false,"wait":true}]},{"code":505,"indent":0,"parameters":[{"code":2,"indent":null}]},{"code":505,"indent":0,"parameters":[{"code":4,"indent":null}]},{"code":505,"indent":0,"parameters":[{"code":18,"indent":null}]},{"code":205,"indent":0,"parameters":[-1,{"list":[{"code":17,"indent":null},{"code":0}],"repeat":false,"skippable":false,"wait":true}]},{"code":505,"indent":0,"parameters":[{"code":17,"indent":null}]},{"code":213,"indent":0,"parameters":[8,3,true]},{"code":101,"indent":0,"parameters":["Frei",2,0,2]},{"code":401,"indent":0,"parameters":["\\m[?]Nice to meet you, pale beauty."]},{"code":213,"indent":0,"parameters":[-1,7,false]},{"code":205,"indent":0,"parameters":[8,{"list":[{"code":4,"indent":null},{"code":18,"indent":null},{"code":0}],"repeat":false,"skippable":false,"wait":true}]},{"code":505,"indent":0,"parameters":[{"code":4,"indent":null}]},{"code":505,"indent":0,"parameters":[{"code":18,"indent":null}]},{"code":205,"indent":0,"parameters":[10,{"list":[{"code":17,"indent":null},{"code":0}],"repeat":false,"skippable":false,"wait":true}]},{"code":505,"indent":0,"parameters":[{"code":17,"indent":null}]},{"code":213,"indent":0,"parameters":[8,3,true]},{"code":101,"indent":0,"parameters":["Frei",2,0,2]},{"code":401,"indent":0,"parameters":["\\m[?]The pleasures all mine, sweet angel."]},{"code":213,"indent":0,"parameters":[10,6,false]},{"code":205,"indent":0,"parameters":[8,{"list":[{"code":4,"indent":null},{"code":18,"indent":null},{"code":0}],"repeat":false,"skippable":false,"wait":true}]},{"code":505,"indent":0,"parameters":[{"code":4,"indent":null}]},{"code":505,"indent":0,"parameters":[{"code":18,"indent":null}]},{"code":205,"indent":0,"parameters":[11,{"list":[{"code":17,"indent":null},{"code":0}],"repeat":false,"skippable":false,"wait":true}]},{"code":505,"indent":0,"parameters":[{"code":17,"indent":null}]},{"code":213,"indent":0,"parameters":[8,3,true]},{"code":101,"indent":0,"parameters":["Frei",2,0,2]},{"code":401,"indent":0,"parameters":["\\m[?]How do you do, burly hunk?"]},{"code":213,"indent":0,"parameters":[11,8,false]},{"code":205,"indent":0,"parameters":[8,{"list":[{"code":1,"indent":null},{"code":1,"indent":null},{"code":1,"indent":null},{"code":3,"indent":null},{"code":19,"indent":null},{"code":0}],"repeat":false,"skippable":false,"wait":true}]},{"code":505,"indent":0,"parameters":[{"code":1,"indent":null}]},{"code":505,"indent":0,"parameters":[{"code":1,"indent":null}]},{"code":505,"indent":0,"parameters":[{"code":1,"indent":null}]},{"code":505,"indent":0,"parameters":[{"code":3,"indent":null}]},{"code":505,"indent":0,"parameters":[{"code":19,"indent":null}]},{"code":205,"indent":0,"parameters":[-1,{"list":[{"code":16,"indent":null},{"code":0}],"repeat":false,"skippable":false,"wait":true}]},{"code":505,"indent":0,"parameters":[{"code":16,"indent":null}]},{"code":205,"indent":0,"parameters":[10,{"list":[{"code":16,"indent":null},{"code":0}],"repeat":false,"skippable":false,"wait":true}]},{"code":505,"indent":0,"parameters":[{"code":16,"indent":null}]},{"code":205,"indent":0,"parameters":[11,{"list":[{"code":16,"indent":null},{"code":0}],"repeat":false,"skippable":false,"wait":true}]},{"code":505,"indent":0,"parameters":[{"code":16,"indent":null}]},{"code":101,"indent":0,"parameters":["Frei",2,0,2]},{"code":401,"indent":0,"parameters":["\\m[Frei]The name is Frei. How about we hunt down some"]},{"code":401,"indent":0,"parameters":["bandits? I can't do it alone."]},{"code":205,"indent":0,"parameters":[11,{"list":[{"code":2,"indent":null},{"code":1,"indent":null},{"code":1,"indent":null},{"code":18,"indent":null},{"code":0}],"repeat":false,"skippable":false,"wait":true}]},{"code":505,"indent":0,"parameters":[{"code":2,"indent":null}]},{"code":505,"indent":0,"parameters":[{"code":1,"indent":null}]},{"code":505,"indent":0,"parameters":[{"code":1,"indent":null}]},{"code":505,"indent":0,"parameters":[{"code":18,"indent":null}]},{"code":101,"indent":0,"parameters":["Kevar",5,0,2]},{"code":401,"indent":0,"parameters":["\\m[Kevar]Senisa..."]},{"code":205,"indent":0,"parameters":[-1,{"list":[{"code":17,"indent":null},{"code":0}],"repeat":false,"skippable":false,"wait":true}]},{"code":505,"indent":0,"parameters":[{"code":17,"indent":null}]},{"code":101,"indent":0,"parameters":["Senisa",7,0,2]},{"code":401,"indent":0,"parameters":["\\m[Senisa]Yep. I know."]},{"code":205,"indent":0,"parameters":[11,{"list":[{"code":16,"indent":null},{"code":0}],"repeat":false,"skippable":false,"wait":true}]},{"code":505,"indent":0,"parameters":[{"code":16,"indent":null}]},{"code":101,"indent":0,"parameters":["Kevar",1,0,2]},{"code":401,"indent":0,"parameters":["\\m[Kevar]Give us a moment."]},{"code":213,"indent":0,"parameters":[8,2,true]},{"code":101,"indent":0,"parameters":["Frei",3,0,2]},{"code":401,"indent":0,"parameters":["\\m[Frei]Sure."]},{"code":205,"indent":0,"parameters":[11,{"list":[{"code":4,"indent":null},{"code":4,"indent":null},{"code":4,"indent":null},{"code":4,"indent":null},{"code":4,"indent":null},{"code":16,"indent":null},{"code":0}],"repeat":false,"skippable":false,"wait":false}]},{"code":505,"indent":0,"parameters":[{"code":4,"indent":null}]},{"code":505,"indent":0,"parameters":[{"code":4,"indent":null}]},{"code":505,"indent":0,"parameters":[{"code":4,"indent":null}]},{"code":505,"indent":0,"parameters":[{"code":4,"indent":null}]},{"code":505,"indent":0,"parameters":[{"code":4,"indent":null}]},{"code":505,"indent":0,"parameters":[{"code":16,"indent":null}]},{"code":205,"indent":0,"parameters":[-1,{"list":[{"code":2,"indent":null},{"code":4,"indent":null},{"code":4,"indent":null},{"code":4,"indent":null},{"code":0}],"repeat":false,"skippable":false,"wait":false}]},{"code":505,"indent":0,"parameters":[{"code":2,"indent":null}]},{"code":505,"indent":0,"parameters":[{"code":4,"indent":null}]},{"code":505,"indent":0,"parameters":[{"code":4,"indent":null}]},{"code":505,"indent":0,"parameters":[{"code":4,"indent":null}]},{"code":205,"indent":0,"parameters":[10,{"list":[{"code":4,"indent":null},{"code":4,"indent":null},{"code":4,"indent":null},{"code":17,"indent":null},{"code":0}],"repeat":false,"skippable":false,"wait":false}]},{"code":505,"indent":0,"parameters":[{"code":4,"indent":null}]},{"code":505,"indent":0,"parameters":[{"code":4,"indent":null}]},{"code":505,"indent":0,"parameters":[{"code":4,"indent":null}]},{"code":505,"indent":0,"parameters":[{"code":17,"indent":null}]},{"code":121,"indent":0,"parameters":[54,54,0]},{"code":101,"indent":0,"parameters":["Senisa",3,0,2]},{"code":401,"indent":0,"parameters":["\\m[Senisa]Thoughts?"]},{"code":101,"indent":0,"parameters":["Kevar",5,0,2]},{"code":401,"indent":0,"parameters":["\\m[Kevar]A flirty thief."]},{"code":205,"indent":0,"parameters":[10,{"list":[{"code":16,"indent":null},{"code":15,"parameters":[60],"indent":null},{"code":14,"parameters":[0,0],"indent":null},{"code":15,"parameters":[60],"indent":null},{"code":0}],"repeat":false,"skippable":false,"wait":true}]},{"code":505,"indent":0,"parameters":[{"code":16,"indent":null}]},{"code":505,"indent":0,"parameters":[{"code":15,"parameters":[60],"indent":null}]},{"code":505,"indent":0,"parameters":[{"code":14,"parameters":[0,0],"indent":null}]},{"code":505,"indent":0,"parameters":[{"code":15,"parameters":[60],"indent":null}]},{"code":101,"indent":0,"parameters":["Nalia",3,0,2]},{"code":401,"indent":0,"parameters":["\\m[Nalia]Oh! He's singing a song I know!"]},{"code":205,"indent":0,"parameters":[-1,{"list":[{"code":18,"indent":null},{"code":0}],"repeat":false,"skippable":false,"wait":true}]},{"code":505,"indent":0,"parameters":[{"code":18,"indent":null}]},{"code":205,"indent":0,"parameters":[11,{"list":[{"code":18,"indent":null},{"code":0}],"repeat":false,"skippable":false,"wait":true}]},{"code":505,"indent":0,"parameters":[{"code":18,"indent":null}]},{"code":213,"indent":0,"parameters":[-1,6,false]},{"code":213,"indent":0,"parameters":[11,6,false]},{"code":230,"indent":0,"parameters":[90]},{"code":205,"indent":0,"parameters":[-1,{"list":[{"code":19,"indent":null},{"code":0}],"repeat":false,"skippable":false,"wait":true}]},{"code":505,"indent":0,"parameters":[{"code":19,"indent":null}]},{"code":205,"indent":0,"parameters":[11,{"list":[{"code":16,"indent":null},{"code":0}],"repeat":false,"skippable":false,"wait":true}]},{"code":505,"indent":0,"parameters":[{"code":16,"indent":null}]},{"code":101,"indent":0,"parameters":["Senisa",2,0,2]},{"code":401,"indent":0,"parameters":["\\m[Senisa]Should we trust him?"]},{"code":101,"indent":0,"parameters":["Kevar",1,0,2]},{"code":401,"indent":0,"parameters":["\\m[Kevar]Well...as long as he doesn't try to rob us."]},{"code":205,"indent":0,"parameters":[10,{"list":[{"code":1,"indent":null},{"code":1,"indent":null},{"code":1,"indent":null},{"code":1,"indent":null},{"code":1,"indent":null},{"code":0}],"repeat":false,"skippable":false,"wait":false}]},{"code":505,"indent":0,"parameters":[{"code":1,"indent":null}]},{"code":505,"indent":0,"parameters":[{"code":1,"indent":null}]},{"code":505,"indent":0,"parameters":[{"code":1,"indent":null}]},{"code":505,"indent":0,"parameters":[{"code":1,"indent":null}]},{"code":505,"indent":0,"parameters":[{"code":1,"indent":null}]},{"code":121,"indent":0,"parameters":[54,54,1]},{"code":205,"indent":0,"parameters":[8,{"list":[{"code":19,"indent":null},{"code":0}],"repeat":false,"skippable":false,"wait":false}]},{"code":505,"indent":0,"parameters":[{"code":19,"indent":null}]},{"code":213,"indent":0,"parameters":[10,3,true]},{"code":213,"indent":0,"parameters":[8,3,true]},{"code":213,"indent":0,"parameters":[-1,7,false]},{"code":213,"indent":0,"parameters":[11,7,false]},{"code":205,"indent":0,"parameters":[-1,{"list":[{"code":16,"indent":null},{"code":0}],"repeat":false,"skippable":false,"wait":true}]},{"code":505,"indent":0,"parameters":[{"code":16,"indent":null}]},{"code":101,"indent":0,"parameters":["Senisa",2,0,2]},{"code":401,"indent":0,"parameters":["\\m[Senisa]I think he's trying to steal something else."]},{"code":101,"indent":0,"parameters":["Kevar",5,0,2]},{"code":401,"indent":0,"parameters":["\\m[Kevar]I'll kill him then."]},{"code":205,"indent":0,"parameters":[-1,{"list":[{"code":1,"indent":null},{"code":1,"indent":null},{"code":1,"indent":null},{"code":1,"indent":null},{"code":18,"indent":null},{"code":0}],"repeat":false,"skippable":false,"wait":false}]},{"code":505,"indent":0,"parameters":[{"code":1,"indent":null}]},{"code":505,"indent":0,"parameters":[{"code":1,"indent":null}]},{"code":505,"indent":0,"parameters":[{"code":1,"indent":null}]},{"code":505,"indent":0,"parameters":[{"code":1,"indent":null}]},{"code":505,"indent":0,"parameters":[{"code":18,"indent":null}]},{"code":205,"indent":0,"parameters":[11,{"list":[{"code":1,"indent":null},{"code":1,"indent":null},{"code":1,"indent":null},{"code":1,"indent":null},{"code":1,"indent":null},{"code":1,"indent":null},{"code":18,"indent":null},{"code":0}],"repeat":false,"skippable":false,"wait":false}]},{"code":505,"indent":0,"parameters":[{"code":1,"indent":null}]},{"code":505,"indent":0,"parameters":[{"code":1,"indent":null}]},{"code":505,"indent":0,"parameters":[{"code":1,"indent":null}]},{"code":505,"indent":0,"parameters":[{"code":1,"indent":null}]},{"code":505,"indent":0,"parameters":[{"code":1,"indent":null}]},{"code":505,"indent":0,"parameters":[{"code":1,"indent":null}]},{"code":505,"indent":0,"parameters":[{"code":18,"indent":null}]},{"code":101,"indent":0,"parameters":["Senisa",7,0,2]},{"code":401,"indent":0,"parameters":["\\m[Senisa]All right, we'll help you. After all, "]},{"code":401,"indent":0,"parameters":["we have the same goal in mind anyway."]},{"code":205,"indent":0,"parameters":[8,{"list":[{"code":17,"indent":null},{"code":0}],"repeat":false,"skippable":false,"wait":true}]},{"code":505,"indent":0,"parameters":[{"code":17,"indent":null}]},{"code":101,"indent":0,"parameters":["Frei",2,0,2]},{"code":401,"indent":0,"parameters":["\\m[Frei]That's fantastic to hear. Wonderful actually."]},{"code":401,"indent":0,"parameters":["Happy to get to work with you all. I know my dances"]},{"code":401,"indent":0,"parameters":["will be very helpful."]},{"code":213,"indent":0,"parameters":[10,3,true]},{"code":101,"indent":0,"parameters":["Nalia",2,0,2]},{"code":401,"indent":0,"parameters":["\\m[Nalia]Oh, you can dance? Can you teach me!?"]},{"code":213,"indent":0,"parameters":[8,8,true]},{"code":205,"indent":0,"parameters":[8,{"list":[{"code":19,"indent":null},{"code":0}],"repeat":false,"skippable":false,"wait":true}]},{"code":505,"indent":0,"parameters":[{"code":19,"indent":null}]},{"code":213,"indent":0,"parameters":[8,4,true]},{"code":101,"indent":0,"parameters":["Frei",2,0,2]},{"code":401,"indent":0,"parameters":["\\m[Frei]I'll be more than happy---\\|\\|\\|\\^"]},{"code":213,"indent":0,"parameters":[-1,1,true]},{"code":213,"indent":0,"parameters":[11,1,true]},{"code":205,"indent":0,"parameters":[-1,{"list":[{"code":14,"parameters":[0,0],"indent":null},{"code":0}],"repeat":false,"skippable":false,"wait":true}]},{"code":505,"indent":0,"parameters":[{"code":14,"parameters":[0,0],"indent":null}]},{"code":205,"indent":0,"parameters":[11,{"list":[{"code":14,"parameters":[0,0],"indent":null},{"code":0}],"repeat":false,"skippable":false,"wait":true}]},{"code":505,"indent":0,"parameters":[{"code":14,"parameters":[0,0],"indent":null}]},{"code":101,"indent":0,"parameters":["Senisa2",0,0,2]},{"code":401,"indent":0,"parameters":["\\m[Senisa]No!\\|\\^"]},{"code":101,"indent":0,"parameters":["Kevar",5,0,2]},{"code":401,"indent":0,"parameters":["\\m[Kevar]No!"]},{"code":213,"indent":0,"parameters":[8,6,true]},{"code":213,"indent":0,"parameters":[10,2,true]},{"code":230,"indent":0,"parameters":[30]},{"code":221,"indent":0,"parameters":[]},{"code":250,"indent":0,"parameters":[{"name":"Chime2","volume":90,"pitch":100,"pan":0}]},{"code":230,"indent":0,"parameters":[60]},{"code":122,"indent":0,"parameters":[11,11,0,3,3,1,0]},{"code":122,"indent":0,"parameters":[11,11,2,0,1]},{"code":129,"indent":0,"parameters":[4,0,false]},{"code":316,"indent":0,"parameters":[0,4,0,1,11,false]},{"code":314,"indent":0,"parameters":[0,4]},{"code":216,"indent":0,"parameters":[0]},{"code":121,"indent":0,"parameters":[53,53,1]},{"code":205,"indent":0,"parameters":[8,{"list":[{"code":39,"indent":null,"parameters":[]},{"code":37,"indent":null,"parameters":[]},{"code":0,"indent":null,"parameters":[]}],"repeat":false,"skippable":false,"wait":true}]},{"code":505,"indent":0,"parameters":[{"code":39,"indent":null,"parameters":[]}]},{"code":505,"indent":0,"parameters":[{"code":37,"indent":null,"parameters":[]}]},{"code":101,"indent":0,"parameters":["",2,0,2]},{"code":401,"indent":0,"parameters":["\\C[2]Frei\\C[0] has joined."]},{"code":222,"indent":0,"parameters":[]},{"code":356,"indent":0,"parameters":["Quest 9 Complete Objective 1"]},{"code":356,"indent":0,"parameters":["Quest 9 Show Objective 2"]},{"code":356,"indent":0,"parameters":["Quest 9 Change Description Entry To 2"]},{"code":101,"indent":0,"parameters":["",0,0,2]},{"code":401,"indent":0,"parameters":["The ledger has been updated."]},{"code":244,"indent":0,"parameters":[]},{"code":121,"indent":0,"parameters":[55,55,0]},{"code":356,"indent":0,"parameters":["ShowActiveQuestWindow"]},{"code":0,"indent":0,"parameters":[]}],"moveFrequency":3,"moveRoute":{"list":[{"code":0,"parameters":[]}],"repeat":true,"skippable":false,"wait":false},"moveSpeed":3,"moveType":0,"priorityType":0,"stepAnime":false,"through":false,"trigger":1,"walkAnime":true},{"conditions":{"actorId":1,"actorValid":false,"itemId":1,"itemValid":false,"selfSwitchCh":"A","selfSwitchValid":false,"switch1Id":55,"switch1Valid":true,"switch2Id":1,"switch2Valid":false,"variableId":1,"variableValid":false,"variableValue":0},"directionFix":false,"image":{"characterIndex":0,"characterName":"","direction":2,"pattern":0,"tileId":0},"list":[{"code":0,"indent":0,"parameters":[]}],"moveFrequency":3,"moveRoute":{"list":[{"code":0,"parameters":[]}],"repeat":true,"skippable":false,"wait":false},"moveSpeed":3,"moveType":0,"priorityType":0,"stepAnime":false,"through":false,"trigger":0,"walkAnime":true}],"x":12,"y":14},
{"id":10,"name":"Nalia","note":"","pages":[{"conditions":{"actorId":1,"actorValid":false,"itemId":1,"itemValid":false,"selfSwitchCh":"A","selfSwitchValid":false,"switch1Id":53,"switch1Valid":true,"switch2Id":1,"switch2Valid":false,"variableId":1,"variableValid":false,"variableValue":0},"directionFix":false,"image":{"tileId":0,"characterName":"Nalia","direction":2,"pattern":1,"characterIndex":0},"list":[{"code":0,"indent":0,"parameters":[]}],"moveFrequency":5,"moveRoute":{"list":[{"code":0,"parameters":[]}],"repeat":true,"skippable":false,"wait":false},"moveSpeed":4,"moveType":0,"priorityType":1,"stepAnime":false,"through":false,"trigger":0,"walkAnime":true},{"conditions":{"actorId":1,"actorValid":false,"itemId":1,"itemValid":false,"selfSwitchCh":"A","selfSwitchValid":false,"switch1Id":55,"switch1Valid":true,"switch2Id":1,"switch2Valid":false,"variableId":1,"variableValid":false,"variableValue":0},"directionFix":false,"image":{"characterIndex":0,"characterName":"","direction":2,"pattern":0,"tileId":0},"list":[{"code":0,"indent":0,"parameters":[]}],"moveFrequency":3,"moveRoute":{"list":[{"code":0,"parameters":[]}],"repeat":true,"skippable":false,"wait":false},"moveSpeed":3,"moveType":0,"priorityType":0,"stepAnime":false,"through":false,"trigger":0,"walkAnime":true}],"x":11,"y":12},
{"id":11,"name":"Kevar","note":"","pages":[{"conditions":{"actorId":1,"actorValid":false,"itemId":1,"itemValid":false,"selfSwitchCh":"A","selfSwitchValid":false,"switch1Id":53,"switch1Valid":true,"switch2Id":1,"switch2Valid":false,"variableId":1,"variableValid":false,"variableValue":0},"directionFix":false,"image":{"tileId":0,"characterName":"Kevar","direction":2,"pattern":1,"characterIndex":0},"list":[{"code":0,"indent":0,"parameters":[]}],"moveFrequency":5,"moveRoute":{"list":[{"code":0,"parameters":[]}],"repeat":true,"skippable":false,"wait":false},"moveSpeed":4,"moveType":0,"priorityType":1,"stepAnime":false,"through":false,"trigger":0,"walkAnime":true},{"conditions":{"actorId":1,"actorValid":false,"itemId":1,"itemValid":false,"selfSwitchCh":"A","selfSwitchValid":false,"switch1Id":55,"switch1Valid":true,"switch2Id":1,"switch2Valid":false,"variableId":1,"variableValid":false,"variableValue":0},"directionFix":false,"image":{"characterIndex":0,"characterName":"","direction":2,"pattern":0,"tileId":0},"list":[{"code":0,"indent":0,"parameters":[]}],"moveFrequency":3,"moveRoute":{"list":[{"code":0,"parameters":[]}],"repeat":true,"skippable":false,"wait":false},"moveSpeed":3,"moveType":0,"priorityType":0,"stepAnime":false,"through":false,"trigger":0,"walkAnime":true}],"x":13,"y":12},
null,
null,
null
]
}