{
"autoplayBgm":false,"autoplayBgs":false,"battleback1Name":"","battleback2Name":"","bgm":{"name":"","pan":0,"pitch":100,"volume":90},"bgs":{"name":"","pan":0,"pitch":100,"volume":90},"disableDashing":false,"displayName":"Weapon/Armor Shop","encounterList":[],"encounterStep":30,"height":17,"note":"<General Location: Holy City of An>","parallaxLoopX":false,"parallaxLoopY":false,"parallaxName":"","parallaxShow":true,"parallaxSx":0,"parallaxSy":0,"scrollType":0,"specifyBattleback":false,"tilesetId":16,"width":28,
"data":[6848,6848,6848,6848,6848,6848,6848,6848,6848,6848,6848,6848,6848,6848,6848,6848,6848,6848,6848,6848,6848,6848,6848,6848,6848,6848,6848,6848,6848,6852,6876,6876,6876,6876,6876,6876,6876,6876,6876,6876,6876,6876,6876,6876,6876,6876,6876,6876,6876,6876,6876,6876,6876,6876,6856,6848,6848,6872,7282,7282,7282,7282,7282,7282,7282,7282,7282,7282,7282,7282,7282,7282,7282,7282,7282,7282,7282,7282,7282,7282,7282,7282,6864,6848,6848,6872,7288,7288,7288,7288,7288,7288,7288,7288,7288,7288,7288,7288,7288,7288,7288,7288,7288,7288,7288,7288,7288,7288,7288,7288,6864,6848,6848,6872,3666,3652,3652,3652,3652,3652,3668,3618,3604,3604,3604,3604,3604,3604,3604,3604,3620,3666,3652,3652,3652,3652,3652,3668,6864,6848,6848,6872,3672,3660,3660,3660,3640,3632,3656,3600,3584,3584,3584,3584,3584,3584,3584,3584,3608,3648,3632,3636,3660,3660,3660,3670,6864,6848,6848,6872,3387,3377,3377,3389,3648,3632,3656,3600,3584,3584,3584,3584,3584,3584,3584,3584,3608,3648,3632,3656,3387,3377,3377,3389,6864,6848,6848,6872,3666,3652,3652,3652,3633,3632,3656,3624,3612,3612,3612,3612,3612,3612,3612,3612,3622,3648,3632,3634,3652,3652,3652,3668,6864,6848,6848,6872,3648,3632,3632,3632,3632,3632,3656,6882,6868,6868,6868,6868,6868,6868,6868,6868,6884,3648,3632,3632,3632,3632,3632,3656,6864,6848,6848,6872,3672,3660,3640,3632,3636,3660,3670,6864,6848,6848,6848,6848,6848,6848,6848,6848,6872,3672,3660,3640,3632,3636,3660,3670,6864,6848,6848,6872,3387,3389,3648,3632,3656,3387,3389,6864,6848,6848,6848,6848,6848,6848,6848,6848,6872,3387,3389,3648,3632,3656,3387,3389,6864,6848,6848,6872,3666,3652,3633,3632,3634,3652,3668,6864,6848,6848,6848,6848,6848,6848,6848,6848,6872,3666,3652,3633,3632,3634,3652,3668,6864,6848,6848,6872,3672,3660,3640,3632,3636,3660,3670,6864,6848,6848,6848,6848,6848,6848,6848,6848,6872,3672,3660,3640,3632,3636,3660,3670,6864,6848,6848,6872,3387,3389,3648,3632,3656,3387,3389,6864,6848,6848,6848,6848,6848,6848,6848,6848,6872,3387,3389,3648,3632,3656,3387,3389,6864,6848,6848,6872,3675,3665,3661,3644,3662,3665,3677,6864,6848,6848,6848,6848,6848,6848,6848,6848,6872,3675,3665,3661,3644,3662,3665,3677,6864,6848,6848,6850,6868,6868,6884,3676,6882,6868,6868,6849,6848,6848,6848,6848,6848,6848,6848,6848,6850,6868,6868,6884,3676,6882,6868,6868,6849,6848,6848,6848,6848,6848,6850,6868,6849,6848,6848,6848,6848,6848,6848,6848,6848,6848,6848,6848,6848,6848,6848,6850,6868,6849,6848,6848,6848,6848,0,0,0,0,0,0,0,0,0,0,0,0,0,0,0,0,0,0,0,0,0,0,0,0,0,0,0,0,0,0,0,0,0,0,0,0,0,0,0,0,0,0,0,0,0,0,0,0,0,0,0,0,0,0,0,0,0,0,0,0,0,0,0,0,0,0,0,0,0,0,0,0,0,0,0,0,0,0,0,0,0,0,0,0,0,0,0,0,0,0,0,0,0,0,0,0,0,0,0,0,0,0,0,0,0,0,0,0,0,0,0,0,0,0,0,0,0,3962,0,0,0,3138,3124,3124,3124,3124,3124,3124,3124,3124,3140,0,0,0,3962,0,0,0,0,0,0,0,3963,3953,3953,3959,0,0,0,3120,3104,3104,3104,3104,3104,3104,3104,3104,3128,0,0,0,3961,3953,3953,3965,0,0,0,0,0,0,0,0,0,0,0,3120,3104,3104,3104,3104,3104,3104,3104,3104,3128,0,0,0,0,0,0,0,0,0,0,0,0,0,0,0,0,0,0,3144,3132,3132,3132,3132,3132,3132,3132,3132,3142,0,0,0,0,0,0,0,0,0,0,0,0,0,0,0,0,0,0,0,0,0,0,0,0,0,0,0,0,0,0,0,0,0,0,0,0,0,0,0,3963,3965,0,0,0,3963,3965,0,0,0,0,0,0,0,0,0,0,3963,3965,0,0,0,3963,3965,0,0,0,0,0,0,0,0,0,0,0,0,0,0,0,0,0,0,0,0,0,0,0,0,0,0,0,0,0,0,0,0,0,0,0,0,0,0,0,0,0,0,0,0,0,0,0,0,0,0,0,0,0,0,0,0,0,0,0,0,3963,3965,0,0,0,3963,3965,0,0,0,0,0,0,0,0,0,0,3963,3965,0,0,0,3963,3965,0,0,0,0,0,0,0,0,0,0,0,0,0,0,0,0,0,0,0,0,0,0,0,3966,0,0,0,0,0,0,0,0,0,0,0,0,0,0,0,0,0,0,0,0,0,0,0,0,0,0,0,0,0,0,0,0,0,0,0,0,0,0,0,0,0,0,0,0,0,0,0,0,0,0,0,0,0,0,0,0,0,0,0,0,0,0,0,0,0,0,0,0,0,0,0,0,0,0,0,0,0,0,0,0,0,0,0,0,0,0,0,0,0,0,0,0,0,0,0,0,0,0,0,0,0,0,0,0,0,0,0,0,0,0,0,0,0,0,0,0,0,0,0,0,0,0,0,0,0,0,0,0,0,0,0,0,0,0,0,0,0,0,0,0,0,0,0,0,0,0,0,0,0,0,0,0,0,0,0,0,0,0,0,0,0,0,0,0,0,0,0,0,0,0,0,0,0,0,0,0,0,0,0,0,0,0,0,0,0,0,0,0,0,0,0,0,0,0,0,0,0,0,0,0,0,0,0,0,0,0,0,0,0,0,0,0,0,0,0,0,0,0,0,0,0,0,0,0,0,0,0,0,0,0,0,0,0,0,0,0,0,0,0,0,0,0,0,0,0,0,0,0,0,0,0,0,0,0,0,0,0,0,0,0,0,0,0,0,0,0,0,0,0,0,0,0,0,0,0,0,0,0,0,0,0,0,0,0,0,0,0,0,0,0,0,0,0,0,0,0,0,0,0,0,0,0,0,0,0,0,0,0,0,0,0,0,0,0,0,0,0,0,0,0,0,0,0,0,0,0,0,0,0,0,0,0,0,0,0,0,0,0,0,0,0,0,0,0,0,0,0,0,0,0,0,0,0,0,0,0,0,0,0,0,0,0,0,0,0,0,0,0,0,0,0,0,0,0,0,0,0,0,0,0,0,0,0,0,0,0,0,0,0,0,0,0,0,0,0,0,0,0,0,0,0,0,0,0,0,0,0,0,0,0,0,0,0,0,0,0,0,0,0,0,0,0,0,0,0,0,0,0,0,0,0,0,0,0,0,0,0,0,0,0,0,0,0,0,0,0,0,0,0,0,0,0,0,0,0,0,0,0,0,0,0,0,0,0,0,0,0,0,0,0,0,0,0,0,0,0,0,0,0,0,0,0,0,0,0,0,0,0,0,0,0,0,0,0,0,0,0,0,0,0,0,0,0,0,0,0,0,0,0,0,0,0,0,0,0,0,0,0,0,0,0,0,0,0,0,0,0,0,0,0,0,0,0,0,0,0,0,0,0,0,0,0,0,0,0,0,0,0,0,0,0,0,0,0,0,0,0,0,0,0,0,0,0,0,0,0,0,0,0,0,0,0,0,0,0,0,0,0,0,0,0,0,0,0,0,0,0,0,0,0,0,0,0,0,0,0,0,0,0,0,0,0,0,0,0,0,0,0,0,0,0,0,0,0,0,0,0,0,0,0,0,0,0,0,0,64,65,602,603,64,65,0,0,0,0,744,745,0,0,0,64,65,0,0,0,64,65,613,0,0,0,0,0,72,73,0,0,72,73,0,0,0,0,752,753,0,0,0,72,73,629,631,0,72,73,0,0,0,0,0,0,0,0,509,0,0,0,706,707,918,748,764,765,748,919,707,708,0,637,639,509,0,0,0,0,0,0,0,509,536,0,0,0,0,0,714,715,0,0,0,0,0,0,715,716,0,0,0,0,0,536,509,0,0,0,0,0,0,0,135,0,0,0,0,0,0,0,0,0,0,0,0,0,0,0,0,138,0,0,0,0,0,0,0,0,0,0,0,0,0,0,388,389,296,288,390,391,288,288,388,389,0,0,0,0,0,0,0,0,0,0,0,0,0,642,0,640,0,0,0,0,0,0,0,0,0,0,0,0,0,0,629,0,625,0,0,0,0,0,0,610,530,650,0,648,530,607,0,0,0,0,0,0,0,0,0,0,920,530,637,0,633,530,923,0,0,0,0,0,0,0,0,0,0,0,0,0,0,0,0,0,0,0,0,0,0,0,0,0,0,0,0,0,0,0,0,0,0,0,0,641,0,0,0,0,0,0,0,0,0,0,0,0,0,0,624,0,630,0,0,0,0,0,0,600,530,652,0,649,530,601,0,0,0,0,0,0,0,0,0,0,925,530,632,0,638,530,922,0,0,0,0,0,0,0,0,0,0,0,0,0,0,0,0,0,0,0,0,0,0,0,536,0,0,0,0,0,0,0,0,0,0,0,0,0,0,0,0,0,0,0,0,0,0,0,0,0,0,0,0,0,0,0,0,0,0,0,0,0,0,0,0,0,0,0,0,0,0,0,0,0,0,0,0,0,0,0,0,0,0,0,0,0,0,0,0,0,0,0,0,0,0,0,0,0,0,0,0,0,0,0,0,0,0,0,0,0,0,0,0,0,0,0,0,0,0,0,0,0,0,0,0,0,0,0,0,0,0,0,0,0,0,0,0,0,0,0,0,0,0,0,0,0,0,0,0,0,0,0,0,0,0,0,0,0,0,0,0,0,0,0,0,0,0,0,0,0,0,0,0,0,0,0,0,0,0,0,0,0,0,0,0,0,0,0,0,0,0,0,0,0,0,0,0,0,0,0,0,0,0,0,0,0,0,0,0,0,0,0,0,0,0,0,0,0,0,0,0,0,0,0,0,0,0,0,0,5,0,0,0,0,0,0,0,0,0,0,0,0,0,0,0,0,0,0,0,0,0,0,0,0,0,0,0,5,0,0,0,0,0,0,0,0,0,0,0,0,0,0,0,0,0,0,0,0,0,0,0,0,0,0,0,5,0,0,0,0,0,0,0,0,0,0,0,0,0,0,0,0,0,0,0,0,0,0,0,0,0,0,0,5,0,0,0,0,0,0,0,0,0,0,0,0,0,0,0,0,0,0,0,0,0,0,0,0,0,0,0,5,0,0,0,0,0,0,0,0,0,0,0,0,0,0,0,0,0,0,0,0,0,0,0,0,0,0,0,5,0,0,0,0,0,0,0,0,0,0,0,0,0,0,0,0,5,0,0,0,0,0,0,0,0,0,0,5,0,0,0,0,0,0,0,0,0,0,0,0,0,0,0,0,5,0,0,0,0,0,0,0,0,0,0,5,0,0,0,0,0,0,0,0,0,0,0,0,0,0,0,0,5,0,0,0,0,0,0,0,0,0,0,5,0,0,0,0,0,0,0,0,0,0,0,0,0,0,0,0,5,0,0,0,0,0,0,0,0,0,0,5,0,0,0,0,0,0,0,0,0,0,0,0,0,0,0,0,5,0,0,0,0,0,0,0,0,0,0,5,0,0,0,0,0,0,0,0,0,0,0,0,0,0,0,0,5,0,0,0,0,0,0,0,0,0,0,0,0,0,0,0,0,0,0,0,0,0,0,0,0,0,0,0,0,0,0,0,0,0,0,0,0,0,0,0,0,0,0,0,0,0,0,0,0,0,0,0,0,0,0,0,0,0,0,0,0,0,0,0,0,0,0,0,0,0,0,0,0,0,0,0,0,0,0,0,0,0,0,0,0,0,0,0,0,0,0,0,0,0,0,0,0,0,0,0,0,0,0,0,0,0,0,0,0,0,0,0,0,0,0,0,0,0,0,0,0,0,0,0,0,0,0,0,0,0,0,0,0,0,0,0,0,0,0,0,0,0,0,0,0,0,0,0,0,0,0,0,0,0,0,0,0,0,0,0,0,0,0,0,0,0,0,0,0,0,0,0,0,0,0,0,0,0,0,0,0,0,0,0,0,0,0,0,0,0,0,0,0,0,0,0,0,0,0,0,0,0,0,0,0,0,0,0,0,0,0,0,0,0,0,0,0,0,0,0,0,0,0,0,0,0,0,0,0,0,0,0,0,0,0,0,0,0,0,0,0,0,0,0,0,0,0,0,0,0,0,0,0,0,0,0,0,0,0,0,0,0,0,0,0,0,0,0,0,0,0,0,0,0,0,0,0,0,0,0,0,0,0,0,0,0,0,0,0,0,0,0,0,0,0,0,0,0,0,0,0,0,0,0,0,0,0,0,0,0,0,0,0,0,0,0,0,0,0,0,0,0,0,0,0,0,0,0,0,0,0,0,0,0,0,0,0,0,0,0,0,0,0,0,0,0,0,0,0,0,0,0,0,0,0,0,0,0,0,0,0,0,0,0,0,0,0,0,0,0,0,0,0,0,0,0,0,0,0,0,0,0,0,0,0,0,0,0,0,0,0,0,0,0,0,0,0,0,0,0,0,0,0,0,0,0,0,0,0,0,0,0,0,0,0,0,0,0,0,0,0,0,0,0,0,0,0,0,0,0,0,0,0,0,0,0,0,0,0,0,0,0,0,0,0,0,0,0,0,0,0,0,0,0,0,0,0,0,0,0,0,0,0,0,0,0,0,0,0,0,0,0,0,0,0,0,0,0,0,0,0,0,0,0,0,0,0,0,0,0,0,0,0,0,0,0,0,0,0,0,0,0,0,0,0,0,0,0,0,0,0,0,0,0,0,0,0,0,0,0,0,0,0,0,0,0,0,0,0,0,0,0,0,0,0,0,0,0,0,0,0],
"events":[
null,
{"id":1,"name":"EV001","note":"","pages":[{"conditions":{"actorId":1,"actorValid":false,"itemId":1,"itemValid":false,"selfSwitchCh":"A","selfSwitchValid":false,"switch1Id":1,"switch1Valid":false,"switch2Id":1,"switch2Valid":false,"variableId":1,"variableValid":false,"variableValue":0},"directionFix":true,"image":{"tileId":0,"characterName":"!Flame","direction":2,"pattern":1,"characterIndex":0},"list":[{"code":0,"indent":0,"parameters":[]}],"moveFrequency":3,"moveRoute":{"list":[{"code":0,"parameters":[]}],"repeat":true,"skippable":false,"wait":false},"moveSpeed":3,"moveType":0,"priorityType":1,"stepAnime":true,"through":false,"trigger":0,"walkAnime":true}],"x":11,"y":2},
{"id":2,"name":"EV002","note":"","pages":[{"conditions":{"actorId":1,"actorValid":false,"itemId":1,"itemValid":false,"selfSwitchCh":"A","selfSwitchValid":false,"switch1Id":1,"switch1Valid":false,"switch2Id":1,"switch2Valid":false,"variableId":1,"variableValid":false,"variableValue":0},"directionFix":true,"image":{"tileId":0,"characterName":"!Flame","direction":2,"pattern":1,"characterIndex":0},"list":[{"code":0,"indent":0,"parameters":[]}],"moveFrequency":3,"moveRoute":{"list":[{"code":0,"parameters":[]}],"repeat":true,"skippable":false,"wait":false},"moveSpeed":3,"moveType":0,"priorityType":1,"stepAnime":true,"through":false,"trigger":0,"walkAnime":true}],"x":16,"y":2},
{"id":3,"name":"Michio","note":"","pages":[{"conditions":{"actorId":1,"actorValid":false,"itemId":1,"itemValid":false,"selfSwitchCh":"A","selfSwitchValid":false,"switch1Id":1,"switch1Valid":false,"switch2Id":1,"switch2Valid":false,"variableId":1,"variableValid":false,"variableValue":0},"directionFix":false,"image":{"tileId":0,"characterName":"People1","direction":2,"pattern":1,"characterIndex":2},"moveFrequency":3,"moveRoute":{"list":[{"code":0,"indent":null,"parameters":[]}],"repeat":true,"skippable":false,"wait":false},"moveSpeed":3,"moveType":0,"priorityType":1,"stepAnime":false,"through":false,"trigger":0,"walkAnime":true,"list":[{"code":356,"indent":0,"parameters":["HideActiveQuestWindow"]},{"code":101,"indent":0,"parameters":["",2,0,2]},{"code":401,"indent":0,"parameters":["\\n<Michio>Good day to you Miss. Nalia."]},{"code":101,"indent":0,"parameters":["Nalia",3,0,2]},{"code":401,"indent":0,"parameters":["\\m[Nalia]Mr.Michio! I came for some armor."]},{"code":101,"indent":0,"parameters":["",2,0,2]},{"code":401,"indent":0,"parameters":["\\n<Michio>Is it for Kevar?"]},{"code":101,"indent":0,"parameters":["Nalia",1,0,2]},{"code":401,"indent":0,"parameters":["\\m[Nalia]Nope. This time, it's for me! I'm "]},{"code":401,"indent":0,"parameters":["heading to \\C[1]Dormino\\C[0]."]},{"code":101,"indent":0,"parameters":["",2,0,2]},{"code":401,"indent":0,"parameters":["\\n<Michio>I see. Well congratulations! I'll be happy"]},{"code":401,"indent":0,"parameters":["to help you look through what I have. You need to "]},{"code":401,"indent":0,"parameters":["be properly geared. I even have a good starter shield"]},{"code":401,"indent":0,"parameters":["for you."]},{"code":302,"indent":0,"parameters":[2,1,0,0,false]},{"code":605,"indent":0,"parameters":[2,21,0,0]},{"code":605,"indent":0,"parameters":[2,41,0,0]},{"code":605,"indent":0,"parameters":[2,61,0,0]},{"code":605,"indent":0,"parameters":[2,79,0,0]},{"code":605,"indent":0,"parameters":[2,97,0,0]},{"code":605,"indent":0,"parameters":[2,115,0,0]},{"code":101,"indent":0,"parameters":["",0,0,2]},{"code":401,"indent":0,"parameters":["\\n<Michio>Come back safe and sound, ok?"]},{"code":101,"indent":0,"parameters":["Nalia",2,0,2]},{"code":401,"indent":0,"parameters":["\\m[Nalia]I will!"]},{"code":122,"indent":0,"parameters":[60,60,1,0,1]},{"code":356,"indent":0,"parameters":["Quest 4 Complete Objective 4"]},{"code":123,"indent":0,"parameters":["A",0]},{"code":356,"indent":0,"parameters":["ShowActiveQuestWindow"]},{"code":0,"indent":0,"parameters":[]}]},{"conditions":{"actorId":1,"actorValid":false,"itemId":1,"itemValid":false,"selfSwitchCh":"A","selfSwitchValid":true,"switch1Id":1,"switch1Valid":false,"switch2Id":1,"switch2Valid":false,"variableId":1,"variableValid":false,"variableValue":0},"directionFix":false,"image":{"tileId":0,"characterName":"People1","direction":2,"pattern":1,"characterIndex":2},"moveFrequency":3,"moveRoute":{"list":[{"code":0,"indent":null,"parameters":[]}],"repeat":true,"skippable":false,"wait":false},"moveSpeed":3,"moveType":0,"priorityType":1,"stepAnime":false,"through":false,"trigger":0,"walkAnime":true,"list":[{"code":356,"indent":0,"parameters":["HideActiveQuestWindow"]},{"code":101,"indent":0,"parameters":["",2,0,2]},{"code":401,"indent":0,"parameters":["\\n<Michio>Oh? Welcome to the shop. What"]},{"code":401,"indent":0,"parameters":["do you need?"]},{"code":302,"indent":0,"parameters":[2,1,0,0,false]},{"code":605,"indent":0,"parameters":[2,21,0,0]},{"code":605,"indent":0,"parameters":[2,41,0,0]},{"code":605,"indent":0,"parameters":[2,61,0,0]},{"code":605,"indent":0,"parameters":[2,79,0,0]},{"code":605,"indent":0,"parameters":[2,97,0,0]},{"code":605,"indent":0,"parameters":[2,115,0,0]},{"code":101,"indent":0,"parameters":["",0,0,2]},{"code":401,"indent":0,"parameters":["\\n<Michio>Thanks."]},{"code":356,"indent":0,"parameters":["ShowActiveQuestWindow"]},{"code":0,"indent":0,"parameters":[]}]}],"x":24,"y":4},
{"id":4,"name":"Nowel","note":"","pages":[{"conditions":{"actorId":1,"actorValid":false,"itemId":1,"itemValid":false,"selfSwitchCh":"A","selfSwitchValid":false,"switch1Id":1,"switch1Valid":false,"switch2Id":1,"switch2Valid":false,"variableId":1,"variableValid":false,"variableValue":0},"directionFix":true,"image":{"tileId":0,"characterName":"Young Men 2","direction":6,"pattern":1,"characterIndex":2},"moveFrequency":3,"moveRoute":{"list":[{"code":0,"indent":null,"parameters":[]}],"repeat":true,"skippable":false,"wait":false},"moveSpeed":3,"moveType":0,"priorityType":1,"stepAnime":false,"through":false,"trigger":0,"walkAnime":true,"list":[{"code":356,"indent":0,"parameters":["HideActiveQuestWindow"]},{"code":101,"indent":0,"parameters":["",0,0,2]},{"code":401,"indent":0,"parameters":["\\n<Nowel>So the other day, I was...\\|\\|\\|"]},{"code":401,"indent":0,"parameters":["Oh, Nalia."]},{"code":205,"indent":0,"parameters":[5,{"list":[{"code":16,"indent":null},{"code":0}],"repeat":false,"skippable":false,"wait":true}]},{"code":505,"indent":0,"parameters":[{"code":16,"indent":null}]},{"code":213,"indent":0,"parameters":[5,3,true]},{"code":101,"indent":0,"parameters":["",0,0,2]},{"code":401,"indent":0,"parameters":["\\n<Meima>Hey Nalia! What brings you here?"]},{"code":101,"indent":0,"parameters":["Nalia",0,0,2]},{"code":401,"indent":0,"parameters":["\\m[Nalia]Hi Nowel! Hi Meima! I finally came to buy my"]},{"code":401,"indent":0,"parameters":["first weapon! I've finally been allowed to leave the"]},{"code":401,"indent":0,"parameters":["city."]},{"code":101,"indent":0,"parameters":["",0,0,2]},{"code":401,"indent":0,"parameters":["\\n<Meima>Oh wow, that's awesome!"]},{"code":101,"indent":0,"parameters":["",0,0,2]},{"code":401,"indent":0,"parameters":["\\n<Nowel>Without your guard?"]},{"code":101,"indent":0,"parameters":["Nalia",2,0,2]},{"code":401,"indent":0,"parameters":["\\m[Nalia]Nope. I have Ms. Senisa with me. We're"]},{"code":401,"indent":0,"parameters":["heading to meet up with Kevvy in \\C[1]Dormino\\C[0]."]},{"code":401,"indent":0,"parameters":["So, we need to head out soon."]},{"code":101,"indent":0,"parameters":["",0,0,2]},{"code":401,"indent":0,"parameters":["\\n<Nowel>Well as long as it's okay, you can buy that"]},{"code":401,"indent":0,"parameters":["Rapier you've always been eyeing."]},{"code":111,"indent":0,"parameters":[8,50]},{"code":302,"indent":1,"parameters":[1,1,0,0,false]},{"code":605,"indent":1,"parameters":[1,16,0,0]},{"code":0,"indent":1,"parameters":[]},{"code":411,"indent":0,"parameters":[]},{"code":302,"indent":1,"parameters":[1,1,0,0,false]},{"code":605,"indent":1,"parameters":[1,16,0,0]},{"code":605,"indent":1,"parameters":[0,50,0,0]},{"code":0,"indent":1,"parameters":[]},{"code":412,"indent":0,"parameters":[]},{"code":101,"indent":0,"parameters":["",0,0,2]},{"code":401,"indent":0,"parameters":["\\n<Nowel>Have a safe trip."]},{"code":101,"indent":0,"parameters":["",0,0,2]},{"code":401,"indent":0,"parameters":["\\n<Meima>See you when you get back!"]},{"code":122,"indent":0,"parameters":[60,60,1,0,1]},{"code":356,"indent":0,"parameters":["Quest 4 Complete Objective 3"]},{"code":123,"indent":0,"parameters":["A",0]},{"code":356,"indent":0,"parameters":["ShowActiveQuestWindow"]},{"code":0,"indent":0,"parameters":[]}]},{"conditions":{"actorId":1,"actorValid":false,"itemId":1,"itemValid":false,"selfSwitchCh":"A","selfSwitchValid":true,"switch1Id":1,"switch1Valid":false,"switch2Id":1,"switch2Valid":false,"variableId":1,"variableValid":false,"variableValue":0},"directionFix":true,"image":{"tileId":0,"characterName":"Young Men 2","direction":6,"pattern":1,"characterIndex":2},"moveFrequency":3,"moveRoute":{"list":[{"code":0,"indent":null,"parameters":[]}],"repeat":true,"skippable":false,"wait":false},"moveSpeed":3,"moveType":0,"priorityType":1,"stepAnime":false,"through":false,"trigger":0,"walkAnime":true,"list":[{"code":356,"indent":0,"parameters":["HideActiveQuestWindow"]},{"code":101,"indent":0,"parameters":["",0,0,2]},{"code":401,"indent":0,"parameters":["\\n<Nowel>As I was saying...\\|\\^"]},{"code":401,"indent":0,"parameters":["Oh, hello, you want something? That's a "]},{"code":401,"indent":0,"parameters":["rarity. Business is usually slow here."]},{"code":101,"indent":0,"parameters":["",0,0,2]},{"code":401,"indent":0,"parameters":["\\n<Nowel>Ok, I'll show you what we have here."]},{"code":111,"indent":0,"parameters":[8,50]},{"code":302,"indent":1,"parameters":[1,1,0,0,false]},{"code":605,"indent":1,"parameters":[1,16,0,0]},{"code":0,"indent":1,"parameters":[]},{"code":411,"indent":0,"parameters":[]},{"code":302,"indent":1,"parameters":[1,1,0,0,false]},{"code":605,"indent":1,"parameters":[1,16,0,0]},{"code":605,"indent":1,"parameters":[0,50,0,0]},{"code":0,"indent":1,"parameters":[]},{"code":412,"indent":0,"parameters":[]},{"code":101,"indent":0,"parameters":["",0,0,2]},{"code":401,"indent":0,"parameters":["\\n<Nowel>Thanks, I suppose. Our blacksmith is out of"]},{"code":401,"indent":0,"parameters":["town, but I know the nearest smithy is \\C[1]Dormino\\C[0]."]},{"code":401,"indent":0,"parameters":["I suggest taking the book there."]},{"code":356,"indent":0,"parameters":["ShowActiveQuestWindow"]},{"code":0,"indent":0,"parameters":[]}]}],"x":3,"y":4},
{"id":5,"name":"Meima","note":"","pages":[{"conditions":{"actorId":1,"actorValid":false,"itemId":1,"itemValid":false,"selfSwitchCh":"A","selfSwitchValid":false,"switch1Id":1,"switch1Valid":false,"switch2Id":1,"switch2Valid":false,"variableId":1,"variableValid":false,"variableValue":0},"directionFix":false,"image":{"tileId":0,"characterName":"Girls 4","direction":4,"pattern":1,"characterIndex":4},"moveFrequency":3,"moveRoute":{"list":[{"code":0,"indent":null,"parameters":[]}],"repeat":true,"skippable":false,"wait":false},"moveSpeed":3,"moveType":0,"priorityType":1,"stepAnime":false,"through":false,"trigger":0,"walkAnime":true,"list":[{"code":101,"indent":0,"parameters":["",0,0,2]},{"code":401,"indent":0,"parameters":["\\n<Meima>Sorry, I'm not the clerk. That's Nowel's job."]},{"code":401,"indent":0,"parameters":["Though, he'd be surprised to see a customer here."]},{"code":0,"indent":0,"parameters":[]}]}],"x":4,"y":4},
{"id":6,"name":"EV006","note":"","pages":[{"conditions":{"actorId":1,"actorValid":false,"itemId":1,"itemValid":false,"selfSwitchCh":"A","selfSwitchValid":false,"switch1Id":1,"switch1Valid":false,"switch2Id":1,"switch2Valid":false,"variableId":1,"variableValid":false,"variableValue":0},"directionFix":false,"image":{"tileId":0,"characterName":"","direction":2,"pattern":0,"characterIndex":0},"moveFrequency":3,"moveRoute":{"list":[{"code":0,"indent":null,"parameters":[]}],"repeat":true,"skippable":false,"wait":false},"moveSpeed":3,"moveType":0,"priorityType":1,"stepAnime":false,"through":false,"trigger":0,"walkAnime":true,"list":[{"code":101,"indent":0,"parameters":["",0,0,2]},{"code":401,"indent":0,"parameters":["                   \\C[3]Short Sword\\C[0]"]},{"code":401,"indent":0,"parameters":["                  \\C[4]Cost: 375G\\C[0] "]},{"code":401,"indent":0,"parameters":["A small, light sword that is good for beginners."]},{"code":0,"indent":0,"parameters":[]}]}],"x":3,"y":12},
{"id":7,"name":"EV007","note":"","pages":[{"conditions":{"actorId":1,"actorValid":false,"itemId":1,"itemValid":false,"selfSwitchCh":"A","selfSwitchValid":false,"switch1Id":1,"switch1Valid":false,"switch2Id":1,"switch2Valid":false,"variableId":1,"variableValid":false,"variableValue":0},"directionFix":false,"image":{"tileId":0,"characterName":"","direction":2,"pattern":0,"characterIndex":0},"moveFrequency":3,"moveRoute":{"list":[{"code":0,"indent":null,"parameters":[]}],"repeat":true,"skippable":false,"wait":false},"moveSpeed":3,"moveType":0,"priorityType":1,"stepAnime":false,"through":false,"trigger":0,"walkAnime":true,"list":[{"code":101,"indent":0,"parameters":["",0,0,2]},{"code":401,"indent":0,"parameters":["                   \\C[3]Bow and Quiver\\C[0]"]},{"code":401,"indent":0,"parameters":["                  \\C[4]Cost: 500G\\C[0] "]},{"code":401,"indent":0,"parameters":["A sturdy bow and a quiver of 50 arrows."]},{"code":401,"indent":0,"parameters":["Arrows can be purchased separately."]},{"code":0,"indent":0,"parameters":[]}]}],"x":3,"y":9},
{"id":8,"name":"EV008","note":"","pages":[{"conditions":{"actorId":1,"actorValid":false,"itemId":1,"itemValid":false,"selfSwitchCh":"A","selfSwitchValid":false,"switch1Id":1,"switch1Valid":false,"switch2Id":1,"switch2Valid":false,"variableId":1,"variableValid":false,"variableValue":0},"directionFix":false,"image":{"tileId":0,"characterName":"","direction":2,"pattern":0,"characterIndex":0},"moveFrequency":3,"moveRoute":{"list":[{"code":0,"indent":null,"parameters":[]}],"repeat":true,"skippable":false,"wait":false},"moveSpeed":3,"moveType":0,"priorityType":1,"stepAnime":false,"through":false,"trigger":0,"walkAnime":true,"list":[{"code":101,"indent":0,"parameters":["",0,0,2]},{"code":401,"indent":0,"parameters":["                   \\C[3]Daggers\\C[0]"]},{"code":401,"indent":0,"parameters":["                  \\C[4]Cost: 60G\\C[0] each."]},{"code":401,"indent":0,"parameters":["Throwing daggers that are useful in battle and"]},{"code":401,"indent":0,"parameters":["the daredevil juggler."]},{"code":0,"indent":0,"parameters":[]}]}],"x":7,"y":9},
{"id":9,"name":"EV009","note":"","pages":[{"conditions":{"actorId":1,"actorValid":false,"itemId":1,"itemValid":false,"selfSwitchCh":"A","selfSwitchValid":false,"switch1Id":1,"switch1Valid":false,"switch2Id":1,"switch2Valid":false,"variableId":1,"variableValid":false,"variableValue":0},"directionFix":false,"image":{"tileId":0,"characterName":"","direction":2,"pattern":0,"characterIndex":0},"moveFrequency":3,"moveRoute":{"list":[{"code":0,"indent":null,"parameters":[]}],"repeat":true,"skippable":false,"wait":false},"moveSpeed":3,"moveType":0,"priorityType":1,"stepAnime":false,"through":false,"trigger":0,"walkAnime":true,"list":[{"code":101,"indent":0,"parameters":["",0,0,2]},{"code":401,"indent":0,"parameters":["                   \\C[3]Short Sword\\C[0]"]},{"code":401,"indent":0,"parameters":["                  \\C[4]Cost: 375G\\C[0] "]},{"code":401,"indent":0,"parameters":["A small, light sword that is good for beginners."]},{"code":0,"indent":0,"parameters":[]}]}],"x":7,"y":12},
{"id":10,"name":"EV010","note":"","pages":[{"conditions":{"actorId":1,"actorValid":false,"itemId":1,"itemValid":false,"selfSwitchCh":"A","selfSwitchValid":false,"switch1Id":1,"switch1Valid":false,"switch2Id":1,"switch2Valid":false,"variableId":1,"variableValid":false,"variableValue":0},"directionFix":false,"image":{"tileId":0,"characterName":"","direction":2,"pattern":0,"characterIndex":0},"moveFrequency":3,"moveRoute":{"list":[{"code":0,"indent":null,"parameters":[]}],"repeat":true,"skippable":false,"wait":false},"moveSpeed":3,"moveType":0,"priorityType":1,"stepAnime":false,"through":false,"trigger":0,"walkAnime":true,"list":[{"code":101,"indent":0,"parameters":["",0,0,2]},{"code":401,"indent":0,"parameters":["                   \\C[3]Iron Sallet\\C[0]"]},{"code":401,"indent":0,"parameters":["                  \\C[4]Cost: 1500G\\C[0] "]},{"code":401,"indent":0,"parameters":["A sallet for the common soldier."]},{"code":0,"indent":0,"parameters":[]}]}],"x":20,"y":9},
{"id":11,"name":"EV011","note":"","pages":[{"conditions":{"actorId":1,"actorValid":false,"itemId":1,"itemValid":false,"selfSwitchCh":"A","selfSwitchValid":false,"switch1Id":1,"switch1Valid":false,"switch2Id":1,"switch2Valid":false,"variableId":1,"variableValid":false,"variableValue":0},"directionFix":false,"image":{"tileId":0,"characterName":"","direction":2,"pattern":0,"characterIndex":0},"moveFrequency":3,"moveRoute":{"list":[{"code":0,"indent":null,"parameters":[]}],"repeat":true,"skippable":false,"wait":false},"moveSpeed":3,"moveType":0,"priorityType":1,"stepAnime":false,"through":false,"trigger":0,"walkAnime":true,"list":[{"code":101,"indent":0,"parameters":["",0,0,2]},{"code":401,"indent":0,"parameters":["                   \\C[3]Iron Helm\\C[0]"]},{"code":401,"indent":0,"parameters":["                  \\C[4]Cost: 755G\\C[0] "]},{"code":401,"indent":0,"parameters":["Helmet made of steel."]},{"code":0,"indent":0,"parameters":[]}]}],"x":24,"y":12},
{"id":12,"name":"EV012","note":"","pages":[{"conditions":{"actorId":1,"actorValid":false,"itemId":1,"itemValid":false,"selfSwitchCh":"A","selfSwitchValid":false,"switch1Id":1,"switch1Valid":false,"switch2Id":1,"switch2Valid":false,"variableId":1,"variableValid":false,"variableValue":0},"directionFix":false,"image":{"tileId":0,"characterName":"","direction":2,"pattern":0,"characterIndex":0},"moveFrequency":3,"moveRoute":{"list":[{"code":0,"indent":null,"parameters":[]}],"repeat":true,"skippable":false,"wait":false},"moveSpeed":3,"moveType":0,"priorityType":1,"stepAnime":false,"through":false,"trigger":0,"walkAnime":true,"list":[{"code":101,"indent":0,"parameters":["",0,0,2]},{"code":401,"indent":0,"parameters":["                   \\C[3]Feathered Cap\\C[0]"]},{"code":401,"indent":0,"parameters":["                  \\C[4]Cost: 1225G\\C[0] "]},{"code":401,"indent":0,"parameters":["A hat with a feather of a harpy."]},{"code":0,"indent":0,"parameters":[]}]}],"x":20,"y":12},
{"id":13,"name":"EV013","note":"","pages":[{"conditions":{"actorId":1,"actorValid":false,"itemId":1,"itemValid":false,"selfSwitchCh":"A","selfSwitchValid":false,"switch1Id":1,"switch1Valid":false,"switch2Id":1,"switch2Valid":false,"variableId":1,"variableValid":false,"variableValue":0},"directionFix":false,"image":{"characterIndex":0,"characterName":"","direction":2,"pattern":0,"tileId":0},"list":[{"code":356,"indent":0,"parameters":["MapZoom set 1.5 duration 30"]},{"code":201,"indent":0,"parameters":[0,7,33,30,2,0]},{"code":0,"indent":0,"parameters":[]}],"moveFrequency":3,"moveRoute":{"list":[{"code":0,"parameters":[]}],"repeat":true,"skippable":false,"wait":false},"moveSpeed":3,"moveType":0,"priorityType":0,"stepAnime":false,"through":false,"trigger":1,"walkAnime":true}],"x":5,"y":15},
{"id":14,"name":"EV014","note":"","pages":[{"conditions":{"actorId":1,"actorValid":false,"itemId":1,"itemValid":false,"selfSwitchCh":"A","selfSwitchValid":false,"switch1Id":1,"switch1Valid":false,"switch2Id":1,"switch2Valid":false,"variableId":1,"variableValid":false,"variableValue":0},"directionFix":false,"image":{"characterIndex":0,"characterName":"","direction":2,"pattern":0,"tileId":0},"list":[{"code":356,"indent":0,"parameters":["MapZoom set 1.5 duration 30"]},{"code":201,"indent":0,"parameters":[0,7,37,30,2,0]},{"code":0,"indent":0,"parameters":[]}],"moveFrequency":3,"moveRoute":{"list":[{"code":0,"parameters":[]}],"repeat":true,"skippable":false,"wait":false},"moveSpeed":3,"moveType":0,"priorityType":0,"stepAnime":false,"through":false,"trigger":1,"walkAnime":true}],"x":22,"y":15},
{"id":15,"name":"  ","note":"","pages":[{"conditions":{"actorId":1,"actorValid":false,"itemId":1,"itemValid":false,"selfSwitchCh":"A","selfSwitchValid":false,"switch1Id":1,"switch1Valid":false,"switch2Id":1,"switch2Valid":false,"variableId":1,"variableValid":false,"variableValue":0},"directionFix":false,"image":{"tileId":0,"characterName":"","direction":2,"pattern":0,"characterIndex":0},"moveFrequency":3,"moveRoute":{"list":[{"code":0,"indent":null,"parameters":[]}],"repeat":true,"skippable":false,"wait":false},"moveSpeed":3,"moveType":0,"priorityType":1,"stepAnime":false,"through":false,"trigger":0,"walkAnime":true,"list":[{"code":101,"indent":0,"parameters":["",0,0,2]},{"code":401,"indent":0,"parameters":["                   \\C[3]Savvy Beret\\C[0]"]},{"code":401,"indent":0,"parameters":["                  \\C[4]Cost: 7800G\\C[0] "]},{"code":401,"indent":0,"parameters":["A fancy beret that gives the wearer a strong "]},{"code":401,"indent":0,"parameters":["sense of confidence."]},{"code":0,"indent":0,"parameters":[]}]}],"x":24,"y":9},
{"id":16,"name":"Firewood","note":"","pages":[{"conditions":{"actorId":1,"actorValid":false,"itemId":1,"itemValid":false,"selfSwitchCh":"A","selfSwitchValid":false,"switch1Id":1,"switch1Valid":false,"switch2Id":1,"switch2Valid":false,"variableId":1,"variableValid":false,"variableValue":0},"directionFix":true,"image":{"tileId":0,"characterName":"","direction":2,"pattern":0,"characterIndex":2},"moveFrequency":3,"moveRoute":{"list":[{"code":0,"indent":null,"parameters":[]}],"repeat":true,"skippable":false,"wait":false},"moveSpeed":3,"moveType":0,"priorityType":1,"stepAnime":false,"through":false,"trigger":0,"walkAnime":false,"list":[{"code":250,"indent":0,"parameters":[{"name":"Chime1","volume":80,"pitch":100,"pan":0}]},{"code":126,"indent":0,"parameters":[95,0,0,1]},{"code":101,"indent":0,"parameters":["",0,0,2]},{"code":401,"indent":0,"parameters":["\\ii[95] was found!"]},{"code":123,"indent":0,"parameters":["A",0]},{"code":0,"indent":0,"parameters":[]}]},{"conditions":{"actorId":1,"actorValid":false,"itemId":1,"itemValid":false,"selfSwitchCh":"A","selfSwitchValid":true,"switch1Id":1,"switch1Valid":false,"switch2Id":1,"switch2Valid":false,"variableId":1,"variableValid":false,"variableValue":0},"directionFix":false,"image":{"characterIndex":0,"characterName":"","direction":2,"pattern":0,"tileId":0},"list":[{"code":0,"indent":0,"parameters":[]}],"moveFrequency":3,"moveRoute":{"list":[{"code":0,"parameters":[]}],"repeat":true,"skippable":false,"wait":false},"moveSpeed":3,"moveType":0,"priorityType":0,"stepAnime":false,"through":false,"trigger":0,"walkAnime":true}],"x":11,"y":7},
{"id":17,"name":"Draysil","note":"","pages":[{"conditions":{"actorId":1,"actorValid":false,"itemId":1,"itemValid":false,"selfSwitchCh":"A","selfSwitchValid":false,"switch1Id":511,"switch1Valid":false,"switch2Id":1,"switch2Valid":false,"variableId":48,"variableValid":true,"variableValue":1},"directionFix":false,"image":{"tileId":0,"characterName":"Evil Merchants","direction":8,"pattern":1,"characterIndex":0},"list":[{"code":356,"indent":0,"parameters":["HideActiveQuestWindow"]},{"code":213,"indent":0,"parameters":[0,2,true]},{"code":101,"indent":0,"parameters":["",0,0,2]},{"code":401,"indent":0,"parameters":["\\n<Draysil>Yes, can I help you?"]},{"code":101,"indent":0,"parameters":["Senisa",2,0,2]},{"code":401,"indent":0,"parameters":["\\m[Senisa]Do you know Vivin? "]},{"code":213,"indent":0,"parameters":[0,9,true]},{"code":101,"indent":0,"parameters":["",0,0,2]},{"code":401,"indent":0,"parameters":["\\n<Draysil>Ah, he is looking for his shoes? No problem."]},{"code":401,"indent":0,"parameters":["Hold on."]},{"code":221,"indent":0,"parameters":[]},{"code":230,"indent":0,"parameters":[60]},{"code":222,"indent":0,"parameters":[]},{"code":101,"indent":0,"parameters":["",0,0,2]},{"code":401,"indent":0,"parameters":["\\n<Draysil>Here they are. Please return them to him along"]},{"code":401,"indent":0,"parameters":["with my thanks."]},{"code":250,"indent":0,"parameters":[{"name":"Item1","volume":90,"pitch":100,"pan":0}]},{"code":126,"indent":0,"parameters":[162,0,0,1]},{"code":101,"indent":0,"parameters":["",0,0,2]},{"code":401,"indent":0,"parameters":["You recieved \\ii[162]"]},{"code":122,"indent":0,"parameters":[48,48,0,0,2]},{"code":356,"indent":0,"parameters":["Quest 2006 Complete Objective 2"]},{"code":356,"indent":0,"parameters":["Quest 2006 Show Objective 3"]},{"code":101,"indent":0,"parameters":["",0,0,2]},{"code":401,"indent":0,"parameters":["The ledger has been updated."]},{"code":356,"indent":0,"parameters":["ShowActiveQuestWindow"]},{"code":123,"indent":0,"parameters":["A",0]},{"code":0,"indent":0,"parameters":[]}],"moveFrequency":3,"moveRoute":{"list":[{"code":0,"parameters":[]}],"repeat":true,"skippable":false,"wait":false},"moveSpeed":3,"moveType":0,"priorityType":1,"stepAnime":false,"through":false,"trigger":0,"walkAnime":true},{"conditions":{"actorId":1,"actorValid":false,"itemId":1,"itemValid":false,"selfSwitchCh":"A","selfSwitchValid":true,"switch1Id":511,"switch1Valid":false,"switch2Id":1,"switch2Valid":false,"variableId":1,"variableValid":false,"variableValue":0},"directionFix":false,"image":{"tileId":0,"characterName":"Evil Merchants","direction":8,"pattern":1,"characterIndex":0},"list":[{"code":101,"indent":0,"parameters":["",0,0,2]},{"code":401,"indent":0,"parameters":["\\n<Draysil>Should I buy this set of arrows? If I buy them"]},{"code":401,"indent":0,"parameters":["here and sell them in \\C[1]Qatiya\\C[0]..."]},{"code":0,"indent":0,"parameters":[]}],"moveFrequency":3,"moveRoute":{"list":[{"code":0,"parameters":[]}],"repeat":true,"skippable":false,"wait":false},"moveSpeed":3,"moveType":0,"priorityType":1,"stepAnime":false,"through":false,"trigger":0,"walkAnime":true}],"x":3,"y":10}
]
}