{
"autoplayBgm":false,"autoplayBgs":false,"battleback1Name":"","battleback2Name":"","bgm":{"name":"","pan":0,"pitch":100,"volume":90},"bgs":{"name":"","pan":0,"pitch":100,"volume":90},"disableDashing":false,"displayName":"","encounterList":[],"encounterStep":30,"height":13,"note":"","parallaxLoopX":false,"parallaxLoopY":false,"parallaxName":"StarlitSky","parallaxShow":true,"parallaxSx":0,"parallaxSy":0,"scrollType":0,"specifyBattleback":false,"tilesetId":3,"width":17,
"data":[0,0,0,0,0,0,0,0,0,0,0,0,0,0,0,0,0,0,0,0,0,0,0,0,0,0,0,0,0,0,0,0,0,0,0,0,0,0,0,0,0,0,0,0,0,0,0,0,0,0,0,0,0,0,0,0,0,0,0,0,0,0,0,0,0,0,0,0,0,0,0,0,0,0,0,0,0,0,0,0,0,0,0,0,0,0,0,0,0,0,0,0,0,0,0,0,0,0,0,0,0,0,0,0,0,0,0,0,0,0,0,0,0,0,0,0,0,0,0,0,0,0,0,0,0,0,0,0,0,0,0,0,0,0,0,0,0,0,0,0,0,0,0,0,0,0,0,0,0,0,0,0,0,0,0,0,0,0,0,0,0,0,0,0,0,0,0,0,0,0,0,0,0,0,0,0,0,0,0,0,0,0,0,0,0,0,0,0,0,0,0,0,0,0,0,0,0,0,0,0,0,0,0,0,0,0,0,0,0,0,0,0,0,0,0,0,0,0,0,0,0,0,0,0,0,0,0,0,0,0,0,0,0,0,0,0,0,0,0,0,0,0,0,0,0,0,0,0,0,0,0,0,0,0,0,0,0,0,0,0,0,0,0,0,0,0,0,0,0,0,0,0,0,0,0,0,0,0,0,0,0,0,0,0,0,0,0,0,0,0,0,0,0,0,0,0,0,0,0,0,0,0,0,0,0,0,0,0,0,0,0,0,0,0,0,0,0,0,0,0,0,0,0,0,0,0,0,0,0,0,0,0,0,0,0,0,0,0,0,0,0,0,0,0,0,0,0,0,0,0,0,0,0,0,0,0,0,0,0,0,0,0,0,0,0,0,0,0,0,0,0,0,0,0,0,0,0,0,0,0,0,0,0,0,0,0,0,0,0,0,0,0,0,0,0,0,0,0,0,0,0,0,0,0,0,0,0,0,0,0,0,0,0,0,0,0,0,0,0,0,0,0,0,0,0,0,0,0,0,0,0,0,0,0,0,0,0,0,0,0,0,0,0,0,0,0,0,0,0,0,0,0,0,0,0,0,0,0,0,0,0,0,0,0,0,0,0,0,0,0,0,0,0,0,0,0,0,0,0,0,0,0,0,0,0,0,0,0,0,0,0,0,0,0,0,0,0,0,0,0,0,0,0,0,0,0,0,0,0,0,0,0,0,0,0,0,0,0,0,0,0,0,0,0,0,0,0,0,0,0,0,0,0,0,0,0,0,0,0,0,0,0,0,0,0,0,0,0,0,0,0,0,0,0,0,0,0,0,0,0,0,0,0,0,0,0,0,0,0,0,0,0,0,0,0,0,0,0,0,0,0,0,0,0,0,0,0,0,0,0,0,0,0,0,0,0,0,0,0,0,0,0,0,0,0,0,0,0,0,0,0,0,0,0,0,0,0,0,0,0,0,0,0,0,0,0,0,0,0,0,0,0,0,0,0,0,0,0,0,0,0,0,0,0,0,0,0,0,0,0,0,0,0,0,0,0,0,0,0,0,0,0,0,0,0,0,0,0,0,0,0,0,0,0,0,0,0,0,0,0,0,0,0,0,0,0,0,0,0,0,0,0,0,0,0,0,0,0,0,0,0,0,0,0,0,0,0,0,0,0,0,0,0,0,0,0,0,0,0,0,0,0,0,0,0,0,0,0,0,0,0,0,0,0,0,0,0,0,0,0,0,0,0,0,0,0,0,0,0,0,0,0,0,0,0,0,0,0,0,0,0,0,0,0,0,0,0,0,0,0,0,0,0,0,0,0,0,0,0,0,0,0,0,0,0,0,0,0,0,0,0,0,0,0,0,0,0,0,0,0,0,0,0,0,0,0,0,0,0,0,0,0,0,0,0,0,0,0,0,0,0,0,0,0,0,0,0,0,0,0,0,0,0,0,0,0,0,0,0,0,0,0,0,0,0,0,0,0,0,0,0,0,0,0,0,0,0,0,0,0,0,0,0,0,0,0,0,0,0,0,0,0,0,0,0,0,0,0,0,0,0,0,0,0,0,0,0,0,0,0,0,0,0,0,0,0,0,0,0,0,0,0,0,0,0,0,0,0,0,0,0,0,0,0,0,0,0,0,0,0,0,0,0,0,0,0,0,0,0,0,0,0,0,0,0,0,0,0,0,0,0,0,0,0,0,0,0,0,0,0,0,0,0,0,0,0,0,0,0,0,0,0,0,0,0,0,0,0,0,0,0,0,0,0,0,0,0,0,0,0,0,0,0,0,0,0,0,0,0,0,0,0,0,0,0,0,0,0,0,0,0,0,0,0,0,0,0,0,0,0,0,0,0,0,0,0,0,0,0,0,0,0,0,0,0,0,0,0,0,0,0,0,0,0,0,0,0,0,0,0,0,0,0,0,0,0,0,0,0,0,0,0,0,0,0,0,0,0,0,0,0,0,0,0,0,0,0,0,0,0,0,0,0,0,0,0,0,0,0,0,0,0,0,0,0,0,0,0,0,0,0,0,0,0,0,0,0,0,0,0,0,0,0,0,0,0,0,0,0,0,0,0,0,0,0,0,0,0,0,0,0,0,0,0,0,0,0,0,0,0,0,0,0,0,0,0,0,0,0,0,0,0,0,0,0,0,0,0,0,0,0,0,0,0,0,0,0,0,0,0,0,0,0,0,0,0,0,0,0,0,0,0,0,0,0,0,0,0,0,0,0,0,0,0,0,0,0,0,0,0,0,0,0,0,0,0,0,0,0,0,0,0,0,0,0,0,0,0,0,0,0,0,0,0,0,0,0,0,0,0,0,0,0,0,0,0,0,0,0,0,0,0,0,0,0,0,0,0,0,0,0,0,0,0,0,0,0,0,0,0,0,0,0,0,0,0,0,0,0,0,0,0,0,0,0,0,0,0,0,0,0,0,0,0,0,0,0,0,0,0,0,0,0,0,0,0,0,0,0,0,0,0,0,0,0,0,0,0,0,0,0,0,0,0,0,0,0,0,0,0,0,0,0,0,0,0,0,0,0,0,0,0,0,0,0,0],
"events":[
null,
{"id":1,"name":"Party Chat - Pirate Lord Frei","note":"","pages":[{"conditions":{"actorId":1,"actorValid":false,"itemId":1,"itemValid":false,"selfSwitchCh":"A","selfSwitchValid":false,"switch1Id":34,"switch1Valid":true,"switch2Id":1,"switch2Valid":false,"variableId":1,"variableValid":false,"variableValue":0},"directionFix":false,"image":{"characterIndex":0,"characterName":"","direction":2,"pattern":0,"tileId":0},"list":[{"code":231,"indent":0,"parameters":[1,"PageDn_button5",0,0,0,500,80,80,255,0]},{"code":230,"indent":0,"parameters":[20]},{"code":250,"indent":0,"parameters":[{"name":"Saint5","volume":90,"pitch":100,"pan":0}]},{"code":230,"indent":0,"parameters":[60]},{"code":111,"indent":0,"parameters":[11,"pagedown"]},{"code":250,"indent":1,"parameters":[{"name":"Decision5","volume":90,"pitch":100,"pan":0}]},{"code":243,"indent":1,"parameters":[]},{"code":235,"indent":1,"parameters":[1]},{"code":217,"indent":1,"parameters":[]},{"code":230,"indent":1,"parameters":[20]},{"code":356,"indent":1,"parameters":["HideActiveQuestWindow"]},{"code":223,"indent":1,"parameters":[[-68,-68,-68,0],60,true]},{"code":231,"indent":1,"parameters":[2,"Senisa_3",0,0,0,0,100,100,0,0]},{"code":231,"indent":1,"parameters":[3,"Nalia_1",0,0,816,0,-100,100,0,0]},{"code":231,"indent":1,"parameters":[4,"Kevar_5",0,0,0,480,100,100,0,0]},{"code":232,"indent":1,"parameters":[2,0,0,0,150,200,100,100,255,0,20,false]},{"code":232,"indent":1,"parameters":[4,0,0,0,466,200,-100,100,255,0,20,false]},{"code":232,"indent":1,"parameters":[3,0,0,0,646,200,-100,100,255,0,20,false]},{"code":230,"indent":1,"parameters":[10]},{"code":101,"indent":1,"parameters":["",0,0,2]},{"code":401,"indent":1,"parameters":["\\pop[646,350]I can’t believe he was a pirate!"]},{"code":231,"indent":1,"parameters":[2,"Senisa_2",0,0,150,200,-100,100,255,0]},{"code":101,"indent":1,"parameters":["",0,0,2]},{"code":401,"indent":1,"parameters":["\\pop[150,350]I can believe it."]},{"code":231,"indent":1,"parameters":[4,"Kevar_11",0,0,466,200,-100,100,255,0]},{"code":101,"indent":1,"parameters":["",0,0,2]},{"code":401,"indent":1,"parameters":["\\pop[466,350]Stop talking about that snake. We knew "]},{"code":401,"indent":1,"parameters":["there was something up about him."]},{"code":231,"indent":1,"parameters":[3,"Nalia_4",0,0,646,200,-100,100,255,0]},{"code":101,"indent":1,"parameters":["",0,0,2]},{"code":401,"indent":1,"parameters":["\\pop[646,350]But he was so friendly."]},{"code":231,"indent":1,"parameters":[2,"Senisa_7",0,0,150,200,-100,100,255,0]},{"code":101,"indent":1,"parameters":["",0,0,2]},{"code":401,"indent":1,"parameters":["\\pop[150,350]Kevar, I think we need to set her down and "]},{"code":401,"indent":1,"parameters":["explain what he really was after."]},{"code":231,"indent":1,"parameters":[4,"Kevar_18",0,0,466,200,-100,100,255,0]},{"code":101,"indent":1,"parameters":["",0,0,2]},{"code":401,"indent":1,"parameters":["\\pop[466,350]But she’s too young!"]},{"code":231,"indent":1,"parameters":[2,"Senisa_2",0,0,150,200,-100,100,255,0]},{"code":101,"indent":1,"parameters":["",0,0,2]},{"code":401,"indent":1,"parameters":["\\pop[150,350]Kevar, she’s 16."]},{"code":231,"indent":1,"parameters":[3,"Nalia_2",0,0,646,200,-100,100,255,0]},{"code":101,"indent":1,"parameters":["",0,0,2]},{"code":401,"indent":1,"parameters":["\\pop[646,350]My birthday is coming up soon. So, I’m"]},{"code":401,"indent":1,"parameters":["almost 17."]},{"code":231,"indent":1,"parameters":[4,"Kevar_14",0,0,466,200,-100,100,255,0]},{"code":101,"indent":1,"parameters":["",0,0,2]},{"code":401,"indent":1,"parameters":["\\pop[466,350]That’s not the point. I’m not going to "]},{"code":401,"indent":1,"parameters":["talk to my baby about sex!"]},{"code":231,"indent":1,"parameters":[3,"Nalia_7",0,0,646,200,-100,100,255,0]},{"code":101,"indent":1,"parameters":["",0,0,2]},{"code":401,"indent":1,"parameters":["\\pop[646,350]When was Frei ever talking about that?"]},{"code":231,"indent":1,"parameters":[2,"Senisa_7",0,0,150,200,-100,100,255,0]},{"code":101,"indent":1,"parameters":["",0,0,2]},{"code":401,"indent":1,"parameters":["\\pop[150,350]...That was \\fiall\\fi he talked about."]},{"code":231,"indent":1,"parameters":[4,"Kevar_16",0,0,466,200,-100,100,255,0]},{"code":101,"indent":1,"parameters":["",0,0,2]},{"code":401,"indent":1,"parameters":["\\pop[466,350]See?! If she didn’t catch all those innuendos, "]},{"code":401,"indent":1,"parameters":["then she’s not ready to learn yet!"]},{"code":231,"indent":1,"parameters":[2,"Senisa_3",0,0,150,200,-100,100,255,0]},{"code":101,"indent":1,"parameters":["",0,0,2]},{"code":401,"indent":1,"parameters":["\\pop[150,350]One of these days, you gotta let her learn. "]},{"code":401,"indent":1,"parameters":["Or, she will learn from someone like pirate boy."]},{"code":231,"indent":1,"parameters":[4,"Kevar_2",0,0,466,200,-100,100,255,0]},{"code":101,"indent":1,"parameters":["",0,0,2]},{"code":401,"indent":1,"parameters":["\\pop[466,350]Oh, gods above, no."]},{"code":231,"indent":1,"parameters":[3,"Nalia_4",0,0,646,200,-100,100,255,0]},{"code":101,"indent":1,"parameters":["",0,0,2]},{"code":401,"indent":1,"parameters":["\\pop[646,350]I wonder when we’ll see him again?"]},{"code":231,"indent":1,"parameters":[4,"Kevar_16",0,0,466,200,-100,100,255,0]},{"code":101,"indent":1,"parameters":["",0,0,2]},{"code":401,"indent":1,"parameters":["\\pop[466,350]Oh, gods no!!!"]},{"code":231,"indent":1,"parameters":[2,"Senisa_0",0,0,150,200,-100,100,255,0]},{"code":101,"indent":1,"parameters":["",0,0,2]},{"code":401,"indent":1,"parameters":["\\pop[150,350]*laughs*"]},{"code":230,"indent":1,"parameters":[10]},{"code":232,"indent":1,"parameters":[3,0,0,0,816,0,-100,100,0,0,20,false]},{"code":232,"indent":1,"parameters":[2,0,0,0,0,0,100,100,0,0,20,false]},{"code":232,"indent":1,"parameters":[4,0,0,0,0,480,100,100,255,0,20,false]},{"code":235,"indent":1,"parameters":[2]},{"code":235,"indent":1,"parameters":[3]},{"code":235,"indent":1,"parameters":[4]},{"code":223,"indent":1,"parameters":[[0,0,0,0],60,true]},{"code":244,"indent":1,"parameters":[]},{"code":122,"indent":1,"parameters":[19,19,1,0,1]},{"code":121,"indent":1,"parameters":[212,212,0]},{"code":123,"indent":1,"parameters":["A",0]},{"code":0,"indent":1,"parameters":[]},{"code":412,"indent":0,"parameters":[]},{"code":0,"indent":0,"parameters":[]}],"moveFrequency":3,"moveRoute":{"list":[{"code":0,"parameters":[]}],"repeat":true,"skippable":false,"wait":false},"moveSpeed":3,"moveType":0,"priorityType":0,"stepAnime":false,"through":false,"trigger":4,"walkAnime":true},{"conditions":{"actorId":1,"actorValid":false,"itemId":1,"itemValid":false,"selfSwitchCh":"A","selfSwitchValid":true,"switch1Id":1,"switch1Valid":false,"switch2Id":1,"switch2Valid":false,"variableId":1,"variableValid":false,"variableValue":0},"directionFix":false,"image":{"characterIndex":0,"characterName":"","direction":2,"pattern":0,"tileId":0},"list":[{"code":0,"indent":0,"parameters":[]}],"moveFrequency":3,"moveRoute":{"list":[{"code":0,"parameters":[]}],"repeat":true,"skippable":false,"wait":false},"moveSpeed":3,"moveType":0,"priorityType":0,"stepAnime":false,"through":false,"trigger":0,"walkAnime":true}],"x":2,"y":12},
{"id":2,"name":"Party Chat - What is going on in Lanvaldier?","note":"","pages":[{"conditions":{"actorId":1,"actorValid":false,"itemId":1,"itemValid":false,"selfSwitchCh":"A","selfSwitchValid":false,"switch1Id":34,"switch1Valid":true,"switch2Id":1,"switch2Valid":false,"variableId":1,"variableValid":false,"variableValue":0},"directionFix":false,"image":{"characterIndex":0,"characterName":"","direction":2,"pattern":0,"tileId":0},"list":[{"code":231,"indent":0,"parameters":[1,"PageDn_button5",0,0,0,500,80,80,255,0]},{"code":230,"indent":0,"parameters":[20]},{"code":250,"indent":0,"parameters":[{"name":"Saint5","volume":90,"pitch":100,"pan":0}]},{"code":230,"indent":0,"parameters":[60]},{"code":111,"indent":0,"parameters":[11,"pagedown"]},{"code":250,"indent":1,"parameters":[{"name":"Decision5","volume":90,"pitch":100,"pan":0}]},{"code":243,"indent":1,"parameters":[]},{"code":235,"indent":1,"parameters":[1]},{"code":217,"indent":1,"parameters":[]},{"code":230,"indent":1,"parameters":[20]},{"code":356,"indent":1,"parameters":["HideActiveQuestWindow"]},{"code":223,"indent":1,"parameters":[[-68,-68,-68,0],60,true]},{"code":231,"indent":1,"parameters":[2,"Senisa_3",0,0,0,0,100,100,0,0]},{"code":231,"indent":1,"parameters":[3,"Nalia_1",0,0,816,0,-100,100,0,0]},{"code":231,"indent":1,"parameters":[4,"Kevar_5",0,0,0,480,100,100,0,0]},{"code":232,"indent":1,"parameters":[2,0,0,0,150,200,100,100,255,0,20,false]},{"code":232,"indent":1,"parameters":[4,0,0,0,466,200,-100,100,255,0,20,false]},{"code":232,"indent":1,"parameters":[3,0,0,0,646,200,-100,100,255,0,20,false]},{"code":230,"indent":1,"parameters":[10]},{"code":101,"indent":1,"parameters":["",0,0,2]},{"code":401,"indent":1,"parameters":["\\pop[646,350]Why are there riots going on in the capital "]},{"code":401,"indent":1,"parameters":["city?"]},{"code":231,"indent":1,"parameters":[4,"Kevar_11",0,0,466,200,-100,100,255,0]},{"code":101,"indent":1,"parameters":["",0,0,2]},{"code":401,"indent":1,"parameters":["\\pop[466,350]From what I’ve been hearing, it seems "]},{"code":401,"indent":1,"parameters":["like the knights aren’t doing their jobs."]},{"code":231,"indent":1,"parameters":[2,"Senisa_2",0,0,150,200,-100,100,255,0]},{"code":101,"indent":1,"parameters":["",0,0,2]},{"code":401,"indent":1,"parameters":["\\pop[150,350]And what is their job exactly?"]},{"code":231,"indent":1,"parameters":[4,"Kevar_11",0,0,466,200,-100,100,255,0]},{"code":101,"indent":1,"parameters":["",0,0,2]},{"code":401,"indent":1,"parameters":["\\pop[466,350]They’re supposed to maintain the order of "]},{"code":401,"indent":1,"parameters":["the Thalassian continent. Law enforcement and monster "]},{"code":401,"indent":1,"parameters":["eradication mostly."]},{"code":231,"indent":1,"parameters":[3,"Nalia_4",0,0,646,200,-100,100,255,0]},{"code":101,"indent":1,"parameters":["",0,0,2]},{"code":401,"indent":1,"parameters":["\\pop[646,350]Usually the public opinion of the Royal "]},{"code":401,"indent":1,"parameters":["Knights is positive. I’ve never heard discontent "]},{"code":401,"indent":1,"parameters":["against them."]},{"code":231,"indent":1,"parameters":[2,"Senisa_7",0,0,150,200,-100,100,255,0]},{"code":101,"indent":1,"parameters":["",0,0,2]},{"code":401,"indent":1,"parameters":["\\pop[150,350]Nothing new to me really."]},{"code":231,"indent":1,"parameters":[4,"Kevar_18",0,0,466,200,-100,100,255,0]},{"code":101,"indent":1,"parameters":["",0,0,2]},{"code":401,"indent":1,"parameters":["\\pop[466,350]There’s not much we can do, so we might "]},{"code":401,"indent":1,"parameters":["as well leave the city. We have no reason to visit "]},{"code":401,"indent":1,"parameters":["the castle. "]},{"code":231,"indent":1,"parameters":[3,"Nalia_2",0,0,646,200,-100,100,255,0]},{"code":101,"indent":1,"parameters":["",0,0,2]},{"code":401,"indent":1,"parameters":["\\pop[646,350]..."]},{"code":231,"indent":1,"parameters":[2,"Senisa_2",0,0,150,200,-100,100,255,0]},{"code":101,"indent":1,"parameters":["",0,0,2]},{"code":401,"indent":1,"parameters":["\\pop[150,350]Sure, let’s go to \\C[1]Zikia Port\\C[0] then."]},{"code":230,"indent":1,"parameters":[10]},{"code":232,"indent":1,"parameters":[3,0,0,0,816,0,-100,100,0,0,20,false]},{"code":232,"indent":1,"parameters":[2,0,0,0,0,0,100,100,0,0,20,false]},{"code":232,"indent":1,"parameters":[4,0,0,0,0,480,100,100,255,0,20,false]},{"code":235,"indent":1,"parameters":[2]},{"code":235,"indent":1,"parameters":[3]},{"code":235,"indent":1,"parameters":[4]},{"code":223,"indent":1,"parameters":[[0,0,0,0],60,true]},{"code":244,"indent":1,"parameters":[]},{"code":122,"indent":1,"parameters":[19,19,1,0,1]},{"code":121,"indent":1,"parameters":[213,213,0]},{"code":123,"indent":1,"parameters":["A",0]},{"code":0,"indent":1,"parameters":[]},{"code":412,"indent":0,"parameters":[]},{"code":0,"indent":0,"parameters":[]}],"moveFrequency":3,"moveRoute":{"list":[{"code":0,"parameters":[]}],"repeat":true,"skippable":false,"wait":false},"moveSpeed":3,"moveType":0,"priorityType":0,"stepAnime":false,"through":false,"trigger":4,"walkAnime":true},{"conditions":{"actorId":1,"actorValid":false,"itemId":1,"itemValid":false,"selfSwitchCh":"A","selfSwitchValid":true,"switch1Id":1,"switch1Valid":false,"switch2Id":1,"switch2Valid":false,"variableId":1,"variableValid":false,"variableValue":0},"directionFix":false,"image":{"characterIndex":0,"characterName":"","direction":2,"pattern":0,"tileId":0},"list":[{"code":0,"indent":0,"parameters":[]}],"moveFrequency":3,"moveRoute":{"list":[{"code":0,"parameters":[]}],"repeat":true,"skippable":false,"wait":false},"moveSpeed":3,"moveType":0,"priorityType":0,"stepAnime":false,"through":false,"trigger":0,"walkAnime":true}],"x":3,"y":12},
{"id":3,"name":"Party Chat - The Capital City of Thalassia","note":"","pages":[{"conditions":{"actorId":1,"actorValid":false,"itemId":1,"itemValid":false,"selfSwitchCh":"A","selfSwitchValid":false,"switch1Id":34,"switch1Valid":true,"switch2Id":1,"switch2Valid":false,"variableId":1,"variableValid":false,"variableValue":0},"directionFix":false,"image":{"characterIndex":0,"characterName":"","direction":2,"pattern":0,"tileId":0},"list":[{"code":231,"indent":0,"parameters":[1,"PageDn_button5",0,0,0,500,80,80,255,0]},{"code":230,"indent":0,"parameters":[20]},{"code":250,"indent":0,"parameters":[{"name":"Saint5","volume":90,"pitch":100,"pan":0}]},{"code":230,"indent":0,"parameters":[60]},{"code":111,"indent":0,"parameters":[11,"pagedown"]},{"code":250,"indent":1,"parameters":[{"name":"Decision5","volume":90,"pitch":100,"pan":0}]},{"code":243,"indent":1,"parameters":[]},{"code":235,"indent":1,"parameters":[1]},{"code":217,"indent":1,"parameters":[]},{"code":230,"indent":1,"parameters":[20]},{"code":356,"indent":1,"parameters":["HideActiveQuestWindow"]},{"code":223,"indent":1,"parameters":[[-68,-68,-68,0],60,true]},{"code":231,"indent":1,"parameters":[2,"Senisa_3",0,0,0,0,100,100,0,0]},{"code":231,"indent":1,"parameters":[3,"Nalia_1",0,0,816,0,-100,100,0,0]},{"code":231,"indent":1,"parameters":[4,"Kevar_5",0,0,0,480,100,100,0,0]},{"code":232,"indent":1,"parameters":[2,0,0,0,150,200,100,100,255,0,20,false]},{"code":232,"indent":1,"parameters":[4,0,0,0,466,200,-100,100,255,0,20,false]},{"code":232,"indent":1,"parameters":[3,0,0,0,646,200,-100,100,255,0,20,false]},{"code":230,"indent":1,"parameters":[10]},{"code":101,"indent":1,"parameters":["",0,0,2]},{"code":401,"indent":1,"parameters":["\\pop[646,350]What do you think about the capital "]},{"code":401,"indent":1,"parameters":["city Ms. Senisa?"]},{"code":231,"indent":1,"parameters":[2,"Senisa_2",0,0,150,200,-100,100,255,0]},{"code":101,"indent":1,"parameters":["",0,0,2]},{"code":401,"indent":1,"parameters":["\\pop[150,350]Kinda rustic. It’s charming?"]},{"code":231,"indent":1,"parameters":[4,"Kevar_11",0,0,466,200,-100,100,255,0]},{"code":101,"indent":1,"parameters":["",0,0,2]},{"code":401,"indent":1,"parameters":["\\pop[466,350]That’s a new one. I know we have nothing "]},{"code":401,"indent":1,"parameters":["compared to \\C[1]Ulmash\\C[0], the capital of commerce, "]},{"code":401,"indent":1,"parameters":["but still."]},{"code":231,"indent":1,"parameters":[2,"Senisa_2",0,0,150,200,-100,100,255,0]},{"code":101,"indent":1,"parameters":["",0,0,2]},{"code":401,"indent":1,"parameters":["\\pop[150,350]I mean nothing bad about it. It’s charming because"]},{"code":401,"indent":1,"parameters":["its not overly avaricious. Wealth isn’t dripping off every "]},{"code":401,"indent":1,"parameters":["tile and the people aren’t acting like they breathe a "]},{"code":401,"indent":1,"parameters":["different air compared to everyone else."]},{"code":231,"indent":1,"parameters":[3,"Nalia_4",0,0,646,200,-100,100,255,0]},{"code":101,"indent":1,"parameters":["",0,0,2]},{"code":401,"indent":1,"parameters":["\\pop[646,350]What place is like that?"]},{"code":231,"indent":1,"parameters":[2,"Senisa_2",0,0,150,200,-100,100,255,0]},{"code":101,"indent":1,"parameters":["",0,0,2]},{"code":401,"indent":1,"parameters":["\\pop[150,350]\\C[1]Kisphu\\C[0]. The capital of Suen."]},{"code":231,"indent":1,"parameters":[4,"Kevar_11",0,0,466,200,-100,100,255,0]},{"code":101,"indent":1,"parameters":["",0,0,2]},{"code":401,"indent":1,"parameters":["\\pop[466,350]The city of magic?"]},{"code":231,"indent":1,"parameters":[2,"Senisa_2",0,0,150,200,-100,100,255,0]},{"code":101,"indent":1,"parameters":["",0,0,2]},{"code":401,"indent":1,"parameters":["\\pop[150,350]The city of greed. \\C[1]Ulmash\\C[0] may be known for "]},{"code":401,"indent":1,"parameters":["it’s luxurious lifestyle but it’s still generous. "]},{"code":401,"indent":1,"parameters":["\\C[1]Kishpu\\C[0] is the true capital of greed."]},{"code":231,"indent":1,"parameters":[3,"Nalia_4",0,0,646,200,-100,100,255,0]},{"code":101,"indent":1,"parameters":["",0,0,2]},{"code":401,"indent":1,"parameters":["\\pop[646,350]That sounds horrible."]},{"code":231,"indent":1,"parameters":[2,"Senisa_7",0,0,150,200,-100,100,255,0]},{"code":101,"indent":1,"parameters":["",0,0,2]},{"code":401,"indent":1,"parameters":["\\pop[150,350]Yep. Every moment in that place is horrible. "]},{"code":401,"indent":1,"parameters":["But, one day, it may change. One day."]},{"code":230,"indent":1,"parameters":[10]},{"code":232,"indent":1,"parameters":[3,0,0,0,816,0,-100,100,0,0,20,false]},{"code":232,"indent":1,"parameters":[2,0,0,0,0,0,100,100,0,0,20,false]},{"code":232,"indent":1,"parameters":[4,0,0,0,0,480,100,100,255,0,20,false]},{"code":235,"indent":1,"parameters":[2]},{"code":235,"indent":1,"parameters":[3]},{"code":235,"indent":1,"parameters":[4]},{"code":223,"indent":1,"parameters":[[0,0,0,0],60,true]},{"code":244,"indent":1,"parameters":[]},{"code":122,"indent":1,"parameters":[19,19,1,0,1]},{"code":121,"indent":1,"parameters":[214,214,0]},{"code":123,"indent":1,"parameters":["A",0]},{"code":0,"indent":1,"parameters":[]},{"code":412,"indent":0,"parameters":[]},{"code":0,"indent":0,"parameters":[]}],"moveFrequency":3,"moveRoute":{"list":[{"code":0,"parameters":[]}],"repeat":true,"skippable":false,"wait":false},"moveSpeed":3,"moveType":0,"priorityType":0,"stepAnime":false,"through":false,"trigger":4,"walkAnime":true},{"conditions":{"actorId":1,"actorValid":false,"itemId":1,"itemValid":false,"selfSwitchCh":"A","selfSwitchValid":true,"switch1Id":1,"switch1Valid":false,"switch2Id":1,"switch2Valid":false,"variableId":1,"variableValid":false,"variableValue":0},"directionFix":false,"image":{"characterIndex":0,"characterName":"","direction":2,"pattern":0,"tileId":0},"list":[{"code":0,"indent":0,"parameters":[]}],"moveFrequency":3,"moveRoute":{"list":[{"code":0,"parameters":[]}],"repeat":true,"skippable":false,"wait":false},"moveSpeed":3,"moveType":0,"priorityType":0,"stepAnime":false,"through":false,"trigger":0,"walkAnime":true}],"x":4,"y":12},
{"id":4,"name":"Party Chat - So, What Happened Last Night?","note":"","pages":[{"conditions":{"actorId":1,"actorValid":false,"itemId":1,"itemValid":false,"selfSwitchCh":"A","selfSwitchValid":false,"switch1Id":34,"switch1Valid":true,"switch2Id":1,"switch2Valid":false,"variableId":1,"variableValid":false,"variableValue":0},"directionFix":false,"image":{"characterIndex":0,"characterName":"","direction":2,"pattern":0,"tileId":0},"list":[{"code":231,"indent":0,"parameters":[1,"PageDn_button5",0,0,0,500,80,80,255,0]},{"code":230,"indent":0,"parameters":[20]},{"code":250,"indent":0,"parameters":[{"name":"Saint5","volume":90,"pitch":100,"pan":0}]},{"code":230,"indent":0,"parameters":[60]},{"code":111,"indent":0,"parameters":[11,"pagedown"]},{"code":250,"indent":1,"parameters":[{"name":"Decision5","volume":90,"pitch":100,"pan":0}]},{"code":243,"indent":1,"parameters":[]},{"code":235,"indent":1,"parameters":[1]},{"code":217,"indent":1,"parameters":[]},{"code":230,"indent":1,"parameters":[20]},{"code":356,"indent":1,"parameters":["HideActiveQuestWindow"]},{"code":223,"indent":1,"parameters":[[-68,-68,-68,0],60,true]},{"code":231,"indent":1,"parameters":[2,"Senisa_3",0,0,0,0,100,100,0,0]},{"code":231,"indent":1,"parameters":[3,"Nalia_7",0,0,816,0,-100,100,0,0]},{"code":231,"indent":1,"parameters":[4,"Kevar_5",0,0,0,480,100,100,0,0]},{"code":232,"indent":1,"parameters":[2,0,0,0,150,200,100,100,255,0,20,false]},{"code":232,"indent":1,"parameters":[4,0,0,0,466,200,-100,100,255,0,20,false]},{"code":232,"indent":1,"parameters":[3,0,0,0,646,200,-100,100,255,0,20,false]},{"code":230,"indent":1,"parameters":[10]},{"code":101,"indent":1,"parameters":["",0,0,2]},{"code":401,"indent":1,"parameters":["\\pop[646,350]What did you two do last night? Why was there "]},{"code":401,"indent":1,"parameters":["a jar of honey in your room Ms. Senisa?"]},{"code":231,"indent":1,"parameters":[2,"Senisa_2",0,0,150,200,-100,100,255,0]},{"code":101,"indent":1,"parameters":["",0,0,2]},{"code":401,"indent":1,"parameters":["\\pop[150,350]No clue. Do you know Kevar?"]},{"code":231,"indent":1,"parameters":[4,"Kevar_10",0,0,466,200,-100,100,255,0]},{"code":101,"indent":1,"parameters":["",0,0,2]},{"code":401,"indent":1,"parameters":["\\pop[466,350]Maybe someone gave it to us?"]},{"code":231,"indent":1,"parameters":[3,"Nalia_7",0,0,646,200,-100,100,255,0]},{"code":101,"indent":1,"parameters":["",0,0,2]},{"code":401,"indent":1,"parameters":["\\pop[646,350]What were you even going to do with it?"]},{"code":231,"indent":1,"parameters":[2,"Senisa_3",0,0,150,200,-100,100,255,0]},{"code":101,"indent":1,"parameters":["",0,0,2]},{"code":401,"indent":1,"parameters":["\\pop[150,350]Maybe eat it?"]},{"code":231,"indent":1,"parameters":[4,"Kevar_10",0,0,466,200,-100,100,255,0]},{"code":101,"indent":1,"parameters":["",0,0,2]},{"code":401,"indent":1,"parameters":["\\pop[466,350]That’s a lot of honey. What are we, bears?"]},{"code":231,"indent":1,"parameters":[2,"Senisa_0",0,0,150,200,-100,100,255,0]},{"code":101,"indent":1,"parameters":["",0,0,2]},{"code":401,"indent":1,"parameters":["\\pop[150,350]I don’t know Kevar. You look like a bear."]},{"code":231,"indent":1,"parameters":[4,"Kevar_11",0,0,466,200,-100,100,255,0]},{"code":101,"indent":1,"parameters":["",0,0,2]},{"code":401,"indent":1,"parameters":["\\pop[466,350]Hey!"]},{"code":231,"indent":1,"parameters":[3,"Nalia_9",0,0,646,200,-100,100,255,0]},{"code":101,"indent":1,"parameters":["",0,0,2]},{"code":401,"indent":1,"parameters":["\\pop[646,350]To think I was worrying about the two of "]},{"code":401,"indent":1,"parameters":["you getting along."]},{"code":231,"indent":1,"parameters":[2,"Senisa_15",0,0,150,200,-100,100,255,0]},{"code":101,"indent":1,"parameters":["",0,0,2]},{"code":401,"indent":1,"parameters":["\\pop[150,350]I really want to know where we got it from."]},{"code":231,"indent":1,"parameters":[4,"Kevar_9",0,0,466,200,-100,100,255,0]},{"code":101,"indent":1,"parameters":["",0,0,2]},{"code":401,"indent":1,"parameters":["\\pop[466,350]Maybe someone can invent a potion to help "]},{"code":401,"indent":1,"parameters":["drunk folks to remember what they forgot."]},{"code":231,"indent":1,"parameters":[2,"Senisa_6",0,0,150,200,-100,100,255,0]},{"code":101,"indent":1,"parameters":["",0,0,2]},{"code":401,"indent":1,"parameters":["\\pop[150,350]Let’s gather the money to fund this creation. "]},{"code":401,"indent":1,"parameters":["I have too many drunk memories I need to recover."]},{"code":231,"indent":1,"parameters":[4,"Kevar_0",0,0,466,200,-100,100,255,0]},{"code":101,"indent":1,"parameters":["",0,0,2]},{"code":401,"indent":1,"parameters":["\\pop[466,350]Same. Let’s do this."]},{"code":231,"indent":1,"parameters":[3,"Nalia_4",0,0,646,200,-100,100,255,0]},{"code":101,"indent":1,"parameters":["",0,0,2]},{"code":401,"indent":1,"parameters":["\\pop[646,350]Two peas in a pod it seems."]},{"code":230,"indent":1,"parameters":[10]},{"code":232,"indent":1,"parameters":[3,0,0,0,816,0,-100,100,0,0,20,false]},{"code":232,"indent":1,"parameters":[2,0,0,0,0,0,100,100,0,0,20,false]},{"code":232,"indent":1,"parameters":[4,0,0,0,0,480,100,100,255,0,20,false]},{"code":235,"indent":1,"parameters":[2]},{"code":235,"indent":1,"parameters":[3]},{"code":235,"indent":1,"parameters":[4]},{"code":223,"indent":1,"parameters":[[0,0,0,0],60,true]},{"code":244,"indent":1,"parameters":[]},{"code":122,"indent":1,"parameters":[19,19,1,0,1]},{"code":121,"indent":1,"parameters":[210,210,0]},{"code":123,"indent":1,"parameters":["A",0]},{"code":0,"indent":1,"parameters":[]},{"code":412,"indent":0,"parameters":[]},{"code":0,"indent":0,"parameters":[]}],"moveFrequency":3,"moveRoute":{"list":[{"code":0,"parameters":[]}],"repeat":true,"skippable":false,"wait":false},"moveSpeed":3,"moveType":0,"priorityType":0,"stepAnime":false,"through":false,"trigger":4,"walkAnime":true},{"conditions":{"actorId":1,"actorValid":false,"itemId":1,"itemValid":false,"selfSwitchCh":"A","selfSwitchValid":true,"switch1Id":1,"switch1Valid":false,"switch2Id":1,"switch2Valid":false,"variableId":1,"variableValid":false,"variableValue":0},"directionFix":false,"image":{"characterIndex":0,"characterName":"","direction":2,"pattern":0,"tileId":0},"list":[{"code":0,"indent":0,"parameters":[]}],"moveFrequency":3,"moveRoute":{"list":[{"code":0,"parameters":[]}],"repeat":true,"skippable":false,"wait":false},"moveSpeed":3,"moveType":0,"priorityType":0,"stepAnime":false,"through":false,"trigger":0,"walkAnime":true}],"x":0,"y":12},
{"id":5,"name":"Party Chat - Lemme Show You How to Tango","note":"","pages":[{"conditions":{"actorId":1,"actorValid":false,"itemId":1,"itemValid":false,"selfSwitchCh":"A","selfSwitchValid":false,"switch1Id":34,"switch1Valid":true,"switch2Id":1,"switch2Valid":false,"variableId":1,"variableValid":false,"variableValue":0},"directionFix":false,"image":{"characterIndex":0,"characterName":"","direction":2,"pattern":0,"tileId":0},"list":[{"code":231,"indent":0,"parameters":[1,"PageDn_button5",0,0,0,500,80,80,255,0]},{"code":230,"indent":0,"parameters":[20]},{"code":250,"indent":0,"parameters":[{"name":"Saint5","volume":90,"pitch":100,"pan":0}]},{"code":230,"indent":0,"parameters":[60]},{"code":111,"indent":0,"parameters":[11,"pagedown"]},{"code":250,"indent":1,"parameters":[{"name":"Decision5","volume":90,"pitch":100,"pan":0}]},{"code":243,"indent":1,"parameters":[]},{"code":235,"indent":1,"parameters":[1]},{"code":217,"indent":1,"parameters":[]},{"code":230,"indent":1,"parameters":[20]},{"code":356,"indent":1,"parameters":["HideActiveQuestWindow"]},{"code":223,"indent":1,"parameters":[[-68,-68,-68,0],60,true]},{"code":231,"indent":1,"parameters":[2,"Senisa_3",0,0,0,0,100,100,0,0]},{"code":231,"indent":1,"parameters":[3,"Nalia_0",0,0,816,0,-100,100,0,0]},{"code":231,"indent":1,"parameters":[4,"Kevar_5",0,0,0,480,100,100,0,0]},{"code":231,"indent":1,"parameters":[5,"Frei_0",0,0,816,480,-100,100,0,0]},{"code":232,"indent":1,"parameters":[2,0,0,0,90,200,100,100,255,0,20,false]},{"code":232,"indent":1,"parameters":[4,0,0,0,396,200,-100,100,255,0,20,false]},{"code":232,"indent":1,"parameters":[5,0,0,0,560,200,-100,100,255,0,20,false]},{"code":232,"indent":1,"parameters":[3,0,0,0,726,200,-100,100,255,0,20,false]},{"code":230,"indent":1,"parameters":[10]},{"code":101,"indent":1,"parameters":["",0,0,2]},{"code":401,"indent":1,"parameters":["\\pop[560,350]So, my lovelies, do any of you know how "]},{"code":401,"indent":1,"parameters":["to dance the dance of the seas?"]},{"code":231,"indent":1,"parameters":[2,"Senisa_2",0,0,90,200,100,100,255,0]},{"code":101,"indent":1,"parameters":["",0,0,2]},{"code":401,"indent":1,"parameters":["\\pop[90,350]What kind of conversation starter is this?"]},{"code":231,"indent":1,"parameters":[5,"Frei_2",0,0,560,200,-100,100,255,0]},{"code":101,"indent":1,"parameters":["",0,0,2]},{"code":401,"indent":1,"parameters":["\\pop[560,350]Why the best kind of starters! Because if "]},{"code":401,"indent":1,"parameters":["you can dance like the seas, you can dance with me. "]},{"code":401,"indent":1,"parameters":["And I’m always looking for a partner or three."]},{"code":231,"indent":1,"parameters":[4,"Kevar_11",0,0,396,200,-100,100,255,0]},{"code":101,"indent":1,"parameters":["",0,0,2]},{"code":401,"indent":1,"parameters":["\\pop[396,350]No. We are not interested in that kind of "]},{"code":401,"indent":1,"parameters":["dancing."]},{"code":231,"indent":1,"parameters":[3,"Nalia_2",0,0,726,200,-100,100,255,0]},{"code":101,"indent":1,"parameters":["",0,0,2]},{"code":401,"indent":1,"parameters":["\\pop[726,350]Oh, I want to learn how to dance like the seas!"]},{"code":231,"indent":1,"parameters":[5,"Frei_0",0,0,560,200,-100,100,255,0]},{"code":101,"indent":1,"parameters":["",0,0,2]},{"code":401,"indent":1,"parameters":["\\pop[560,350]But of course, little angel. I can show the most"]},{"code":401,"indent":1,"parameters":["passionate of dances that embodies the very emotions of "]},{"code":401,"indent":1,"parameters":["the seas: The Tango!"]},{"code":231,"indent":1,"parameters":[3,"Nalia_9",0,0,726,200,-100,100,255,0]},{"code":101,"indent":1,"parameters":["",0,0,2]},{"code":401,"indent":1,"parameters":["\\pop[726,350]The Tango?"]},{"code":231,"indent":1,"parameters":[5,"Frei_2",0,0,560,200,-100,100,255,0]},{"code":101,"indent":1,"parameters":["",0,0,2]},{"code":401,"indent":1,"parameters":["\\pop[560,350]Indeed. There are many forms, but my favorite "]},{"code":401,"indent":1,"parameters":["will always be the sideways tango. Shall I show it to "]},{"code":401,"indent":1,"parameters":["you?"]},{"code":231,"indent":1,"parameters":[3,"Nalia_3",0,0,726,200,-100,100,255,0]},{"code":101,"indent":1,"parameters":["",0,0,2]},{"code":401,"indent":1,"parameters":["\\pop[726,350]Su---"]},{"code":231,"indent":1,"parameters":[4,"Kevar_16",0,0,396,200,-100,100,255,0]},{"code":101,"indent":1,"parameters":["",0,0,2]},{"code":401,"indent":1,"parameters":["\\pop[396,350]Absolutely not!"]},{"code":231,"indent":1,"parameters":[2,"Senisa_18",0,0,90,200,100,100,255,0]},{"code":101,"indent":1,"parameters":["",0,0,2]},{"code":401,"indent":1,"parameters":["\\pop[90,350]No, you don’t you. There will be none of "]},{"code":401,"indent":1,"parameters":["that with this child. "]},{"code":231,"indent":1,"parameters":[5,"Frei_3",0,0,560,200,-100,100,255,0]},{"code":101,"indent":1,"parameters":["",0,0,2]},{"code":401,"indent":1,"parameters":["\\pop[560,350]Fine, fine. If I can’t teach her, how about"]},{"code":401,"indent":1,"parameters":["you let me teach you?"]},{"code":231,"indent":1,"parameters":[2,"Senisa_7",0,0,90,200,100,100,255,0]},{"code":101,"indent":1,"parameters":["",0,0,2]},{"code":401,"indent":1,"parameters":["\\pop[90,350]No."]},{"code":231,"indent":1,"parameters":[5,"Frei_4",0,0,560,200,-100,100,255,0]},{"code":101,"indent":1,"parameters":["",0,0,2]},{"code":401,"indent":1,"parameters":["\\pop[560,350]And to my lovely and fierce protector?"]},{"code":231,"indent":1,"parameters":[4,"Kevar_17",0,0,396,200,-100,100,255,0]},{"code":101,"indent":1,"parameters":["",0,0,2]},{"code":401,"indent":1,"parameters":["\\pop[396,350]Over your dead body."]},{"code":231,"indent":1,"parameters":[5,"Frei_6",0,0,560,200,-100,100,255,0]},{"code":101,"indent":1,"parameters":["",0,0,2]},{"code":401,"indent":1,"parameters":["\\pop[560,350]I will get you two yet. "]},{"code":231,"indent":1,"parameters":[3,"Nalia_7",0,0,726,200,-100,100,255,0]},{"code":101,"indent":1,"parameters":["",0,0,2]},{"code":401,"indent":1,"parameters":["\\pop[726,350]?"]},{"code":230,"indent":1,"parameters":[10]},{"code":232,"indent":1,"parameters":[3,0,0,0,816,0,-100,100,0,0,20,false]},{"code":232,"indent":1,"parameters":[2,0,0,0,0,0,100,100,0,0,20,false]},{"code":232,"indent":1,"parameters":[4,0,0,0,0,480,100,100,255,0,20,false]},{"code":232,"indent":1,"parameters":[5,0,0,0,816,480,-100,100,0,0,20,false]},{"code":235,"indent":1,"parameters":[2]},{"code":235,"indent":1,"parameters":[3]},{"code":235,"indent":1,"parameters":[4]},{"code":235,"indent":1,"parameters":[5]},{"code":223,"indent":1,"parameters":[[0,0,0,0],60,true]},{"code":244,"indent":1,"parameters":[]},{"code":122,"indent":1,"parameters":[19,19,1,0,1]},{"code":121,"indent":1,"parameters":[211,211,0]},{"code":123,"indent":1,"parameters":["A",0]},{"code":0,"indent":1,"parameters":[]},{"code":412,"indent":0,"parameters":[]},{"code":0,"indent":0,"parameters":[]}],"moveFrequency":3,"moveRoute":{"list":[{"code":0,"parameters":[]}],"repeat":true,"skippable":false,"wait":false},"moveSpeed":3,"moveType":0,"priorityType":0,"stepAnime":false,"through":false,"trigger":4,"walkAnime":true},{"conditions":{"actorId":1,"actorValid":false,"itemId":1,"itemValid":false,"selfSwitchCh":"A","selfSwitchValid":true,"switch1Id":1,"switch1Valid":false,"switch2Id":1,"switch2Valid":false,"variableId":1,"variableValid":false,"variableValue":0},"directionFix":false,"image":{"characterIndex":0,"characterName":"","direction":2,"pattern":0,"tileId":0},"list":[{"code":0,"indent":0,"parameters":[]}],"moveFrequency":3,"moveRoute":{"list":[{"code":0,"parameters":[]}],"repeat":true,"skippable":false,"wait":false},"moveSpeed":3,"moveType":0,"priorityType":0,"stepAnime":false,"through":false,"trigger":0,"walkAnime":true}],"x":1,"y":12},
{"id":6,"name":"Party Chat - The Commerce of Zikia","note":"","pages":[{"conditions":{"actorId":1,"actorValid":false,"itemId":1,"itemValid":false,"selfSwitchCh":"A","selfSwitchValid":false,"switch1Id":34,"switch1Valid":true,"switch2Id":1,"switch2Valid":false,"variableId":1,"variableValid":false,"variableValue":0},"directionFix":false,"image":{"characterIndex":0,"characterName":"","direction":2,"pattern":0,"tileId":0},"list":[{"code":231,"indent":0,"parameters":[1,"PageDn_button5",0,0,0,500,80,80,255,0]},{"code":230,"indent":0,"parameters":[20]},{"code":250,"indent":0,"parameters":[{"name":"Saint5","volume":90,"pitch":100,"pan":0}]},{"code":230,"indent":0,"parameters":[60]},{"code":111,"indent":0,"parameters":[11,"pagedown"]},{"code":250,"indent":1,"parameters":[{"name":"Decision5","volume":90,"pitch":100,"pan":0}]},{"code":243,"indent":1,"parameters":[]},{"code":235,"indent":1,"parameters":[1]},{"code":217,"indent":1,"parameters":[]},{"code":230,"indent":1,"parameters":[20]},{"code":356,"indent":1,"parameters":["HideActiveQuestWindow"]},{"code":223,"indent":1,"parameters":[[-68,-68,-68,0],60,true]},{"code":231,"indent":1,"parameters":[2,"Senisa_3",0,0,0,0,100,100,0,0]},{"code":231,"indent":1,"parameters":[3,"Nalia_1",0,0,816,0,-100,100,0,0]},{"code":231,"indent":1,"parameters":[4,"Kevar_5",0,0,0,480,100,100,0,0]},{"code":232,"indent":1,"parameters":[2,0,0,0,150,200,100,100,255,0,20,false]},{"code":232,"indent":1,"parameters":[4,0,0,0,466,200,-100,100,255,0,20,false]},{"code":232,"indent":1,"parameters":[3,0,0,0,646,200,-100,100,255,0,20,false]},{"code":230,"indent":1,"parameters":[10]},{"code":101,"indent":1,"parameters":["",0,0,2]},{"code":401,"indent":1,"parameters":["\\pop[466,350]Coming to \\C[1]Zikia\\C[0] never stops putting a smile"]},{"code":401,"indent":1,"parameters":["on my face."]},{"code":231,"indent":1,"parameters":[3,"Nalia_4",0,0,646,200,-100,100,255,0]},{"code":101,"indent":1,"parameters":["",0,0,2]},{"code":401,"indent":1,"parameters":["\\pop[646,350]Everything is so busy. "]},{"code":231,"indent":1,"parameters":[2,"Senisa_2",0,0,150,200,-100,100,255,0]},{"code":101,"indent":1,"parameters":["",0,0,2]},{"code":401,"indent":1,"parameters":["\\pop[150,350]I can see why. Everything looks "]},{"code":401,"indent":1,"parameters":["bountiful here."]},{"code":231,"indent":1,"parameters":[4,"Kevar_11",0,0,466,200,-100,100,255,0]},{"code":101,"indent":1,"parameters":["",0,0,2]},{"code":401,"indent":1,"parameters":["\\pop[466,350]Yep. This port here is the largest export "]},{"code":401,"indent":1,"parameters":["of ores, vegetables and fruits. Because of how mountainous "]},{"code":401,"indent":1,"parameters":["the region is, we boast the largest veins of common metals "]},{"code":401,"indent":1,"parameters":["in the world. And we ship them from here to all around the "]},{"code":101,"indent":1,"parameters":["",0,0,2]},{"code":401,"indent":1,"parameters":["\\pop[466,350]world. Our biggest trade partner is \\C[1]Ulmash\\C[0]."]},{"code":401,"indent":1,"parameters":["They use the ores to mass produce weapons for their "]},{"code":401,"indent":1,"parameters":["coliseum and make their machines for their casinos."]},{"code":231,"indent":1,"parameters":[3,"Nalia_4",0,0,646,200,-100,100,255,0]},{"code":101,"indent":1,"parameters":["",0,0,2]},{"code":401,"indent":1,"parameters":["\\pop[646,350]That’s amazing!"]},{"code":231,"indent":1,"parameters":[2,"Senisa_2",0,0,150,200,-100,100,255,0]},{"code":101,"indent":1,"parameters":["",0,0,2]},{"code":401,"indent":1,"parameters":["\\pop[150,350]You know a lot about this."]},{"code":231,"indent":1,"parameters":[4,"Kevar_11",0,0,466,200,-100,100,255,0]},{"code":101,"indent":1,"parameters":["",0,0,2]},{"code":401,"indent":1,"parameters":["\\pop[466,350]Eh, just a part of my duties."]},{"code":230,"indent":1,"parameters":[10]},{"code":232,"indent":1,"parameters":[3,0,0,0,816,0,-100,100,0,0,20,false]},{"code":232,"indent":1,"parameters":[2,0,0,0,0,0,100,100,0,0,20,false]},{"code":232,"indent":1,"parameters":[4,0,0,0,0,480,100,100,255,0,20,false]},{"code":235,"indent":1,"parameters":[2]},{"code":235,"indent":1,"parameters":[3]},{"code":235,"indent":1,"parameters":[4]},{"code":223,"indent":1,"parameters":[[0,0,0,0],60,true]},{"code":244,"indent":1,"parameters":[]},{"code":122,"indent":1,"parameters":[19,19,1,0,1]},{"code":121,"indent":1,"parameters":[215,215,0]},{"code":123,"indent":1,"parameters":["A",0]},{"code":0,"indent":1,"parameters":[]},{"code":412,"indent":0,"parameters":[]},{"code":0,"indent":0,"parameters":[]}],"moveFrequency":3,"moveRoute":{"list":[{"code":0,"parameters":[]}],"repeat":true,"skippable":false,"wait":false},"moveSpeed":3,"moveType":0,"priorityType":0,"stepAnime":false,"through":false,"trigger":4,"walkAnime":true},{"conditions":{"actorId":1,"actorValid":false,"itemId":1,"itemValid":false,"selfSwitchCh":"A","selfSwitchValid":true,"switch1Id":1,"switch1Valid":false,"switch2Id":1,"switch2Valid":false,"variableId":1,"variableValid":false,"variableValue":0},"directionFix":false,"image":{"characterIndex":0,"characterName":"","direction":2,"pattern":0,"tileId":0},"list":[{"code":0,"indent":0,"parameters":[]}],"moveFrequency":3,"moveRoute":{"list":[{"code":0,"parameters":[]}],"repeat":true,"skippable":false,"wait":false},"moveSpeed":3,"moveType":0,"priorityType":0,"stepAnime":false,"through":false,"trigger":0,"walkAnime":true}],"x":5,"y":12}
]
}