{
"autoplayBgm":false,"autoplayBgs":false,"battleback1Name":"Cobblestones3","battleback2Name":"Temple","bgm":{"name":"","pan":0,"pitch":100,"volume":90},"bgs":{"name":"","pan":0,"pitch":100,"volume":90},"disableDashing":false,"displayName":"Room 4","encounterList":[{"regionSet":[],"troopId":36,"weight":4},{"regionSet":[],"troopId":37,"weight":4},{"regionSet":[],"troopId":38,"weight":3},{"regionSet":[],"troopId":39,"weight":5}],"encounterStep":30,"height":17,"note":"<General Location: Shrine of Ifrit>","parallaxLoopX":false,"parallaxLoopY":false,"parallaxName":"","parallaxShow":true,"parallaxSx":0,"parallaxSy":0,"scrollType":0,"specifyBattleback":true,"tilesetId":10,"width":21,
"data":[6752,6752,6752,6752,6752,6752,6752,6752,6752,6752,6752,6752,6752,6752,6752,6752,6752,6752,6752,6752,6752,6752,6752,6752,6752,6752,6752,6752,6752,6752,6752,6752,6752,6752,6752,6752,6752,6752,6752,6752,6752,6752,6752,6752,6752,6752,6752,6752,6752,6752,6752,6752,6752,6752,6752,6752,6752,6752,6752,6752,6752,6752,6752,6752,6756,6780,6780,6780,6780,6780,6780,6780,6780,6780,6780,6780,6780,6780,6780,6780,6780,6780,6760,6752,6752,6776,7042,7042,7042,7042,7042,7042,7042,7042,7042,7042,7042,7042,7042,7042,7042,7042,7042,6768,6752,6752,6776,7048,7048,7048,7048,7048,7048,7048,7048,7048,7048,7048,7048,7048,7048,7048,7048,7048,6768,6752,6752,6776,4002,3988,3988,3988,3988,4004,4059,4049,4049,4061,4002,3988,3988,3988,3988,3988,4004,6768,6752,6752,6776,3984,3972,3996,3996,3996,3998,3990,3988,3988,3988,3973,3996,3996,3996,3996,3976,3992,6768,6752,6752,6776,3984,3992,6786,6772,6772,6788,3984,3968,3968,3968,3992,6786,6772,6772,6788,3984,3992,6768,6752,6752,6776,3984,3992,6792,6780,6780,6790,3984,3968,3968,3968,3992,6792,6780,6780,6790,3984,3992,6768,6752,6752,6776,4008,4006,7043,7042,7042,7046,4008,3996,3996,3996,4006,7043,7042,7042,7046,4008,4006,6768,6752,6752,6776,7050,7054,7049,7048,7048,7052,7051,7054,1651,7051,7054,7049,7048,7048,7052,7051,7050,6768,6752,6752,6776,4002,4004,4059,4049,4049,4061,4002,3988,3988,3988,4004,4059,4049,4049,4061,4002,4004,6768,6752,6752,6776,3984,3970,3988,3988,3988,3988,3969,3968,3968,3968,3970,3988,3988,3988,3988,3969,3992,6768,6752,6752,6776,4008,3996,3996,3996,3996,3996,3996,3996,3996,3996,3996,3996,3996,3996,3996,3996,4006,6768,6752,6752,6754,6772,6772,6772,6772,6772,6772,6772,6772,6772,6772,6772,6772,6772,6772,6772,6772,6772,6753,6752,6752,6752,6752,6752,6752,6752,6752,6752,6752,6752,6752,6752,6752,6752,6752,6752,6752,6752,6752,6752,6752,0,0,0,0,0,0,0,0,0,0,0,0,0,0,0,0,0,0,0,0,0,0,0,0,0,0,0,0,0,0,0,0,0,0,0,0,0,0,0,0,0,0,0,0,0,0,0,0,0,0,0,0,0,0,0,0,0,0,0,0,0,0,0,0,0,0,0,0,0,0,0,0,0,0,0,0,0,0,0,0,0,0,0,0,0,0,0,0,0,0,0,0,0,0,0,0,0,0,0,0,0,0,0,0,0,0,0,0,0,0,0,0,0,0,0,0,0,0,0,0,0,0,0,0,0,0,0,0,0,0,0,0,0,0,0,0,0,0,0,0,0,0,0,0,0,0,0,0,0,0,0,0,0,0,0,0,0,0,0,0,0,0,0,0,0,0,0,0,0,0,0,0,0,0,0,0,0,0,0,0,0,0,0,0,0,0,0,0,0,0,0,0,0,0,0,0,0,0,0,0,0,0,0,0,0,0,0,0,0,0,0,0,0,0,0,0,0,0,0,0,0,0,0,0,0,0,0,0,0,0,0,0,0,0,0,0,0,0,0,0,0,0,0,0,0,0,0,0,0,0,0,0,0,0,0,0,0,0,0,0,0,0,0,0,0,0,0,0,0,0,0,0,0,0,0,0,0,0,0,0,0,0,0,0,0,0,0,0,0,0,0,0,0,0,0,0,0,0,0,0,0,0,0,0,0,0,0,0,0,0,0,0,0,0,0,0,0,0,0,0,0,0,0,0,0,0,0,0,0,0,0,0,0,0,0,0,0,0,0,0,0,0,0,0,0,0,0,0,0,0,0,0,0,0,0,0,0,0,0,0,0,0,0,0,0,0,0,0,0,0,0,0,0,0,0,0,0,0,0,0,0,0,0,0,0,0,0,0,0,0,0,0,0,0,0,0,0,0,0,0,0,0,0,0,0,0,0,0,0,0,0,0,0,0,0,0,0,0,0,0,0,0,0,0,0,0,0,0,0,0,0,0,0,0,0,0,0,0,0,0,0,0,0,0,0,0,0,0,0,0,112,113,0,0,0,0,0,0,0,0,0,0,0,0,0,0,0,0,0,0,0,120,121,0,0,0,0,0,0,0,0,0,0,0,0,0,0,0,0,0,0,0,0,0,0,0,0,0,0,0,0,0,0,0,0,0,0,0,0,0,0,0,0,0,0,0,0,0,0,0,0,0,0,0,0,0,0,0,0,0,0,0,0,0,0,0,0,0,0,0,0,0,0,0,0,0,0,0,0,0,0,0,0,0,0,0,0,0,0,0,0,0,0,0,0,0,0,0,0,0,0,0,112,113,0,0,0,0,0,0,0,112,113,0,0,0,0,0,0,0,0,0,0,120,121,0,0,0,0,0,0,0,120,121,0,0,0,0,0,0,0,0,0,0,0,0,0,0,0,0,0,0,0,0,0,0,0,0,0,0,0,0,0,0,0,0,0,0,0,0,0,0,0,0,0,0,0,0,0,0,0,0,0,0,0,0,0,0,0,0,0,0,0,0,0,0,0,0,0,0,0,0,0,0,0,0,0,0,0,0,0,0,0,0,0,0,0,0,0,0,0,0,0,0,0,0,0,0,0,0,0,0,0,0,0,0,0,0,0,0,0,0,0,0,0,0,0,0,0,0,0,0,0,0,0,0,0,0,0,0,0,0,0,0,0,0,0,0,0,0,0,0,0,0,0,0,0,0,0,0,0,0,0,0,0,0,0,0,0,0,0,0,0,0,0,0,0,0,0,0,0,0,0,0,0,0,0,0,0,0,0,0,0,0,0,0,0,0,0,0,0,0,0,0,0,0,0,0,0,0,1010,0,1010,0,0,1010,0,158,159,0,1010,0,0,1010,0,0,1010,0,0,0,0,1018,0,1018,0,0,1018,968,166,167,968,1018,0,0,1018,0,0,1018,0,0,0,0,0,0,0,0,0,0,992,0,0,992,0,0,0,0,0,0,0,0,0,0,0,0,0,0,0,0,0,0,0,0,0,0,0,0,0,0,0,0,0,0,0,0,0,0,0,0,0,0,0,0,0,0,0,0,0,0,0,0,0,0,0,0,0,0,0,0,0,0,0,0,0,0,0,0,0,0,0,0,0,0,0,0,0,0,0,0,0,158,159,0,0,0,0,0,0,0,158,159,0,0,0,0,0,0,0,0,0,968,166,167,968,0,0,0,0,0,968,166,167,968,0,0,0,0,0,0,0,0,992,0,0,992,0,0,0,0,0,992,0,0,992,0,0,0,0,0,0,0,0,0,0,0,0,0,0,0,0,0,0,0,0,0,0,0,0,0,0,0,0,0,0,0,0,0,0,0,0,0,0,0,0,0,0,0,0,0,0,0,0,0,0,0,0,0,0,0,0,0,0,0,0,0,0,0,0,0,0,0,0,0,0,0,0,0,0,0,0,0,0,0,0,0,0,0,0,0,0,0,0,0,0,0,0,0,0,0,0,0,0,0,0,0,0,0,0,0,0,0,0,0,0,0,0,0,0,0,0,0,0,0,0,0,0,0,0,0,0,0,0,0,0,0,0,0,0,0,0,0,0,0,0,0,0,0,0,0,0,0,0,0,0,0,0,0,0,0,0,0,0,0,0,0,0,0,0,0,0,0,0,0,0,0,0,0,0,0,0,0,0,0,0,0,0,0,0,0,0,0,0,0,0,0,0,0,0,0,0,0,0,0,0,0,0,0,0,0,0,0,0,0,0,0,0,0,0,0,0,5,0,0,0,0,0,0,0,0,0,0,0,0,0,0,0,0,0,0,0,0,5,0,0,0,0,0,0,0,0,0,0,0,0,0,0,0,0,0,0,0,0,5,0,0,0,0,0,0,0,0,0,0,0,0,0,0,0,0,0,0,0,0,5,0,0,0,0,0,5,0,0,0,0,0,0,0,0,5,0,0,0,0,0,5,0,0,0,0,0,5,0,0,0,0,0,0,0,0,5,0,0,0,0,0,0,0,0,0,0,0,0,0,0,0,0,0,0,0,0,0,0,0,0,0,0,5,0,0,0,0,0,0,0,0,0,0,0,0,0,0,0,0,0,0,0,0,5,0,0,0,0,0,0,0,0,0,0,0,0,0,0,0,0,0,0,0,0,5,0,0,0,0,0,0,0,0,0,0,0,0,0,0,0,0,0,0,0,0,0,0,0,0,0,0,0,0,0,0,0,0,0,0,0,0,0,0,0,0,0,0,0,0,0,0,0,0,0,0,0,0,0,0,0,0,0,0,0,0,0,0,0,0,0,0,0,0,0,0,0,0,0,0,0,0,0,0,0,0,0,0,0,0,0,0,0,0,0,0,0,0,0,0,0,0,0,0,0,0,0,0,0,0,0,0,0,0,0,0,0,0,0,0,0,0,0,0,0,0,0,0,0,0,0,0,0,0,0,0,0,0,0,0,0,0,0,0,0,0,0,0,0,0,0,0,0,0,0,0,0,0,0,0,0,0,0,0,0,0,0,0,0,0,0,0,0,0,0,0,0,0,0,0,0,0,0,0,0,0,0,0,0,0,0,0,0,0,0,0,0,0,0,0,0,0,0,0,0,0,0,0,0,0,0,0,0,0,0,0,0,0,0,0,0,0,0,0,0,0,0,0,0,0,0,0,0,0,0,0,0,0,0,0,0,0,0,0,0,0,0,0,0,0,0,0,0,0,0,0,0,0,0,0,0,0,0,0,0,0,0,0,0,0,0,0,0,0,0,0,0,0,0,0,0,0,0,0,0,0,0,0,0,0,0,0,0,0,0,0,0,0,0,0,0,0,0,0,0,0,0,0,0,0,0,0,0,0,0,0,0,0,0,0,0,0,0,0,0,0,0,0,0,0,0,0,0,0,0,0,0,0,0,0,0,0,0,0,0,0,0,0,0,0,0,0,0,0,0,0,0,0,0,0,0,0,0,0,0,0,0,0,0,0,0,0,0,0,0,0,0,0,0,0,0,0,0,0,0,0,0,0,0,0,0,0,0,0,0,0,0,0,0,0,0,0,0,0,0,0,0,0,0,0,0,0,0,0,0,0,0,0,0,0,0,0,0],
"events":[
null,
{"id":1,"name":"Teleport to Room 3(Right}","note":"","pages":[{"conditions":{"actorId":1,"actorValid":false,"itemId":1,"itemValid":false,"selfSwitchCh":"A","selfSwitchValid":false,"switch1Id":1,"switch1Valid":false,"switch2Id":1,"switch2Valid":false,"variableId":1,"variableValid":false,"variableValue":0},"directionFix":false,"image":{"characterIndex":0,"characterName":"","direction":2,"pattern":0,"tileId":0},"list":[{"code":117,"indent":0,"parameters":[179]},{"code":212,"indent":0,"parameters":[-1,120,false]},{"code":356,"indent":0,"parameters":["MapZoom set 1.5 duration 30"]},{"code":201,"indent":0,"parameters":[0,156,16,15,2,0]},{"code":117,"indent":0,"parameters":[180]},{"code":0,"indent":0,"parameters":[]}],"moveFrequency":3,"moveRoute":{"list":[{"code":0,"parameters":[]}],"repeat":true,"skippable":false,"wait":false},"moveSpeed":3,"moveType":0,"priorityType":0,"stepAnime":false,"through":false,"trigger":1,"walkAnime":true}],"x":9,"y":6},
{"id":2,"name":"Teleport to Room 3(Right}","note":"","pages":[{"conditions":{"actorId":1,"actorValid":false,"itemId":1,"itemValid":false,"selfSwitchCh":"A","selfSwitchValid":false,"switch1Id":1,"switch1Valid":false,"switch2Id":1,"switch2Valid":false,"variableId":1,"variableValid":false,"variableValue":0},"directionFix":false,"image":{"characterIndex":0,"characterName":"","direction":2,"pattern":0,"tileId":0},"list":[{"code":117,"indent":0,"parameters":[179]},{"code":212,"indent":0,"parameters":[-1,120,false]},{"code":356,"indent":0,"parameters":["MapZoom set 1.5 duration 30"]},{"code":201,"indent":0,"parameters":[0,156,17,15,2,0]},{"code":117,"indent":0,"parameters":[180]},{"code":0,"indent":0,"parameters":[]}],"moveFrequency":3,"moveRoute":{"list":[{"code":0,"parameters":[]}],"repeat":true,"skippable":false,"wait":false},"moveSpeed":3,"moveType":0,"priorityType":0,"stepAnime":false,"through":false,"trigger":1,"walkAnime":true}],"x":10,"y":6},
{"id":3,"name":"Teleport to Room 5","note":"","pages":[{"conditions":{"actorId":1,"actorValid":false,"itemId":1,"itemValid":false,"selfSwitchCh":"A","selfSwitchValid":false,"switch1Id":1,"switch1Valid":false,"switch2Id":1,"switch2Valid":false,"variableId":1,"variableValid":false,"variableValue":0},"directionFix":false,"image":{"characterIndex":0,"characterName":"","direction":2,"pattern":0,"tileId":0},"list":[{"code":117,"indent":0,"parameters":[179]},{"code":212,"indent":0,"parameters":[-1,120,false]},{"code":356,"indent":0,"parameters":["MapZoom set 1.5 duration 30"]},{"code":201,"indent":0,"parameters":[0,158,2,6,6,0]},{"code":117,"indent":0,"parameters":[180]},{"code":0,"indent":0,"parameters":[]}],"moveFrequency":3,"moveRoute":{"list":[{"code":0,"parameters":[]}],"repeat":true,"skippable":false,"wait":false},"moveSpeed":3,"moveType":0,"priorityType":0,"stepAnime":false,"through":false,"trigger":1,"walkAnime":true}],"x":5,"y":12},
{"id":4,"name":"Teleport to Room 5","note":"","pages":[{"conditions":{"actorId":1,"actorValid":false,"itemId":1,"itemValid":false,"selfSwitchCh":"A","selfSwitchValid":false,"switch1Id":1,"switch1Valid":false,"switch2Id":1,"switch2Valid":false,"variableId":1,"variableValid":false,"variableValue":0},"directionFix":false,"image":{"characterIndex":0,"characterName":"","direction":2,"pattern":0,"tileId":0},"list":[{"code":117,"indent":0,"parameters":[179]},{"code":212,"indent":0,"parameters":[-1,120,false]},{"code":356,"indent":0,"parameters":["MapZoom set 1.5 duration 30"]},{"code":201,"indent":0,"parameters":[0,158,2,7,6,0]},{"code":117,"indent":0,"parameters":[180]},{"code":0,"indent":0,"parameters":[]}],"moveFrequency":3,"moveRoute":{"list":[{"code":0,"parameters":[]}],"repeat":true,"skippable":false,"wait":false},"moveSpeed":3,"moveType":0,"priorityType":0,"stepAnime":false,"through":false,"trigger":1,"walkAnime":true}],"x":6,"y":12},
{"id":5,"name":"Teleport to Room 7","note":"","pages":[{"conditions":{"actorId":1,"actorValid":false,"itemId":1,"itemValid":false,"selfSwitchCh":"A","selfSwitchValid":false,"switch1Id":1,"switch1Valid":false,"switch2Id":1,"switch2Valid":false,"variableId":1,"variableValid":false,"variableValue":0},"directionFix":false,"image":{"characterIndex":0,"characterName":"","direction":2,"pattern":0,"tileId":0},"list":[{"code":117,"indent":0,"parameters":[179]},{"code":212,"indent":0,"parameters":[-1,120,false]},{"code":356,"indent":0,"parameters":["MapZoom set 1.5 duration 30"]},{"code":201,"indent":0,"parameters":[0,160,3,4,2,0]},{"code":117,"indent":0,"parameters":[180]},{"code":0,"indent":0,"parameters":[]}],"moveFrequency":3,"moveRoute":{"list":[{"code":0,"parameters":[]}],"repeat":true,"skippable":false,"wait":false},"moveSpeed":3,"moveType":0,"priorityType":0,"stepAnime":false,"through":false,"trigger":1,"walkAnime":true}],"x":14,"y":12},
{"id":6,"name":"Teleport to Room 7","note":"","pages":[{"conditions":{"actorId":1,"actorValid":false,"itemId":1,"itemValid":false,"selfSwitchCh":"A","selfSwitchValid":false,"switch1Id":1,"switch1Valid":false,"switch2Id":1,"switch2Valid":false,"variableId":1,"variableValid":false,"variableValue":0},"directionFix":false,"image":{"characterIndex":0,"characterName":"","direction":2,"pattern":0,"tileId":0},"list":[{"code":117,"indent":0,"parameters":[179]},{"code":212,"indent":0,"parameters":[-1,120,false]},{"code":356,"indent":0,"parameters":["MapZoom set 1.5 duration 30"]},{"code":201,"indent":0,"parameters":[0,160,4,4,2,0]},{"code":117,"indent":0,"parameters":[180]},{"code":0,"indent":0,"parameters":[]}],"moveFrequency":3,"moveRoute":{"list":[{"code":0,"parameters":[]}],"repeat":true,"skippable":false,"wait":false},"moveSpeed":3,"moveType":0,"priorityType":0,"stepAnime":false,"through":false,"trigger":1,"walkAnime":true}],"x":15,"y":12},
{"id":7,"name":"Party Chat - What's the point?","note":"","pages":[{"conditions":{"actorId":1,"actorValid":false,"itemId":1,"itemValid":false,"selfSwitchCh":"A","selfSwitchValid":false,"switch1Id":81,"switch1Valid":true,"switch2Id":1,"switch2Valid":false,"variableId":1,"variableValid":false,"variableValue":0},"directionFix":false,"image":{"characterIndex":0,"characterName":"","direction":2,"pattern":0,"tileId":0},"list":[{"code":231,"indent":0,"parameters":[1,"PageDn_button5",0,0,0,500,80,80,255,0]},{"code":230,"indent":0,"parameters":[20]},{"code":250,"indent":0,"parameters":[{"name":"Saint5","volume":90,"pitch":100,"pan":0}]},{"code":230,"indent":0,"parameters":[60]},{"code":111,"indent":0,"parameters":[11,"pagedown"]},{"code":250,"indent":1,"parameters":[{"name":"Decision5","volume":90,"pitch":100,"pan":0}]},{"code":243,"indent":1,"parameters":[]},{"code":235,"indent":1,"parameters":[1]},{"code":217,"indent":1,"parameters":[]},{"code":230,"indent":1,"parameters":[20]},{"code":356,"indent":1,"parameters":["HideActiveQuestWindow"]},{"code":223,"indent":1,"parameters":[[-68,-68,-68,0],60,true]},{"code":231,"indent":1,"parameters":[2,"Senisa_3",0,0,0,0,100,100,0,0]},{"code":231,"indent":1,"parameters":[3,"Leon_0",0,0,816,0,-100,100,0,0]},{"code":231,"indent":1,"parameters":[4,"Kevar_5",0,0,0,480,100,100,0,0]},{"code":232,"indent":1,"parameters":[2,0,0,0,150,200,100,100,255,0,20,false]},{"code":232,"indent":1,"parameters":[4,0,0,0,466,200,-100,100,255,0,20,false]},{"code":232,"indent":1,"parameters":[3,0,0,0,646,200,-100,100,255,0,20,false]},{"code":230,"indent":1,"parameters":[10]},{"code":101,"indent":1,"parameters":["",0,0,2]},{"code":401,"indent":1,"parameters":["\\pop[466,350]We’re in another room...Is this a world "]},{"code":401,"indent":1,"parameters":["inside of the mirror?"]},{"code":231,"indent":1,"parameters":[3,"Leon_0",0,0,646,200,-100,100,255,0]},{"code":101,"indent":1,"parameters":["",0,0,2]},{"code":401,"indent":1,"parameters":["\\pop[646,350]Yes and no. This enchantment is quite the "]},{"code":401,"indent":1,"parameters":["rare spell. Whoever did this has the knowledge of an "]},{"code":401,"indent":1,"parameters":["arcanist."]},{"code":231,"indent":1,"parameters":[2,"Senisa_2",0,0,150,200,-100,100,255,0]},{"code":101,"indent":1,"parameters":["",0,0,2]},{"code":401,"indent":1,"parameters":["\\pop[150,350]I just assumed we were hopping from room "]},{"code":401,"indent":1,"parameters":["to room."]},{"code":231,"indent":1,"parameters":[3,"Leon_0",0,0,646,200,-100,100,255,0]},{"code":101,"indent":1,"parameters":["",0,0,2]},{"code":401,"indent":1,"parameters":["\\pop[646,350]We are traveling back and forth between "]},{"code":401,"indent":1,"parameters":["parallel realms. Each time we move through the mirror, "]},{"code":401,"indent":1,"parameters":["our perception of the actual room is mirrored."]},{"code":231,"indent":1,"parameters":[4,"Kevar_11",0,0,466,200,-100,100,255,0]},{"code":101,"indent":1,"parameters":["",0,0,2]},{"code":401,"indent":1,"parameters":["\\pop[466,350]So, what we are seeing now is...?"]},{"code":231,"indent":1,"parameters":[3,"Leon_0",0,0,646,200,-100,100,255,0]},{"code":101,"indent":1,"parameters":["",0,0,2]},{"code":401,"indent":1,"parameters":["\\pop[646,350]A flipped version of an actual room in "]},{"code":401,"indent":1,"parameters":["this shrine. But to us, it looks normal. Strange, "]},{"code":401,"indent":1,"parameters":["isn’t it?"]},{"code":231,"indent":1,"parameters":[4,"Kevar_11",0,0,466,200,-100,100,255,0]},{"code":101,"indent":1,"parameters":["",0,0,2]},{"code":401,"indent":1,"parameters":["\\pop[466,350]What is the point of this kind of magic?"]},{"code":231,"indent":1,"parameters":[3,"Leon_0",0,0,646,200,-100,100,255,0]},{"code":101,"indent":1,"parameters":["",0,0,2]},{"code":401,"indent":1,"parameters":["\\pop[646,350]My guess is that the original creator of "]},{"code":401,"indent":1,"parameters":["the enchantment did it as a deterrent against thieves. "]},{"code":401,"indent":1,"parameters":["Either that, or the creator was bored."]},{"code":231,"indent":1,"parameters":[2,"Senisa_2",0,0,150,200,-100,100,255,0]},{"code":101,"indent":1,"parameters":["",0,0,2]},{"code":401,"indent":1,"parameters":["\\pop[150,350]This does seem like something you would "]},{"code":401,"indent":1,"parameters":["come up with if you were bored."]},{"code":231,"indent":1,"parameters":[3,"Leon_0",0,0,646,200,-100,100,255,0]},{"code":101,"indent":1,"parameters":["",0,0,2]},{"code":401,"indent":1,"parameters":["\\pop[646,350]I know! I would love to pick this guy’s "]},{"code":401,"indent":1,"parameters":["brain if we ever do meet him."]},{"code":231,"indent":1,"parameters":[4,"Kevar_11",0,0,466,200,-100,100,255,0]},{"code":101,"indent":1,"parameters":["",0,0,2]},{"code":401,"indent":1,"parameters":["\\pop[466,350]If I do find out who did this, I’m killing "]},{"code":401,"indent":1,"parameters":["them for taking Nalia."]},{"code":231,"indent":1,"parameters":[3,"Leon_0",0,0,646,200,-100,100,255,0]},{"code":101,"indent":1,"parameters":["",0,0,2]},{"code":401,"indent":1,"parameters":["\\pop[646,350]At least wait until he reveals the secrets."]},{"code":230,"indent":1,"parameters":[10]},{"code":232,"indent":1,"parameters":[3,0,0,0,816,0,-100,100,0,0,20,false]},{"code":232,"indent":1,"parameters":[2,0,0,0,0,0,100,100,0,0,20,false]},{"code":232,"indent":1,"parameters":[4,0,0,0,0,480,100,100,255,0,20,false]},{"code":235,"indent":1,"parameters":[2]},{"code":235,"indent":1,"parameters":[3]},{"code":235,"indent":1,"parameters":[4]},{"code":223,"indent":1,"parameters":[[0,0,0,0],60,true]},{"code":244,"indent":1,"parameters":[]},{"code":122,"indent":1,"parameters":[19,19,1,0,1]},{"code":121,"indent":1,"parameters":[219,219,0]},{"code":123,"indent":1,"parameters":["A",0]},{"code":0,"indent":1,"parameters":[]},{"code":412,"indent":0,"parameters":[]},{"code":0,"indent":0,"parameters":[]}],"moveFrequency":3,"moveRoute":{"list":[{"code":0,"parameters":[]}],"repeat":true,"skippable":false,"wait":false},"moveSpeed":3,"moveType":0,"priorityType":0,"stepAnime":false,"through":false,"trigger":4,"walkAnime":true},{"conditions":{"actorId":1,"actorValid":false,"itemId":1,"itemValid":false,"selfSwitchCh":"A","selfSwitchValid":true,"switch1Id":1,"switch1Valid":false,"switch2Id":1,"switch2Valid":false,"variableId":1,"variableValid":false,"variableValue":0},"directionFix":false,"image":{"characterIndex":0,"characterName":"","direction":2,"pattern":0,"tileId":0},"list":[{"code":0,"indent":0,"parameters":[]}],"moveFrequency":3,"moveRoute":{"list":[{"code":0,"parameters":[]}],"repeat":true,"skippable":false,"wait":false},"moveSpeed":3,"moveType":0,"priorityType":0,"stepAnime":false,"through":false,"trigger":0,"walkAnime":true},{"conditions":{"actorId":1,"actorValid":false,"itemId":1,"itemValid":false,"selfSwitchCh":"A","selfSwitchValid":false,"switch1Id":219,"switch1Valid":true,"switch2Id":1,"switch2Valid":false,"variableId":1,"variableValid":false,"variableValue":0},"directionFix":false,"image":{"characterIndex":0,"characterName":"","direction":2,"pattern":0,"tileId":0},"list":[{"code":0,"indent":0,"parameters":[]}],"moveFrequency":3,"moveRoute":{"list":[{"code":0,"parameters":[]}],"repeat":true,"skippable":false,"wait":false},"moveSpeed":3,"moveType":0,"priorityType":0,"stepAnime":false,"through":false,"trigger":0,"walkAnime":true}],"x":6,"y":8}
]
}